"REGION","TECHNOLOGY","YEAR","ReserveMarginTagTechnology"
"UTOPIA","E01",1990,1
"UTOPIA","E01",1991,1
"UTOPIA","E01",1992,1
"UTOPIA","E01",1993,1
"UTOPIA","E01",1994,1
"UTOPIA","E01",1995,1
"UTOPIA","E01",1996,1
"UTOPIA","E01",1997,1
"UTOPIA","E01",1998,1
"UTOPIA","E01",1999,1
"UTOPIA","E01",2000,1
"UTOPIA","E01",2001,1
"UTOPIA","E01",2002,1
"UTOPIA","E01",2003,1
"UTOPIA","E01",2004,1
"UTOPIA","E01",2005,1
"UTOPIA","E01",2006,1
"UTOPIA","E01",2007,1
"UTOPIA","E01",2008,1
"UTOPIA","E01",2009,1
"UTOPIA","E01",2010,1
"UTOPIA","E21",1990,1
"UTOPIA","E21",1991,1
"UTOPIA","E21",1992,1
"UTOPIA","E21",1993,1
"UTOPIA","E21",1994,1
"UTOPIA","E21",1995,1
"UTOPIA","E21",1996,1
"UTOPIA","E21",1997,1
"UTOPIA","E21",1998,1
"UTOPIA","E21",1999,1
"UTOPIA","E21",2000,1
"UTOPIA","E21",2001,1
"UTOPIA","E21",2002,1
"UTOPIA","E21",2003,1
"UTOPIA","E21",2004,1
"UTOPIA","E21",2005,1
"UTOPIA","E21",2006,1
"UTOPIA","E21",2007,1
"UTOPIA","E21",2008,1
"UTOPIA","E21",2009,1
"UTOPIA","E21",2010,1
"UTOPIA","E31",1990,1
"UTOPIA","E31",1991,1
"UTOPIA","E31",1992,1
"UTOPIA","E31",1993,1
"UTOPIA","E31",1994,1
"UTOPIA","E31",1995,1
"UTOPIA","E31",1996,1
"UTOPIA","E31",1997,1
"UTOPIA","E31",1998,1
"UTOPIA","E31",1999,1
"UTOPIA","E31",2000,1
"UTOPIA","E31",2001,1
"UTOPIA","E31",2002,1
"UTOPIA","E31",2003,1
"UTOPIA","E31",2004,1
"UTOPIA","E31",2005,1
"UTOPIA","E31",2006,1
"UTOPIA","E31",2007,1
"UTOPIA","E31",2008,1
"UTOPIA","E31",2009,1
"UTOPIA","E31",2010,1
"UTOPIA","E51",1990,1
"UTOPIA","E51",1991,1
"UTOPIA","E51",1992,1
"UTOPIA","E51",1993,1
"UTOPIA","E51",1994,1
"UTOPIA","E51",1995,1
"UTOPIA","E51",1996,1
"UTOPIA","E51",1997,1
"UTOPIA","E51",1998,1
"UTOPIA","E51",1999,1
"UTOPIA","E51",2000,1
"UTOPIA","E51",2001,1
"UTOPIA","E51",2002,1
"UTOPIA","E51",2003,1
"UTOPIA","E51",2004,1
"UTOPIA","E51",2005,1
"UTOPIA","E51",2006,1
"UTOPIA","E51",2007,1
"UTOPIA","E51",2008,1
"UTOPIA","E51",2009,1
"UTOPIA","E51",2010,1
"UTOPIA","E70",1990,1
"UTOPIA","E70",1991,1
"UTOPIA","E70",1992,1
"UTOPIA","E70",1993,1
"UTOPIA","E70",1994,1
"UTOPIA","E70",1995,1
"UTOPIA","E70",1996,1
"UTOPIA","E70",1997,1
"UTOPIA","E70",1998,1
"UTOPIA","E70",1999,1
"UTOPIA","E70",2000,1
"UTOPIA","E70",2001,1
"UTOPIA","E70",2002,1
"UTOPIA","E70",2003,1
"UTOPIA","E70",2004,1
"UTOPIA","E70",2005,1
"UTOPIA","E70",2006,1
"UTOPIA","E70",2007,1
"UTOPIA","E70",2008,1
"UTOPIA","E70",2009,1
"UTOPIA","E70",2010,1
