"REGION","YEAR","ReserveMargin"
"UTOPIA",1990,1.18
"UTOPIA",1991,1.18
"UTOPIA",1992,1.18
"UTOPIA",1993,1.18
"UTOPIA",1994,1.18
"UTOPIA",1995,1.18
"UTOPIA",1996,1.18
"UTOPIA",1997,1.18
"UTOPIA",1998,1.18
"UTOPIA",1999,1.18
"UTOPIA",2000,1.18
"UTOPIA",2001,1.18
"UTOPIA",2002,1.18
"UTOPIA",2003,1.18
"UTOPIA",2004,1.18
"UTOPIA",2005,1.18
"UTOPIA",2006,1.18
"UTOPIA",2007,1.18
"UTOPIA",2008,1.18
"UTOPIA",2009,1.18
"UTOPIA",2010,1.18
