"REGION","TECHNOLOGY","YEAR","TotalAnnualMinCapacity"
"UTOPIA","E31",1990,0.13
"UTOPIA","E31",1991,0.14
"UTOPIA","E31",1992,0.14
"UTOPIA","E31",1993,0.15
"UTOPIA","E31",1994,0.15
"UTOPIA","E31",1995,0.15
"UTOPIA","E31",1996,0.16
"UTOPIA","E31",1997,0.16
"UTOPIA","E31",1998,0.16
"UTOPIA","E31",1999,0.16
"UTOPIA","E31",2000,0.17
"UTOPIA","E31",2001,0.2
"UTOPIA","E31",2002,0.2
"UTOPIA","E31",2003,0.2
"UTOPIA","E31",2004,0.2
"UTOPIA","E31",2005,0.2
"UTOPIA","E31",2006,0.2
"UTOPIA","E31",2007,0.2
"UTOPIA","E31",2008,0.2
"UTOPIA","E31",2009,0.2
"UTOPIA","E31",2010,0.21
"UTOPIA","SRE",1990,0.1
"UTOPIA","SRE",1991,0.1
"UTOPIA","SRE",1992,0.1
"UTOPIA","SRE",1993,0.1
"UTOPIA","SRE",1994,0.1
"UTOPIA","SRE",1995,0.1
"UTOPIA","SRE",1996,0.1
"UTOPIA","SRE",1997,0.1
"UTOPIA","SRE",1998,0.1
"UTOPIA","SRE",1999,0.1
"UTOPIA","SRE",2000,0
"UTOPIA","SRE",2001,0
"UTOPIA","SRE",2002,0
"UTOPIA","SRE",2003,0
"UTOPIA","SRE",2004,0
"UTOPIA","SRE",2005,0
"UTOPIA","SRE",2006,0
"UTOPIA","SRE",2007,0
"UTOPIA","SRE",2008,0
"UTOPIA","SRE",2009,0
"UTOPIA","SRE",2010,0
