REGION,TECHNOLOGY,YEAR,AnnualFixedOperatingCost
UTOPIA,RHE,1990,0.0
UTOPIA,RHE,1991,0.0
UTOPIA,RHE,1992,0.0
UTOPIA,RHE,1993,0.0
UTOPIA,RHE,1994,0.0
UTOPIA,RHE,1995,0.0
UTOPIA,RHE,1996,0.0
UTOPIA,RHE,1997,0.0
UTOPIA,RHE,1998,0.0
UTOPIA,RHE,1999,0.0
UTOPIA,RHE,2000,0.0
UTOPIA,RHE,2001,0.0
UTOPIA,RHE,2002,0.0
UTOPIA,RHE,2003,0.0
UTOPIA,RHE,2004,0.0
UTOPIA,RHE,2005,0.0
UTOPIA,RHE,2006,0.0
UTOPIA,RHE,2007,0.0
UTOPIA,RHE,2008,0.0
UTOPIA,RHE,2009,0.0
UTOPIA,RHE,2010,0.0
UTOPIA,E21,1990,0.0
UTOPIA,E21,1991,0.0
UTOPIA,E21,1992,0.0
UTOPIA,E21,1993,0.0
UTOPIA,E21,1994,0.0
UTOPIA,E21,1995,0.0
UTOPIA,E21,1996,0.0
UTOPIA,E21,1997,0.0
UTOPIA,E21,1998,0.0
UTOPIA,E21,1999,0.0
UTOPIA,E21,2000,0.0
UTOPIA,E21,2001,0.0
UTOPIA,E21,2002,0.0
UTOPIA,E21,2003,0.0
UTOPIA,E21,2004,0.0
UTOPIA,E21,2005,0.0
UTOPIA,E21,2006,0.0
UTOPIA,E21,2007,0.0
UTOPIA,E21,2008,0.0
UTOPIA,E21,2009,0.0
UTOPIA,E21,2010,0.0
UTOPIA,IMPDSL1,1990,0.0
UTOPIA,IMPDSL1,1991,0.0
UTOPIA,IMPDSL1,1992,0.0
UTOPIA,IMPDSL1,1993,0.0
UTOPIA,IMPDSL1,1994,0.0
UTOPIA,IMPDSL1,1995,0.0
UTOPIA,IMPDSL1,1996,0.0
UTOPIA,IMPDSL1,1997,0.0
UTOPIA,IMPDSL1,1998,0.0
UTOPIA,IMPDSL1,1999,0.0
UTOPIA,IMPDSL1,2000,0.0
UTOPIA,IMPDSL1,2001,0.0
UTOPIA,IMPDSL1,2002,0.0
UTOPIA,IMPDSL1,2003,0.0
UTOPIA,IMPDSL1,2004,0.0
UTOPIA,IMPDSL1,2005,0.0
UTOPIA,IMPDSL1,2006,0.0
UTOPIA,IMPDSL1,2007,0.0
UTOPIA,IMPDSL1,2008,0.0
UTOPIA,IMPDSL1,2009,0.0
UTOPIA,IMPDSL1,2010,0.0
UTOPIA,E70,1990,9.0
UTOPIA,E70,1991,9.0
UTOPIA,E70,1992,8.7
UTOPIA,E70,1993,8.7
UTOPIA,E70,1994,8.4
UTOPIA,E70,1995,8.4
UTOPIA,E70,1996,8.1
UTOPIA,E70,1997,8.1
UTOPIA,E70,1998,7.8
UTOPIA,E70,1999,7.8
UTOPIA,E70,2000,7.5
UTOPIA,E70,2001,7.8
UTOPIA,E70,2002,7.8
UTOPIA,E70,2003,8.1
UTOPIA,E70,2004,8.1
UTOPIA,E70,2005,8.4
UTOPIA,E70,2006,8.4
UTOPIA,E70,2007,8.7
UTOPIA,E70,2008,8.7
UTOPIA,E70,2009,9.0
UTOPIA,E70,2010,6.0
UTOPIA,IMPOIL1,1990,0.0
UTOPIA,IMPOIL1,1991,0.0
UTOPIA,IMPOIL1,1992,0.0
UTOPIA,IMPOIL1,1993,0.0
UTOPIA,IMPOIL1,1994,0.0
UTOPIA,IMPOIL1,1995,0.0
UTOPIA,IMPOIL1,1996,0.0
UTOPIA,IMPOIL1,1997,0.0
UTOPIA,IMPOIL1,1998,0.0
UTOPIA,IMPOIL1,1999,0.0
UTOPIA,IMPOIL1,2000,0.0
UTOPIA,IMPOIL1,2001,0.0
UTOPIA,IMPOIL1,2002,0.0
UTOPIA,IMPOIL1,2003,0.0
UTOPIA,IMPOIL1,2004,0.0
UTOPIA,IMPOIL1,2005,0.0
UTOPIA,IMPOIL1,2006,0.0
UTOPIA,IMPOIL1,2007,0.0
UTOPIA,IMPOIL1,2008,0.0
UTOPIA,IMPOIL1,2009,0.0
UTOPIA,IMPOIL1,2010,0.0
UTOPIA,TXD,1990,270.4
UTOPIA,TXD,1991,283.92
UTOPIA,TXD,1992,297.44
UTOPIA,TXD,1993,310.96
UTOPIA,TXD,1994,324.48
UTOPIA,TXD,1995,338.0
UTOPIA,TXD,1996,351.52
UTOPIA,TXD,1997,365.04
UTOPIA,TXD,1998,378.56
UTOPIA,TXD,1999,392.08
UTOPIA,TXD,2000,405.6
UTOPIA,TXD,2001,425.828
UTOPIA,TXD,2002,446.056
UTOPIA,TXD,2003,466.284
UTOPIA,TXD,2004,486.512
UTOPIA,TXD,2005,506.74
UTOPIA,TXD,2006,526.968
UTOPIA,TXD,2007,547.196
UTOPIA,TXD,2008,567.424
UTOPIA,TXD,2009,587.652
UTOPIA,TXD,2010,607.88
UTOPIA,RHO,1990,41.3346534653465
UTOPIA,RHO,1991,43.4013861386139
UTOPIA,RHO,1992,45.4681188118812
UTOPIA,RHO,1993,47.5348514851485
UTOPIA,RHO,1994,49.6015841584158
UTOPIA,RHO,1995,51.6683168316832
UTOPIA,RHO,1996,53.7350495049505
UTOPIA,RHO,1997,55.8017821782178
UTOPIA,RHO,1998,57.8685148514852
UTOPIA,RHO,1999,59.9352475247525
UTOPIA,RHO,2000,58.6352475247525
UTOPIA,RHO,2001,57.4352475247525
UTOPIA,RHO,2002,56.1352475247525
UTOPIA,RHO,2003,54.9352475247525
UTOPIA,RHO,2004,53.6352475247525
UTOPIA,RHO,2005,52.4352475247525
UTOPIA,RHO,2006,51.1352475247525
UTOPIA,RHO,2007,49.9352475247525
UTOPIA,RHO,2008,48.6352475247525
UTOPIA,RHO,2009,47.4352475247525
UTOPIA,RHO,2010,46.1352475247525
UTOPIA,E01,1990,20.0
UTOPIA,E01,1991,20.0
UTOPIA,E01,1992,20.0
UTOPIA,E01,1993,16.0
UTOPIA,E01,1994,16.0
UTOPIA,E01,1995,16.0
UTOPIA,E01,1996,16.0
UTOPIA,E01,1997,16.0
UTOPIA,E01,1998,16.0
UTOPIA,E01,1999,12.9031946375764
UTOPIA,E01,2000,18.7720865031708
UTOPIA,E01,2001,26.1838071021714
UTOPIA,E01,2002,34.1590766610907
UTOPIA,E01,2003,41.9757972600913
UTOPIA,E01,2004,49.9510668190107
UTOPIA,E01,2005,57.7677874180112
UTOPIA,E01,2006,65.7430569769305
UTOPIA,E01,2007,73.5597775759311
UTOPIA,E01,2008,81.5350471348505
UTOPIA,E01,2009,89.351767733851
UTOPIA,E01,2010,97.1920372927703
UTOPIA,IMPGSL1,1990,0.0
UTOPIA,IMPGSL1,1991,0.0
UTOPIA,IMPGSL1,1992,0.0
UTOPIA,IMPGSL1,1993,0.0
UTOPIA,IMPGSL1,1994,0.0
UTOPIA,IMPGSL1,1995,0.0
UTOPIA,IMPGSL1,1996,0.0
UTOPIA,IMPGSL1,1997,0.0
UTOPIA,IMPGSL1,1998,0.0
UTOPIA,IMPGSL1,1999,0.0
UTOPIA,IMPGSL1,2000,0.0
UTOPIA,IMPGSL1,2001,0.0
UTOPIA,IMPGSL1,2002,0.0
UTOPIA,IMPGSL1,2003,0.0
UTOPIA,IMPGSL1,2004,0.0
UTOPIA,IMPGSL1,2005,0.0
UTOPIA,IMPGSL1,2006,0.0
UTOPIA,IMPGSL1,2007,0.0
UTOPIA,IMPGSL1,2008,0.0
UTOPIA,IMPGSL1,2009,0.0
UTOPIA,IMPGSL1,2010,0.0
UTOPIA,TXG,1990,-0.0
UTOPIA,TXG,1991,-0.0
UTOPIA,TXG,1992,-0.0
UTOPIA,TXG,1993,-0.0
UTOPIA,TXG,1994,-0.0
UTOPIA,TXG,1995,-0.0
UTOPIA,TXG,1996,-0.0
UTOPIA,TXG,1997,0.0
UTOPIA,TXG,1998,0.0
UTOPIA,TXG,1999,0.0
UTOPIA,TXG,2000,0.0
UTOPIA,TXG,2001,0.0
UTOPIA,TXG,2002,0.0
UTOPIA,TXG,2003,0.0
UTOPIA,TXG,2004,0.0
UTOPIA,TXG,2005,0.0
UTOPIA,TXG,2006,0.0
UTOPIA,TXG,2007,0.0
UTOPIA,TXG,2008,0.0
UTOPIA,TXG,2009,0.0
UTOPIA,TXG,2010,0.0
UTOPIA,RL1,1990,79.4719471947195
UTOPIA,RL1,1991,83.4455445544555
UTOPIA,RL1,1992,87.4191419141914
UTOPIA,RL1,1993,91.3927392739274
UTOPIA,RL1,1994,95.3663366336634
UTOPIA,RL1,1995,99.3399339933993
UTOPIA,RL1,1996,103.313531353135
UTOPIA,RL1,1997,107.287128712871
UTOPIA,RL1,1998,111.260726072607
UTOPIA,RL1,1999,115.234323432343
UTOPIA,RL1,2000,119.207920792079
UTOPIA,RL1,2001,125.168316831683
UTOPIA,RL1,2002,131.128712871287
UTOPIA,RL1,2003,137.089108910891
UTOPIA,RL1,2004,143.049504950495
UTOPIA,RL1,2005,149.009900990099
UTOPIA,RL1,2006,154.970297029703
UTOPIA,RL1,2007,160.930693069307
UTOPIA,RL1,2008,166.891089108911
UTOPIA,RL1,2009,172.851485148515
UTOPIA,RL1,2010,178.811881188119
UTOPIA,E31,1990,9.75
UTOPIA,E31,1991,10.5
UTOPIA,E31,1992,10.5
UTOPIA,E31,1993,11.25
UTOPIA,E31,1994,11.25
UTOPIA,E31,1995,11.25
UTOPIA,E31,1996,12.0
UTOPIA,E31,1997,12.0
UTOPIA,E31,1998,12.0
UTOPIA,E31,1999,12.0
UTOPIA,E31,2000,12.75
UTOPIA,E31,2001,15.0
UTOPIA,E31,2002,15.0
UTOPIA,E31,2003,15.0
UTOPIA,E31,2004,15.0
UTOPIA,E31,2005,15.0
UTOPIA,E31,2006,15.0
UTOPIA,E31,2007,15.0
UTOPIA,E31,2008,15.0
UTOPIA,E31,2009,15.0
UTOPIA,E31,2010,15.75
UTOPIA,TXU,1990,0.0
UTOPIA,TXU,1991,0.0
UTOPIA,TXU,1992,0.0
UTOPIA,TXU,1993,0.0
UTOPIA,TXU,1994,0.0
UTOPIA,TXU,1995,0.0
UTOPIA,TXU,1996,0.0
UTOPIA,TXU,1997,0.0
UTOPIA,TXU,1998,0.0
UTOPIA,TXU,1999,0.0
UTOPIA,TXU,2000,0.0
UTOPIA,TXU,2001,0.0
UTOPIA,TXU,2002,0.0
UTOPIA,TXU,2003,0.0
UTOPIA,TXU,2004,0.0
UTOPIA,TXU,2005,0.0
UTOPIA,TXU,2006,0.0
UTOPIA,TXU,2007,0.0
UTOPIA,TXU,2008,0.0
UTOPIA,TXU,2009,0.0
UTOPIA,TXU,2010,0.0
UTOPIA,TXE,1990,0.0
UTOPIA,TXE,1991,-0.0
UTOPIA,TXE,1992,-0.0
UTOPIA,TXE,1993,-0.0
UTOPIA,TXE,1994,-0.0
UTOPIA,TXE,1995,-0.0
UTOPIA,TXE,1996,-0.0
UTOPIA,TXE,1997,0.0
UTOPIA,TXE,1998,0.0
UTOPIA,TXE,1999,0.0
UTOPIA,TXE,2000,0.0
UTOPIA,TXE,2001,0.0
UTOPIA,TXE,2002,0.0
UTOPIA,TXE,2003,0.0
UTOPIA,TXE,2004,0.0
UTOPIA,TXE,2005,0.0
UTOPIA,TXE,2006,0.0
UTOPIA,TXE,2007,0.0
UTOPIA,TXE,2008,0.0
UTOPIA,TXE,2009,0.0
UTOPIA,TXE,2010,0.0
UTOPIA,IMPURN1,1990,0.0
UTOPIA,IMPURN1,1991,0.0
UTOPIA,IMPURN1,1992,0.0
UTOPIA,IMPURN1,1993,0.0
UTOPIA,IMPURN1,1994,0.0
UTOPIA,IMPURN1,1995,0.0
UTOPIA,IMPURN1,1996,0.0
UTOPIA,IMPURN1,1997,0.0
UTOPIA,IMPURN1,1998,0.0
UTOPIA,IMPURN1,1999,0.0
UTOPIA,IMPURN1,2000,0.0
UTOPIA,IMPURN1,2001,0.0
UTOPIA,IMPURN1,2002,0.0
UTOPIA,IMPURN1,2003,0.0
UTOPIA,IMPURN1,2004,0.0
UTOPIA,IMPURN1,2005,0.0
UTOPIA,IMPURN1,2006,0.0
UTOPIA,IMPURN1,2007,0.0
UTOPIA,IMPURN1,2008,0.0
UTOPIA,IMPURN1,2009,0.0
UTOPIA,IMPURN1,2010,0.0
UTOPIA,IMPHCO1,1990,0.0
UTOPIA,IMPHCO1,1991,0.0
UTOPIA,IMPHCO1,1992,0.0
UTOPIA,IMPHCO1,1993,0.0
UTOPIA,IMPHCO1,1994,0.0
UTOPIA,IMPHCO1,1995,0.0
UTOPIA,IMPHCO1,1996,0.0
UTOPIA,IMPHCO1,1997,0.0
UTOPIA,IMPHCO1,1998,0.0
UTOPIA,IMPHCO1,1999,0.0
UTOPIA,IMPHCO1,2000,0.0
UTOPIA,IMPHCO1,2001,0.0
UTOPIA,IMPHCO1,2002,0.0
UTOPIA,IMPHCO1,2003,0.0
UTOPIA,IMPHCO1,2004,0.0
UTOPIA,IMPHCO1,2005,0.0
UTOPIA,IMPHCO1,2006,0.0
UTOPIA,IMPHCO1,2007,0.0
UTOPIA,IMPHCO1,2008,0.0
UTOPIA,IMPHCO1,2009,0.0
UTOPIA,IMPHCO1,2010,0.0
UTOPIA,E51,1990,15.0
UTOPIA,E51,1991,15.0
UTOPIA,E51,1992,15.0
UTOPIA,E51,1993,15.0
UTOPIA,E51,1994,15.0
UTOPIA,E51,1995,15.0
UTOPIA,E51,1996,15.0
UTOPIA,E51,1997,15.0
UTOPIA,E51,1998,15.0
UTOPIA,E51,1999,15.0
UTOPIA,E51,2000,15.0
UTOPIA,E51,2001,15.0
UTOPIA,E51,2002,15.0
UTOPIA,E51,2003,15.0
UTOPIA,E51,2004,15.0
UTOPIA,E51,2005,15.0
UTOPIA,E51,2006,15.0
UTOPIA,E51,2007,15.0
UTOPIA,E51,2008,15.0
UTOPIA,E51,2009,15.0
UTOPIA,E51,2010,15.0
UTOPIA,RLU,1990,0.0
UTOPIA,RLU,1991,0.0
UTOPIA,RLU,1992,0.0
UTOPIA,RLU,1993,0.0
UTOPIA,RLU,1994,0.0
UTOPIA,RLU,1995,0.0
UTOPIA,RLU,1996,0.0
UTOPIA,RLU,1997,0.0
UTOPIA,RLU,1998,0.0
UTOPIA,RLU,1999,0.0
UTOPIA,RLU,2000,0.0
UTOPIA,RLU,2001,0.0
UTOPIA,RLU,2002,0.0
UTOPIA,RLU,2003,0.0
UTOPIA,RLU,2004,0.0
UTOPIA,RLU,2005,0.0
UTOPIA,RLU,2006,0.0
UTOPIA,RLU,2007,0.0
UTOPIA,RLU,2008,0.0
UTOPIA,RLU,2009,0.0
UTOPIA,RLU,2010,0.0
UTOPIA,RIV,1990,0.0
UTOPIA,RIV,1991,0.0
UTOPIA,RIV,1992,0.0
UTOPIA,RIV,1993,0.0
UTOPIA,RIV,1994,0.0
UTOPIA,RIV,1995,0.0
UTOPIA,RIV,1996,0.0
UTOPIA,RIV,1997,0.0
UTOPIA,RIV,1998,0.0
UTOPIA,RIV,1999,0.0
UTOPIA,RIV,2000,0.0
UTOPIA,RIV,2001,0.0
UTOPIA,RIV,2002,0.0
UTOPIA,RIV,2003,0.0
UTOPIA,RIV,2004,0.0
UTOPIA,RIV,2005,0.0
UTOPIA,RIV,2006,0.0
UTOPIA,RIV,2007,0.0
UTOPIA,RIV,2008,0.0
UTOPIA,RIV,2009,0.0
UTOPIA,RIV,2010,0.0
UTOPIA,RHU,1990,0.0
UTOPIA,RHU,1991,0.0
UTOPIA,RHU,1992,0.0
UTOPIA,RHU,1993,0.0
UTOPIA,RHU,1994,0.0
UTOPIA,RHU,1995,0.0
UTOPIA,RHU,1996,0.0
UTOPIA,RHU,1997,0.0
UTOPIA,RHU,1998,0.0
UTOPIA,RHU,1999,0.0
UTOPIA,RHU,2000,0.0
UTOPIA,RHU,2001,0.0
UTOPIA,RHU,2002,0.0
UTOPIA,RHU,2003,0.0
UTOPIA,RHU,2004,0.0
UTOPIA,RHU,2005,0.0
UTOPIA,RHU,2006,0.0
UTOPIA,RHU,2007,0.0
UTOPIA,RHU,2008,0.0
UTOPIA,RHU,2009,0.0
UTOPIA,RHU,2010,0.0
UTOPIA,SRE,1990,0.0
UTOPIA,SRE,1991,0.0
UTOPIA,SRE,1992,0.0
UTOPIA,SRE,1993,0.0
UTOPIA,SRE,1994,0.0
UTOPIA,SRE,1995,0.0
UTOPIA,SRE,1996,0.0
UTOPIA,SRE,1997,0.0
UTOPIA,SRE,1998,0.0
UTOPIA,SRE,1999,0.0
UTOPIA,SRE,2000,0.0
UTOPIA,SRE,2001,0.0
UTOPIA,SRE,2002,0.0
UTOPIA,SRE,2003,0.0
UTOPIA,SRE,2004,0.0
UTOPIA,SRE,2005,0.0
UTOPIA,SRE,2006,0.0
UTOPIA,SRE,2007,0.0
UTOPIA,SRE,2008,0.0
UTOPIA,SRE,2009,0.0
UTOPIA,SRE,2010,0.0
