REGION,TIMESLICE,YEAR,DemandNeedingReserveMargin
UTOPIA,ID,1990,0.0
UTOPIA,ID,1991,0.0
UTOPIA,ID,1992,0.0
UTOPIA,ID,1993,0.0
UTOPIA,ID,1994,0.0
UTOPIA,ID,1995,0.0
UTOPIA,ID,1996,0.0
UTOPIA,ID,1997,0.0
UTOPIA,ID,1998,0.0
UTOPIA,ID,1999,0.0
UTOPIA,ID,2000,0.0
UTOPIA,ID,2001,0.0
UTOPIA,ID,2002,0.0
UTOPIA,ID,2003,0.0
UTOPIA,ID,2004,0.0
UTOPIA,ID,2005,0.0
UTOPIA,ID,2006,0.0
UTOPIA,ID,2007,0.0
UTOPIA,ID,2008,0.0
UTOPIA,ID,2009,0.0
UTOPIA,ID,2010,0.0
UTOPIA,SD,1990,0.0
UTOPIA,SD,1991,0.0
UTOPIA,SD,1992,0.0
UTOPIA,SD,1993,0.0
UTOPIA,SD,1994,0.0
UTOPIA,SD,1995,0.0
UTOPIA,SD,1996,0.0
UTOPIA,SD,1997,0.0
UTOPIA,SD,1998,0.0
UTOPIA,SD,1999,0.0
UTOPIA,SD,2000,0.0
UTOPIA,SD,2001,0.0
UTOPIA,SD,2002,0.0
UTOPIA,SD,2003,0.0
UTOPIA,SD,2004,0.0
UTOPIA,SD,2005,0.0
UTOPIA,SD,2006,0.0
UTOPIA,SD,2007,0.0
UTOPIA,SD,2008,0.0
UTOPIA,SD,2009,0.0
UTOPIA,SD,2010,0.0
UTOPIA,WN,1990,0.0
UTOPIA,WN,1991,0.0
UTOPIA,WN,1992,0.0
UTOPIA,WN,1993,0.0
UTOPIA,WN,1994,0.0
UTOPIA,WN,1995,0.0
UTOPIA,WN,1996,0.0
UTOPIA,WN,1997,0.0
UTOPIA,WN,1998,0.0
UTOPIA,WN,1999,0.0
UTOPIA,WN,2000,0.0
UTOPIA,WN,2001,0.0
UTOPIA,WN,2002,0.0
UTOPIA,WN,2003,0.0
UTOPIA,WN,2004,0.0
UTOPIA,WN,2005,0.0
UTOPIA,WN,2006,0.0
UTOPIA,WN,2007,0.0
UTOPIA,WN,2008,0.0
UTOPIA,WN,2009,0.0
UTOPIA,WN,2010,0.0
UTOPIA,SN,1990,0.0
UTOPIA,SN,1991,0.0
UTOPIA,SN,1992,0.0
UTOPIA,SN,1993,0.0
UTOPIA,SN,1994,0.0
UTOPIA,SN,1995,0.0
UTOPIA,SN,1996,0.0
UTOPIA,SN,1997,0.0
UTOPIA,SN,1998,0.0
UTOPIA,SN,1999,0.0
UTOPIA,SN,2000,0.0
UTOPIA,SN,2001,0.0
UTOPIA,SN,2002,0.0
UTOPIA,SN,2003,0.0
UTOPIA,SN,2004,0.0
UTOPIA,SN,2005,0.0
UTOPIA,SN,2006,0.0
UTOPIA,SN,2007,0.0
UTOPIA,SN,2008,0.0
UTOPIA,SN,2009,0.0
UTOPIA,SN,2010,0.0
UTOPIA,WD,1990,0.0
UTOPIA,WD,1991,0.0
UTOPIA,WD,1992,0.0
UTOPIA,WD,1993,0.0
UTOPIA,WD,1994,0.0
UTOPIA,WD,1995,0.0
UTOPIA,WD,1996,0.0
UTOPIA,WD,1997,0.0
UTOPIA,WD,1998,0.0
UTOPIA,WD,1999,0.0
UTOPIA,WD,2000,0.0
UTOPIA,WD,2001,0.0
UTOPIA,WD,2002,0.0
UTOPIA,WD,2003,0.0
UTOPIA,WD,2004,0.0
UTOPIA,WD,2005,0.0
UTOPIA,WD,2006,0.0
UTOPIA,WD,2007,0.0
UTOPIA,WD,2008,0.0
UTOPIA,WD,2009,0.0
UTOPIA,WD,2010,0.0
UTOPIA,IN,1990,0.0
UTOPIA,IN,1991,0.0
UTOPIA,IN,1992,0.0
UTOPIA,IN,1993,0.0
UTOPIA,IN,1994,0.0
UTOPIA,IN,1995,0.0
UTOPIA,IN,1996,0.0
UTOPIA,IN,1997,0.0
UTOPIA,IN,1998,0.0
UTOPIA,IN,1999,0.0
UTOPIA,IN,2000,0.0
UTOPIA,IN,2001,0.0
UTOPIA,IN,2002,0.0
UTOPIA,IN,2003,0.0
UTOPIA,IN,2004,0.0
UTOPIA,IN,2005,0.0
UTOPIA,IN,2006,0.0
UTOPIA,IN,2007,0.0
UTOPIA,IN,2008,0.0
UTOPIA,IN,2009,0.0
UTOPIA,IN,2010,0.0
