REGION,STORAGE,SEASON,DAYTYPE,DAILYTIMEBRACKET,YEAR,NetChargeWithinYear
UTOPIA,DAM,1,1,1,1990,-3.21684920844037
UTOPIA,DAM,1,1,1,1991,-5.360583888
UTOPIA,DAM,1,1,1,1992,-5.360583888
UTOPIA,DAM,1,1,1,1993,-5.360583888
UTOPIA,DAM,1,1,1,1994,-5.360583888
UTOPIA,DAM,1,1,1,1995,-5.360583888
UTOPIA,DAM,1,1,1,1996,-5.360583888
UTOPIA,DAM,1,1,1,1997,-5.360583888
UTOPIA,DAM,1,1,1,1998,-5.360583888
UTOPIA,DAM,1,1,1,1999,-5.360583888
UTOPIA,DAM,1,1,1,2000,-5.360583888
UTOPIA,DAM,1,1,1,2001,-5.360583888
UTOPIA,DAM,1,1,1,2002,-5.360583888
UTOPIA,DAM,1,1,1,2003,-5.360583888
UTOPIA,DAM,1,1,1,2004,-5.360583888
UTOPIA,DAM,1,1,1,2005,-5.360583888
UTOPIA,DAM,1,1,1,2006,-5.360583888
UTOPIA,DAM,1,1,1,2007,-5.360583888
UTOPIA,DAM,1,1,1,2008,-5.360583888
UTOPIA,DAM,1,1,1,2009,-5.360583888
UTOPIA,DAM,1,1,1,2010,-5.360583888
UTOPIA,DAM,1,1,2,1990,-0.905302975409936
UTOPIA,DAM,1,1,2,1991,-2.681096112
UTOPIA,DAM,1,1,2,1992,-2.681096112
UTOPIA,DAM,1,1,2,1993,-2.681096112
UTOPIA,DAM,1,1,2,1994,-2.681096112
UTOPIA,DAM,1,1,2,1995,-2.681096112
UTOPIA,DAM,1,1,2,1996,-2.681096112
UTOPIA,DAM,1,1,2,1997,-2.681096112
UTOPIA,DAM,1,1,2,1998,-2.681096112
UTOPIA,DAM,1,1,2,1999,-2.681096112
UTOPIA,DAM,1,1,2,2000,-2.681096112
UTOPIA,DAM,1,1,2,2001,-2.681096112
UTOPIA,DAM,1,1,2,2002,-2.681096112
UTOPIA,DAM,1,1,2,2003,-2.681096112
UTOPIA,DAM,1,1,2,2004,-2.681096112
UTOPIA,DAM,1,1,2,2005,-2.681096112
UTOPIA,DAM,1,1,2,2006,-2.681096112
UTOPIA,DAM,1,1,2,2007,-2.681096112
UTOPIA,DAM,1,1,2,2008,-2.681096112
UTOPIA,DAM,1,1,2,2009,-2.681096112
UTOPIA,DAM,1,1,2,2010,-2.681096112
UTOPIA,DAM,2,1,1,1990,-2.681096112
UTOPIA,DAM,2,1,1,1991,-2.681096112
UTOPIA,DAM,2,1,1,1992,-2.681096112
UTOPIA,DAM,2,1,1,1993,-2.681096112
UTOPIA,DAM,2,1,1,1994,-2.681096112
UTOPIA,DAM,2,1,1,1995,-2.681096112
UTOPIA,DAM,2,1,1,1996,-2.681096112
UTOPIA,DAM,2,1,1,1997,-2.681096112
UTOPIA,DAM,2,1,1,1998,-2.681096112
UTOPIA,DAM,2,1,1,1999,-2.681096112
UTOPIA,DAM,2,1,1,2000,-2.681096112
UTOPIA,DAM,2,1,1,2001,-2.681096112
UTOPIA,DAM,2,1,1,2002,-2.681096112
UTOPIA,DAM,2,1,1,2003,-2.681096112
UTOPIA,DAM,2,1,1,2004,-2.681096112
UTOPIA,DAM,2,1,1,2005,-2.681096112
UTOPIA,DAM,2,1,1,2006,-2.681096112
UTOPIA,DAM,2,1,1,2007,-2.681096112
UTOPIA,DAM,2,1,1,2008,-2.681096112
UTOPIA,DAM,2,1,1,2009,-2.681096112
UTOPIA,DAM,2,1,1,2010,-2.681096112
UTOPIA,DAM,2,1,2,1990,-1.339743888
UTOPIA,DAM,2,1,2,1991,-1.339743888
UTOPIA,DAM,2,1,2,1992,-1.339743888
UTOPIA,DAM,2,1,2,1993,-1.339743888
UTOPIA,DAM,2,1,2,1994,-1.339743888
UTOPIA,DAM,2,1,2,1995,-1.339743888
UTOPIA,DAM,2,1,2,1996,-1.339743888
UTOPIA,DAM,2,1,2,1997,-1.339743888
UTOPIA,DAM,2,1,2,1998,-1.339743888
UTOPIA,DAM,2,1,2,1999,-1.339743888
UTOPIA,DAM,2,1,2,2000,-1.339743888
UTOPIA,DAM,2,1,2,2001,-1.339743888
UTOPIA,DAM,2,1,2,2002,-1.339743888
UTOPIA,DAM,2,1,2,2003,-1.339743888
UTOPIA,DAM,2,1,2,2004,-1.339743888
UTOPIA,DAM,2,1,2,2005,-1.339743888
UTOPIA,DAM,2,1,2,2006,-1.339743888
UTOPIA,DAM,2,1,2,2007,-1.339743888
UTOPIA,DAM,2,1,2,2008,-1.339743888
UTOPIA,DAM,2,1,2,2009,1.339743888
UTOPIA,DAM,2,1,2,2010,-1.339743888
UTOPIA,DAM,3,1,1,1990,-2.681096112
UTOPIA,DAM,3,1,1,1991,-2.681096112
UTOPIA,DAM,3,1,1,1992,-2.681096112
UTOPIA,DAM,3,1,1,1993,-2.681096112
UTOPIA,DAM,3,1,1,1994,-2.681096112
UTOPIA,DAM,3,1,1,1995,-2.681096112
UTOPIA,DAM,3,1,1,1996,-2.681096112
UTOPIA,DAM,3,1,1,1997,-2.681096112
UTOPIA,DAM,3,1,1,1998,-2.681096112
UTOPIA,DAM,3,1,1,1999,-2.681096112
UTOPIA,DAM,3,1,1,2000,-2.681096112
UTOPIA,DAM,3,1,1,2001,-2.681096112
UTOPIA,DAM,3,1,1,2002,-2.681096112
UTOPIA,DAM,3,1,1,2003,-2.681096112
UTOPIA,DAM,3,1,1,2004,-2.681096112
UTOPIA,DAM,3,1,1,2005,-2.681096112
UTOPIA,DAM,3,1,1,2006,-2.681096112
UTOPIA,DAM,3,1,1,2007,-2.681096112
UTOPIA,DAM,3,1,1,2008,-2.681096112
UTOPIA,DAM,3,1,1,2009,-2.681096112
UTOPIA,DAM,3,1,1,2010,-2.681096112
UTOPIA,DAM,3,1,2,1990,-1.339743888
UTOPIA,DAM,3,1,2,1991,-1.339743888
UTOPIA,DAM,3,1,2,1992,-1.339743888
UTOPIA,DAM,3,1,2,1993,-1.339743888
UTOPIA,DAM,3,1,2,1994,-1.339743888
UTOPIA,DAM,3,1,2,1995,-1.339743888
UTOPIA,DAM,3,1,2,1996,-1.339743888
UTOPIA,DAM,3,1,2,1997,-1.339743888
UTOPIA,DAM,3,1,2,1998,-1.339743888
UTOPIA,DAM,3,1,2,1999,-1.339743888
UTOPIA,DAM,3,1,2,2000,-1.339743888
UTOPIA,DAM,3,1,2,2001,-1.339743888
UTOPIA,DAM,3,1,2,2002,-1.339743888
UTOPIA,DAM,3,1,2,2003,-1.339743888
UTOPIA,DAM,3,1,2,2004,-1.339743888
UTOPIA,DAM,3,1,2,2005,-1.339743888
UTOPIA,DAM,3,1,2,2006,-1.339743888
UTOPIA,DAM,3,1,2,2007,-1.339743888
UTOPIA,DAM,3,1,2,2008,-1.339743888
UTOPIA,DAM,3,1,2,2009,-1.339743888
UTOPIA,DAM,3,1,2,2010,-1.339743888
