REGION,TIMESLICE,FUEL,YEAR,RateOfUse
UTOPIA,ID,LTH,1990,0.0
UTOPIA,ID,LTH,1991,0.0
UTOPIA,ID,LTH,1992,0.0
UTOPIA,ID,LTH,1993,0.0
UTOPIA,ID,LTH,1994,0.0
UTOPIA,ID,LTH,1995,0.0
UTOPIA,ID,LTH,1996,0.0
UTOPIA,ID,LTH,1997,0.0
UTOPIA,ID,LTH,1998,0.0
UTOPIA,ID,LTH,1999,0.0
UTOPIA,ID,LTH,2000,0.0
UTOPIA,ID,LTH,2001,0.0
UTOPIA,ID,LTH,2002,0.0
UTOPIA,ID,LTH,2003,0.0
UTOPIA,ID,LTH,2004,0.0
UTOPIA,ID,LTH,2005,0.0
UTOPIA,ID,LTH,2006,0.0
UTOPIA,ID,LTH,2007,0.0
UTOPIA,ID,LTH,2008,0.0
UTOPIA,ID,LTH,2009,0.0
UTOPIA,ID,LTH,2010,0.0
UTOPIA,ID,HCO,1990,0.0
UTOPIA,ID,HCO,1991,0.0
UTOPIA,ID,HCO,1992,0.0
UTOPIA,ID,HCO,1993,0.0
UTOPIA,ID,HCO,1994,0.0
UTOPIA,ID,HCO,1995,0.0
UTOPIA,ID,HCO,1996,0.0
UTOPIA,ID,HCO,1997,0.0
UTOPIA,ID,HCO,1998,0.0
UTOPIA,ID,HCO,1999,0.0
UTOPIA,ID,HCO,2000,0.0
UTOPIA,ID,HCO,2001,0.0
UTOPIA,ID,HCO,2002,0.0
UTOPIA,ID,HCO,2003,0.0
UTOPIA,ID,HCO,2004,0.0
UTOPIA,ID,HCO,2005,0.0
UTOPIA,ID,HCO,2006,0.0
UTOPIA,ID,HCO,2007,0.0
UTOPIA,ID,HCO,2008,0.0
UTOPIA,ID,HCO,2009,0.0
UTOPIA,ID,HCO,2010,0.0
UTOPIA,ID,OIL,1990,0.0
UTOPIA,ID,OIL,1991,0.0
UTOPIA,ID,OIL,1992,0.0
UTOPIA,ID,OIL,1993,0.0
UTOPIA,ID,OIL,1994,0.0
UTOPIA,ID,OIL,1995,0.0
UTOPIA,ID,OIL,1996,0.0
UTOPIA,ID,OIL,1997,0.0
UTOPIA,ID,OIL,1998,0.0
UTOPIA,ID,OIL,1999,0.0
UTOPIA,ID,OIL,2000,0.0
UTOPIA,ID,OIL,2001,0.0
UTOPIA,ID,OIL,2002,0.0
UTOPIA,ID,OIL,2003,0.0
UTOPIA,ID,OIL,2004,0.0
UTOPIA,ID,OIL,2005,0.0
UTOPIA,ID,OIL,2006,0.0
UTOPIA,ID,OIL,2007,0.0
UTOPIA,ID,OIL,2008,0.0
UTOPIA,ID,OIL,2009,0.0
UTOPIA,ID,OIL,2010,0.0
UTOPIA,ID,CSV,1990,0.0
UTOPIA,ID,CSV,1991,0.0
UTOPIA,ID,CSV,1992,0.0
UTOPIA,ID,CSV,1993,0.0
UTOPIA,ID,CSV,1994,0.0
UTOPIA,ID,CSV,1995,0.0
UTOPIA,ID,CSV,1996,0.0
UTOPIA,ID,CSV,1997,0.0
UTOPIA,ID,CSV,1998,0.0
UTOPIA,ID,CSV,1999,0.0
UTOPIA,ID,CSV,2000,0.0
UTOPIA,ID,CSV,2001,0.0
UTOPIA,ID,CSV,2002,0.0
UTOPIA,ID,CSV,2003,0.0
UTOPIA,ID,CSV,2004,0.0
UTOPIA,ID,CSV,2005,0.0
UTOPIA,ID,CSV,2006,0.0
UTOPIA,ID,CSV,2007,0.0
UTOPIA,ID,CSV,2008,0.0
UTOPIA,ID,CSV,2009,0.0
UTOPIA,ID,CSV,2010,0.0
UTOPIA,ID,DSL,1990,0.0
UTOPIA,ID,DSL,1991,0.0
UTOPIA,ID,DSL,1992,0.0
UTOPIA,ID,DSL,1993,-2.25347405717448e-16
UTOPIA,ID,DSL,1994,0.0
UTOPIA,ID,DSL,1995,0.0
UTOPIA,ID,DSL,1996,0.0
UTOPIA,ID,DSL,1997,0.0
UTOPIA,ID,DSL,1998,0.0
UTOPIA,ID,DSL,1999,0.0
UTOPIA,ID,DSL,2000,0.0
UTOPIA,ID,DSL,2001,0.0
UTOPIA,ID,DSL,2002,0.0
UTOPIA,ID,DSL,2003,0.0
UTOPIA,ID,DSL,2004,0.0
UTOPIA,ID,DSL,2005,0.0
UTOPIA,ID,DSL,2006,0.0
UTOPIA,ID,DSL,2007,0.0
UTOPIA,ID,DSL,2008,0.0
UTOPIA,ID,DSL,2009,0.0
UTOPIA,ID,DSL,2010,0.0
UTOPIA,ID,HYD,1990,0.0
UTOPIA,ID,HYD,1991,0.0
UTOPIA,ID,HYD,1992,0.0
UTOPIA,ID,HYD,1993,0.0
UTOPIA,ID,HYD,1994,0.0
UTOPIA,ID,HYD,1995,0.0
UTOPIA,ID,HYD,1996,0.0
UTOPIA,ID,HYD,1997,0.0
UTOPIA,ID,HYD,1998,0.0
UTOPIA,ID,HYD,1999,0.0
UTOPIA,ID,HYD,2000,4.52610585
UTOPIA,ID,HYD,2001,5.3483085
UTOPIA,ID,HYD,2002,5.3483085
UTOPIA,ID,HYD,2003,5.3483085
UTOPIA,ID,HYD,2004,5.3483085
UTOPIA,ID,HYD,2005,5.3483085
UTOPIA,ID,HYD,2006,5.3483085
UTOPIA,ID,HYD,2007,5.3483085
UTOPIA,ID,HYD,2008,5.3483085
UTOPIA,ID,HYD,2009,5.3483085
UTOPIA,ID,HYD,2010,5.59044585
UTOPIA,ID,TX,1990,0.0
UTOPIA,ID,TX,1991,0.0
UTOPIA,ID,TX,1992,0.0
UTOPIA,ID,TX,1993,0.0
UTOPIA,ID,TX,1994,0.0
UTOPIA,ID,TX,1995,0.0
UTOPIA,ID,TX,1996,0.0
UTOPIA,ID,TX,1997,0.0
UTOPIA,ID,TX,1998,0.0
UTOPIA,ID,TX,1999,0.0
UTOPIA,ID,TX,2000,0.0
UTOPIA,ID,TX,2001,0.0
UTOPIA,ID,TX,2002,0.0
UTOPIA,ID,TX,2003,0.0
UTOPIA,ID,TX,2004,0.0
UTOPIA,ID,TX,2005,0.0
UTOPIA,ID,TX,2006,0.0
UTOPIA,ID,TX,2007,0.0
UTOPIA,ID,TX,2008,0.0
UTOPIA,ID,TX,2009,0.0
UTOPIA,ID,TX,2010,0.0
UTOPIA,ID,GSL,1990,0.0
UTOPIA,ID,GSL,1991,0.0
UTOPIA,ID,GSL,1992,0.0
UTOPIA,ID,GSL,1993,0.0
UTOPIA,ID,GSL,1994,0.0
UTOPIA,ID,GSL,1995,0.0
UTOPIA,ID,GSL,1996,0.0
UTOPIA,ID,GSL,1997,0.0
UTOPIA,ID,GSL,1998,0.0
UTOPIA,ID,GSL,1999,0.0
UTOPIA,ID,GSL,2000,0.0
UTOPIA,ID,GSL,2001,0.0
UTOPIA,ID,GSL,2002,0.0
UTOPIA,ID,GSL,2003,0.0
UTOPIA,ID,GSL,2004,0.0
UTOPIA,ID,GSL,2005,0.0
UTOPIA,ID,GSL,2006,0.0
UTOPIA,ID,GSL,2007,0.0
UTOPIA,ID,GSL,2008,0.0
UTOPIA,ID,GSL,2009,0.0
UTOPIA,ID,GSL,2010,0.0
UTOPIA,ID,RL,1990,0.0
UTOPIA,ID,RL,1991,0.0
UTOPIA,ID,RL,1992,0.0
UTOPIA,ID,RL,1993,0.0
UTOPIA,ID,RL,1994,0.0
UTOPIA,ID,RL,1995,0.0
UTOPIA,ID,RL,1996,0.0
UTOPIA,ID,RL,1997,0.0
UTOPIA,ID,RL,1998,0.0
UTOPIA,ID,RL,1999,0.0
UTOPIA,ID,RL,2000,0.0
UTOPIA,ID,RL,2001,0.0
UTOPIA,ID,RL,2002,0.0
UTOPIA,ID,RL,2003,0.0
UTOPIA,ID,RL,2004,0.0
UTOPIA,ID,RL,2005,0.0
UTOPIA,ID,RL,2006,0.0
UTOPIA,ID,RL,2007,0.0
UTOPIA,ID,RL,2008,0.0
UTOPIA,ID,RL,2009,0.0
UTOPIA,ID,RL,2010,0.0
UTOPIA,ID,RH,1990,0.0
UTOPIA,ID,RH,1991,0.0
UTOPIA,ID,RH,1992,0.0
UTOPIA,ID,RH,1993,0.0
UTOPIA,ID,RH,1994,0.0
UTOPIA,ID,RH,1995,0.0
UTOPIA,ID,RH,1996,0.0
UTOPIA,ID,RH,1997,0.0
UTOPIA,ID,RH,1998,0.0
UTOPIA,ID,RH,1999,0.0
UTOPIA,ID,RH,2000,0.0
UTOPIA,ID,RH,2001,0.0
UTOPIA,ID,RH,2002,0.0
UTOPIA,ID,RH,2003,0.0
UTOPIA,ID,RH,2004,0.0
UTOPIA,ID,RH,2005,0.0
UTOPIA,ID,RH,2006,0.0
UTOPIA,ID,RH,2007,0.0
UTOPIA,ID,RH,2008,0.0
UTOPIA,ID,RH,2009,0.0
UTOPIA,ID,RH,2010,0.0
UTOPIA,ID,URN,1990,0.0
UTOPIA,ID,URN,1991,0.0
UTOPIA,ID,URN,1992,0.0
UTOPIA,ID,URN,1993,0.0
UTOPIA,ID,URN,1994,0.0
UTOPIA,ID,URN,1995,0.0
UTOPIA,ID,URN,1996,0.0
UTOPIA,ID,URN,1997,0.0
UTOPIA,ID,URN,1998,0.0
UTOPIA,ID,URN,1999,0.0
UTOPIA,ID,URN,2000,21.2373323187619
UTOPIA,ID,URN,2001,23.3126797802999
UTOPIA,ID,URN,2002,25.651132089838
UTOPIA,ID,URN,2003,27.9895843993761
UTOPIA,ID,URN,2004,30.3280367089142
UTOPIA,ID,URN,2005,32.6664890184523
UTOPIA,ID,URN,2006,86.7893937012421
UTOPIA,ID,URN,2007,37.3433936375285
UTOPIA,ID,URN,2008,39.6818459470666
UTOPIA,ID,URN,2009,42.0202982566047
UTOPIA,ID,URN,2010,44.2812666141428
UTOPIA,ID,ELC,1990,5.03899220155969
UTOPIA,ID,ELC,1991,5.69094181163767
UTOPIA,ID,ELC,1992,6.34289142171566
UTOPIA,ID,ELC,1993,6.99484103179364
UTOPIA,ID,ELC,1994,7.64679064187163
UTOPIA,ID,ELC,1995,8.29874025194961
UTOPIA,ID,ELC,1996,8.95068986202759
UTOPIA,ID,ELC,1997,9.60263947210558
UTOPIA,ID,ELC,1998,10.2545890821836
UTOPIA,ID,ELC,1999,10.9065386922615
UTOPIA,ID,ELC,2000,38.7690461907618
UTOPIA,ID,ELC,2001,41.1074985002999
UTOPIA,ID,ELC,2002,43.445950809838
UTOPIA,ID,ELC,2003,45.7844031193761
UTOPIA,ID,ELC,2004,48.1228554289142
UTOPIA,ID,ELC,2005,50.4613077384523
UTOPIA,ID,ELC,2006,104.584212421242
UTOPIA,ID,ELC,2007,55.1382123575285
UTOPIA,ID,ELC,2008,57.4766646670666
UTOPIA,ID,ELC,2009,59.8151169766047
UTOPIA,ID,ELC,2010,62.1535692861428
UTOPIA,SD,LTH,1990,0.0
UTOPIA,SD,LTH,1991,0.0
UTOPIA,SD,LTH,1992,0.0
UTOPIA,SD,LTH,1993,0.0
UTOPIA,SD,LTH,1994,0.0
UTOPIA,SD,LTH,1995,0.0
UTOPIA,SD,LTH,1996,0.0
UTOPIA,SD,LTH,1997,0.0
UTOPIA,SD,LTH,1998,0.0
UTOPIA,SD,LTH,1999,0.0
UTOPIA,SD,LTH,2000,0.0
UTOPIA,SD,LTH,2001,0.0
UTOPIA,SD,LTH,2002,0.0
UTOPIA,SD,LTH,2003,0.0
UTOPIA,SD,LTH,2004,0.0
UTOPIA,SD,LTH,2005,0.0
UTOPIA,SD,LTH,2006,0.0
UTOPIA,SD,LTH,2007,0.0
UTOPIA,SD,LTH,2008,0.0
UTOPIA,SD,LTH,2009,0.0
UTOPIA,SD,LTH,2010,0.0
UTOPIA,SD,HCO,1990,0.0
UTOPIA,SD,HCO,1991,0.0
UTOPIA,SD,HCO,1992,0.0
UTOPIA,SD,HCO,1993,0.0
UTOPIA,SD,HCO,1994,0.0
UTOPIA,SD,HCO,1995,0.0
UTOPIA,SD,HCO,1996,0.0
UTOPIA,SD,HCO,1997,0.0
UTOPIA,SD,HCO,1998,0.0
UTOPIA,SD,HCO,1999,0.0
UTOPIA,SD,HCO,2000,0.0
UTOPIA,SD,HCO,2001,0.0
UTOPIA,SD,HCO,2002,0.0
UTOPIA,SD,HCO,2003,0.0
UTOPIA,SD,HCO,2004,0.0
UTOPIA,SD,HCO,2005,0.0
UTOPIA,SD,HCO,2006,0.0
UTOPIA,SD,HCO,2007,0.0
UTOPIA,SD,HCO,2008,0.0
UTOPIA,SD,HCO,2009,0.0
UTOPIA,SD,HCO,2010,0.0
UTOPIA,SD,OIL,1990,0.0
UTOPIA,SD,OIL,1991,0.0
UTOPIA,SD,OIL,1992,0.0
UTOPIA,SD,OIL,1993,0.0
UTOPIA,SD,OIL,1994,0.0
UTOPIA,SD,OIL,1995,0.0
UTOPIA,SD,OIL,1996,0.0
UTOPIA,SD,OIL,1997,0.0
UTOPIA,SD,OIL,1998,0.0
UTOPIA,SD,OIL,1999,0.0
UTOPIA,SD,OIL,2000,0.0
UTOPIA,SD,OIL,2001,0.0
UTOPIA,SD,OIL,2002,0.0
UTOPIA,SD,OIL,2003,0.0
UTOPIA,SD,OIL,2004,0.0
UTOPIA,SD,OIL,2005,0.0
UTOPIA,SD,OIL,2006,3.64845245656835e-15
UTOPIA,SD,OIL,2007,0.0
UTOPIA,SD,OIL,2008,0.0
UTOPIA,SD,OIL,2009,0.0
UTOPIA,SD,OIL,2010,0.0
UTOPIA,SD,CSV,1990,0.0
UTOPIA,SD,CSV,1991,0.0
UTOPIA,SD,CSV,1992,0.0
UTOPIA,SD,CSV,1993,0.0
UTOPIA,SD,CSV,1994,0.0
UTOPIA,SD,CSV,1995,0.0
UTOPIA,SD,CSV,1996,0.0
UTOPIA,SD,CSV,1997,0.0
UTOPIA,SD,CSV,1998,0.0
UTOPIA,SD,CSV,1999,0.0
UTOPIA,SD,CSV,2000,0.0
UTOPIA,SD,CSV,2001,0.0
UTOPIA,SD,CSV,2002,0.0
UTOPIA,SD,CSV,2003,0.0
UTOPIA,SD,CSV,2004,0.0
UTOPIA,SD,CSV,2005,0.0
UTOPIA,SD,CSV,2006,0.0
UTOPIA,SD,CSV,2007,0.0
UTOPIA,SD,CSV,2008,0.0
UTOPIA,SD,CSV,2009,0.0
UTOPIA,SD,CSV,2010,0.0
UTOPIA,SD,DSL,1990,0.0
UTOPIA,SD,DSL,1991,0.0
UTOPIA,SD,DSL,1992,0.0
UTOPIA,SD,DSL,1993,0.0
UTOPIA,SD,DSL,1994,0.0
UTOPIA,SD,DSL,1995,0.0
UTOPIA,SD,DSL,1996,0.0
UTOPIA,SD,DSL,1997,0.0
UTOPIA,SD,DSL,1998,0.0
UTOPIA,SD,DSL,1999,0.0
UTOPIA,SD,DSL,2000,0.0
UTOPIA,SD,DSL,2001,0.0
UTOPIA,SD,DSL,2002,0.0
UTOPIA,SD,DSL,2003,0.0
UTOPIA,SD,DSL,2004,0.0
UTOPIA,SD,DSL,2005,0.0
UTOPIA,SD,DSL,2006,2.55391671959784e-15
UTOPIA,SD,DSL,2007,0.0
UTOPIA,SD,DSL,2008,0.0
UTOPIA,SD,DSL,2009,0.0
UTOPIA,SD,DSL,2010,0.0
UTOPIA,SD,HYD,1990,0.0
UTOPIA,SD,HYD,1991,0.0
UTOPIA,SD,HYD,1992,0.0
UTOPIA,SD,HYD,1993,0.0
UTOPIA,SD,HYD,1994,0.0
UTOPIA,SD,HYD,1995,0.0
UTOPIA,SD,HYD,1996,0.0
UTOPIA,SD,HYD,1997,0.0
UTOPIA,SD,HYD,1998,0.0
UTOPIA,SD,HYD,1999,0.0
UTOPIA,SD,HYD,2000,0.0
UTOPIA,SD,HYD,2001,0.0
UTOPIA,SD,HYD,2002,0.0
UTOPIA,SD,HYD,2003,0.0
UTOPIA,SD,HYD,2004,0.0
UTOPIA,SD,HYD,2005,1.1398449310138
UTOPIA,SD,HYD,2006,4.19585872825435
UTOPIA,SD,HYD,2007,5.3483085
UTOPIA,SD,HYD,2008,5.3483085
UTOPIA,SD,HYD,2009,5.3483085
UTOPIA,SD,HYD,2010,5.59044585
UTOPIA,SD,TX,1990,0.0
UTOPIA,SD,TX,1991,0.0
UTOPIA,SD,TX,1992,0.0
UTOPIA,SD,TX,1993,0.0
UTOPIA,SD,TX,1994,0.0
UTOPIA,SD,TX,1995,0.0
UTOPIA,SD,TX,1996,0.0
UTOPIA,SD,TX,1997,0.0
UTOPIA,SD,TX,1998,0.0
UTOPIA,SD,TX,1999,0.0
UTOPIA,SD,TX,2000,0.0
UTOPIA,SD,TX,2001,0.0
UTOPIA,SD,TX,2002,0.0
UTOPIA,SD,TX,2003,0.0
UTOPIA,SD,TX,2004,0.0
UTOPIA,SD,TX,2005,0.0
UTOPIA,SD,TX,2006,0.0
UTOPIA,SD,TX,2007,0.0
UTOPIA,SD,TX,2008,0.0
UTOPIA,SD,TX,2009,0.0
UTOPIA,SD,TX,2010,0.0
UTOPIA,SD,GSL,1990,0.0
UTOPIA,SD,GSL,1991,0.0
UTOPIA,SD,GSL,1992,0.0
UTOPIA,SD,GSL,1993,0.0
UTOPIA,SD,GSL,1994,0.0
UTOPIA,SD,GSL,1995,0.0
UTOPIA,SD,GSL,1996,0.0
UTOPIA,SD,GSL,1997,0.0
UTOPIA,SD,GSL,1998,0.0
UTOPIA,SD,GSL,1999,0.0
UTOPIA,SD,GSL,2000,0.0
UTOPIA,SD,GSL,2001,0.0
UTOPIA,SD,GSL,2002,0.0
UTOPIA,SD,GSL,2003,0.0
UTOPIA,SD,GSL,2004,0.0
UTOPIA,SD,GSL,2005,0.0
UTOPIA,SD,GSL,2006,1.0945357369705e-15
UTOPIA,SD,GSL,2007,0.0
UTOPIA,SD,GSL,2008,0.0
UTOPIA,SD,GSL,2009,0.0
UTOPIA,SD,GSL,2010,0.0
UTOPIA,SD,RL,1990,0.0
UTOPIA,SD,RL,1991,0.0
UTOPIA,SD,RL,1992,0.0
UTOPIA,SD,RL,1993,0.0
UTOPIA,SD,RL,1994,0.0
UTOPIA,SD,RL,1995,0.0
UTOPIA,SD,RL,1996,0.0
UTOPIA,SD,RL,1997,0.0
UTOPIA,SD,RL,1998,0.0
UTOPIA,SD,RL,1999,0.0
UTOPIA,SD,RL,2000,0.0
UTOPIA,SD,RL,2001,0.0
UTOPIA,SD,RL,2002,0.0
UTOPIA,SD,RL,2003,0.0
UTOPIA,SD,RL,2004,0.0
UTOPIA,SD,RL,2005,0.0
UTOPIA,SD,RL,2006,0.0
UTOPIA,SD,RL,2007,0.0
UTOPIA,SD,RL,2008,0.0
UTOPIA,SD,RL,2009,0.0
UTOPIA,SD,RL,2010,0.0
UTOPIA,SD,RH,1990,0.0
UTOPIA,SD,RH,1991,0.0
UTOPIA,SD,RH,1992,0.0
UTOPIA,SD,RH,1993,0.0
UTOPIA,SD,RH,1994,0.0
UTOPIA,SD,RH,1995,0.0
UTOPIA,SD,RH,1996,0.0
UTOPIA,SD,RH,1997,0.0
UTOPIA,SD,RH,1998,0.0
UTOPIA,SD,RH,1999,0.0
UTOPIA,SD,RH,2000,0.0
UTOPIA,SD,RH,2001,0.0
UTOPIA,SD,RH,2002,0.0
UTOPIA,SD,RH,2003,0.0
UTOPIA,SD,RH,2004,0.0
UTOPIA,SD,RH,2005,0.0
UTOPIA,SD,RH,2006,0.0
UTOPIA,SD,RH,2007,0.0
UTOPIA,SD,RH,2008,0.0
UTOPIA,SD,RH,2009,0.0
UTOPIA,SD,RH,2010,0.0
UTOPIA,SD,URN,1990,0.0
UTOPIA,SD,URN,1991,0.0
UTOPIA,SD,URN,1992,0.0
UTOPIA,SD,URN,1993,0.0
UTOPIA,SD,URN,1994,0.0
UTOPIA,SD,URN,1995,0.0
UTOPIA,SD,URN,1996,0.0
UTOPIA,SD,URN,1997,0.0
UTOPIA,SD,URN,1998,0.0
UTOPIA,SD,URN,1999,0.0
UTOPIA,SD,URN,2000,0.0
UTOPIA,SD,URN,2001,0.0
UTOPIA,SD,URN,2002,0.0
UTOPIA,SD,URN,2003,0.0
UTOPIA,SD,URN,2004,0.0
UTOPIA,SD,URN,2005,0.0
UTOPIA,SD,URN,2006,0.0
UTOPIA,SD,URN,2007,0.609140488158362
UTOPIA,SD,URN,2008,1.58706490327534
UTOPIA,SD,URN,2009,2.56498931839232
UTOPIA,SD,URN,2010,3.4654297815093
UTOPIA,SD,ELC,1990,5.03899220155969
UTOPIA,SD,ELC,1991,5.69094181163767
UTOPIA,SD,ELC,1992,6.34289142171566
UTOPIA,SD,ELC,1993,6.99484103179364
UTOPIA,SD,ELC,1994,7.64679064187163
UTOPIA,SD,ELC,1995,8.29874025194961
UTOPIA,SD,ELC,1996,8.95068986202759
UTOPIA,SD,ELC,1997,9.60263947210558
UTOPIA,SD,ELC,1998,10.2545890821836
UTOPIA,SD,ELC,1999,10.9065386922615
UTOPIA,SD,ELC,2000,11.5584883023395
UTOPIA,SD,ELC,2001,12.5364127174565
UTOPIA,SD,ELC,2002,13.5143371325735
UTOPIA,SD,ELC,2003,14.4922615476905
UTOPIA,SD,ELC,2004,15.4701859628074
UTOPIA,SD,ELC,2005,16.4481103779244
UTOPIA,SD,ELC,2006,17.4260347930414
UTOPIA,SD,ELC,2007,18.4039592081584
UTOPIA,SD,ELC,2008,19.3818836232753
UTOPIA,SD,ELC,2009,20.3598080383923
UTOPIA,SD,ELC,2010,21.3377324535093
UTOPIA,WN,LTH,1990,0.0
UTOPIA,WN,LTH,1991,0.0
UTOPIA,WN,LTH,1992,0.0
UTOPIA,WN,LTH,1993,0.0
UTOPIA,WN,LTH,1994,0.0
UTOPIA,WN,LTH,1995,0.0
UTOPIA,WN,LTH,1996,0.0
UTOPIA,WN,LTH,1997,0.0
UTOPIA,WN,LTH,1998,0.0
UTOPIA,WN,LTH,1999,0.0
UTOPIA,WN,LTH,2000,0.0
UTOPIA,WN,LTH,2001,0.0
UTOPIA,WN,LTH,2002,0.0
UTOPIA,WN,LTH,2003,0.0
UTOPIA,WN,LTH,2004,0.0
UTOPIA,WN,LTH,2005,0.0
UTOPIA,WN,LTH,2006,0.0
UTOPIA,WN,LTH,2007,0.0
UTOPIA,WN,LTH,2008,0.0
UTOPIA,WN,LTH,2009,0.0
UTOPIA,WN,LTH,2010,0.0
UTOPIA,WN,HCO,1990,0.0
UTOPIA,WN,HCO,1991,0.0
UTOPIA,WN,HCO,1992,0.0
UTOPIA,WN,HCO,1993,0.0
UTOPIA,WN,HCO,1994,0.0
UTOPIA,WN,HCO,1995,0.0
UTOPIA,WN,HCO,1996,0.0
UTOPIA,WN,HCO,1997,0.0
UTOPIA,WN,HCO,1998,0.0
UTOPIA,WN,HCO,1999,0.0
UTOPIA,WN,HCO,2000,0.0
UTOPIA,WN,HCO,2001,0.0
UTOPIA,WN,HCO,2002,0.0
UTOPIA,WN,HCO,2003,0.0
UTOPIA,WN,HCO,2004,0.0
UTOPIA,WN,HCO,2005,0.0
UTOPIA,WN,HCO,2006,0.0
UTOPIA,WN,HCO,2007,0.0
UTOPIA,WN,HCO,2008,0.0
UTOPIA,WN,HCO,2009,0.0
UTOPIA,WN,HCO,2010,0.0
UTOPIA,WN,OIL,1990,0.0
UTOPIA,WN,OIL,1991,0.0
UTOPIA,WN,OIL,1992,0.0
UTOPIA,WN,OIL,1993,0.0
UTOPIA,WN,OIL,1994,0.0
UTOPIA,WN,OIL,1995,0.0
UTOPIA,WN,OIL,1996,0.0
UTOPIA,WN,OIL,1997,0.0
UTOPIA,WN,OIL,1998,0.0
UTOPIA,WN,OIL,1999,0.0
UTOPIA,WN,OIL,2000,0.0
UTOPIA,WN,OIL,2001,0.0
UTOPIA,WN,OIL,2002,0.0
UTOPIA,WN,OIL,2003,0.0
UTOPIA,WN,OIL,2004,0.0
UTOPIA,WN,OIL,2005,0.0
UTOPIA,WN,OIL,2006,0.0
UTOPIA,WN,OIL,2007,0.0
UTOPIA,WN,OIL,2008,0.0
UTOPIA,WN,OIL,2009,0.0
UTOPIA,WN,OIL,2010,0.0
UTOPIA,WN,CSV,1990,0.0
UTOPIA,WN,CSV,1991,0.0
UTOPIA,WN,CSV,1992,0.0
UTOPIA,WN,CSV,1993,0.0
UTOPIA,WN,CSV,1994,0.0
UTOPIA,WN,CSV,1995,0.0
UTOPIA,WN,CSV,1996,0.0
UTOPIA,WN,CSV,1997,0.0
UTOPIA,WN,CSV,1998,0.0
UTOPIA,WN,CSV,1999,0.0
UTOPIA,WN,CSV,2000,0.0
UTOPIA,WN,CSV,2001,0.0
UTOPIA,WN,CSV,2002,0.0
UTOPIA,WN,CSV,2003,0.0
UTOPIA,WN,CSV,2004,0.0
UTOPIA,WN,CSV,2005,0.0
UTOPIA,WN,CSV,2006,0.0
UTOPIA,WN,CSV,2007,0.0
UTOPIA,WN,CSV,2008,0.0
UTOPIA,WN,CSV,2009,0.0
UTOPIA,WN,CSV,2010,0.0
UTOPIA,WN,DSL,1990,0.0
UTOPIA,WN,DSL,1991,0.0
UTOPIA,WN,DSL,1992,0.0
UTOPIA,WN,DSL,1993,0.0
UTOPIA,WN,DSL,1994,0.0
UTOPIA,WN,DSL,1995,0.0
UTOPIA,WN,DSL,1996,0.0
UTOPIA,WN,DSL,1997,0.0
UTOPIA,WN,DSL,1998,0.0
UTOPIA,WN,DSL,1999,0.0
UTOPIA,WN,DSL,2000,0.0
UTOPIA,WN,DSL,2001,0.0
UTOPIA,WN,DSL,2002,0.0
UTOPIA,WN,DSL,2003,0.0
UTOPIA,WN,DSL,2004,0.0
UTOPIA,WN,DSL,2005,0.0
UTOPIA,WN,DSL,2006,0.0
UTOPIA,WN,DSL,2007,0.0
UTOPIA,WN,DSL,2008,0.0
UTOPIA,WN,DSL,2009,0.0
UTOPIA,WN,DSL,2010,0.0
UTOPIA,WN,HYD,1990,0.0
UTOPIA,WN,HYD,1991,0.0
UTOPIA,WN,HYD,1992,0.0
UTOPIA,WN,HYD,1993,0.0
UTOPIA,WN,HYD,1994,0.0
UTOPIA,WN,HYD,1995,0.0
UTOPIA,WN,HYD,1996,0.0
UTOPIA,WN,HYD,1997,0.0
UTOPIA,WN,HYD,1998,0.0
UTOPIA,WN,HYD,1999,0.0
UTOPIA,WN,HYD,2000,4.52610585
UTOPIA,WN,HYD,2001,5.3483085
UTOPIA,WN,HYD,2002,5.3483085
UTOPIA,WN,HYD,2003,5.3483085
UTOPIA,WN,HYD,2004,5.3483085
UTOPIA,WN,HYD,2005,5.3483085
UTOPIA,WN,HYD,2006,5.3483085
UTOPIA,WN,HYD,2007,5.3483085
UTOPIA,WN,HYD,2008,5.3483085
UTOPIA,WN,HYD,2009,5.3483085
UTOPIA,WN,HYD,2010,5.59044585
UTOPIA,WN,TX,1990,0.0
UTOPIA,WN,TX,1991,0.0
UTOPIA,WN,TX,1992,0.0
UTOPIA,WN,TX,1993,0.0
UTOPIA,WN,TX,1994,0.0
UTOPIA,WN,TX,1995,0.0
UTOPIA,WN,TX,1996,0.0
UTOPIA,WN,TX,1997,0.0
UTOPIA,WN,TX,1998,0.0
UTOPIA,WN,TX,1999,0.0
UTOPIA,WN,TX,2000,0.0
UTOPIA,WN,TX,2001,0.0
UTOPIA,WN,TX,2002,0.0
UTOPIA,WN,TX,2003,0.0
UTOPIA,WN,TX,2004,0.0
UTOPIA,WN,TX,2005,0.0
UTOPIA,WN,TX,2006,0.0
UTOPIA,WN,TX,2007,0.0
UTOPIA,WN,TX,2008,0.0
UTOPIA,WN,TX,2009,0.0
UTOPIA,WN,TX,2010,0.0
UTOPIA,WN,GSL,1990,0.0
UTOPIA,WN,GSL,1991,0.0
UTOPIA,WN,GSL,1992,0.0
UTOPIA,WN,GSL,1993,0.0
UTOPIA,WN,GSL,1994,0.0
UTOPIA,WN,GSL,1995,0.0
UTOPIA,WN,GSL,1996,0.0
UTOPIA,WN,GSL,1997,0.0
UTOPIA,WN,GSL,1998,0.0
UTOPIA,WN,GSL,1999,0.0
UTOPIA,WN,GSL,2000,0.0
UTOPIA,WN,GSL,2001,0.0
UTOPIA,WN,GSL,2002,0.0
UTOPIA,WN,GSL,2003,0.0
UTOPIA,WN,GSL,2004,0.0
UTOPIA,WN,GSL,2005,0.0
UTOPIA,WN,GSL,2006,0.0
UTOPIA,WN,GSL,2007,0.0
UTOPIA,WN,GSL,2008,0.0
UTOPIA,WN,GSL,2009,0.0
UTOPIA,WN,GSL,2010,0.0
UTOPIA,WN,RL,1990,0.0
UTOPIA,WN,RL,1991,0.0
UTOPIA,WN,RL,1992,0.0
UTOPIA,WN,RL,1993,0.0
UTOPIA,WN,RL,1994,0.0
UTOPIA,WN,RL,1995,0.0
UTOPIA,WN,RL,1996,0.0
UTOPIA,WN,RL,1997,0.0
UTOPIA,WN,RL,1998,0.0
UTOPIA,WN,RL,1999,0.0
UTOPIA,WN,RL,2000,0.0
UTOPIA,WN,RL,2001,0.0
UTOPIA,WN,RL,2002,0.0
UTOPIA,WN,RL,2003,0.0
UTOPIA,WN,RL,2004,0.0
UTOPIA,WN,RL,2005,0.0
UTOPIA,WN,RL,2006,0.0
UTOPIA,WN,RL,2007,0.0
UTOPIA,WN,RL,2008,0.0
UTOPIA,WN,RL,2009,0.0
UTOPIA,WN,RL,2010,0.0
UTOPIA,WN,RH,1990,0.0
UTOPIA,WN,RH,1991,0.0
UTOPIA,WN,RH,1992,0.0
UTOPIA,WN,RH,1993,0.0
UTOPIA,WN,RH,1994,0.0
UTOPIA,WN,RH,1995,0.0
UTOPIA,WN,RH,1996,0.0
UTOPIA,WN,RH,1997,0.0
UTOPIA,WN,RH,1998,0.0
UTOPIA,WN,RH,1999,0.0
UTOPIA,WN,RH,2000,0.0
UTOPIA,WN,RH,2001,0.0
UTOPIA,WN,RH,2002,0.0
UTOPIA,WN,RH,2003,0.0
UTOPIA,WN,RH,2004,0.0
UTOPIA,WN,RH,2005,0.0
UTOPIA,WN,RH,2006,0.0
UTOPIA,WN,RH,2007,0.0
UTOPIA,WN,RH,2008,0.0
UTOPIA,WN,RH,2009,0.0
UTOPIA,WN,RH,2010,0.0
UTOPIA,WN,URN,1990,0.0
UTOPIA,WN,URN,1991,0.0
UTOPIA,WN,URN,1992,0.0
UTOPIA,WN,URN,1993,0.0
UTOPIA,WN,URN,1994,0.0
UTOPIA,WN,URN,1995,0.0
UTOPIA,WN,URN,1996,0.0
UTOPIA,WN,URN,1997,0.0
UTOPIA,WN,URN,1998,0.0
UTOPIA,WN,URN,1999,0.0
UTOPIA,WN,URN,2000,53.4793239204415
UTOPIA,WN,URN,2001,57.1667709620636
UTOPIA,WN,URN,2002,61.1173228516857
UTOPIA,WN,URN,2003,65.0678747413077
UTOPIA,WN,URN,2004,69.0184266309298
UTOPIA,WN,URN,2005,72.9689785205519
UTOPIA,WN,URN,2006,76.9195304101739
UTOPIA,WN,URN,2007,80.870082299796
UTOPIA,WN,URN,2008,84.8206341894181
UTOPIA,WN,URN,2009,88.7711860790402
UTOPIA,WN,URN,2010,92.6442540166623
UTOPIA,WN,ELC,1990,10.7570458530592
UTOPIA,WN,ELC,1991,3.92729454109178
UTOPIA,WN,ELC,1992,4.49526094781044
UTOPIA,WN,ELC,1993,5.06322735452909
UTOPIA,WN,ELC,1994,5.63119376124775
UTOPIA,WN,ELC,1995,6.19916016796641
UTOPIA,WN,ELC,1996,6.76712657468506
UTOPIA,WN,ELC,1997,7.33509298140372
UTOPIA,WN,ELC,1998,7.90305938812237
UTOPIA,WN,ELC,1999,8.47102579484103
UTOPIA,WN,ELC,2000,71.0110377924415
UTOPIA,WN,ELC,2001,74.9615896820636
UTOPIA,WN,ELC,2002,78.9121415716857
UTOPIA,WN,ELC,2003,82.8626934613077
UTOPIA,WN,ELC,2004,86.8132453509298
UTOPIA,WN,ELC,2005,90.7637972405519
UTOPIA,WN,ELC,2006,94.714349130174
UTOPIA,WN,ELC,2007,98.664901019796
UTOPIA,WN,ELC,2008,102.615452909418
UTOPIA,WN,ELC,2009,106.56600479904
UTOPIA,WN,ELC,2010,110.516556688662
UTOPIA,SN,LTH,1990,0.0
UTOPIA,SN,LTH,1991,0.0
UTOPIA,SN,LTH,1992,0.0
UTOPIA,SN,LTH,1993,0.0
UTOPIA,SN,LTH,1994,0.0
UTOPIA,SN,LTH,1995,0.0
UTOPIA,SN,LTH,1996,0.0
UTOPIA,SN,LTH,1997,0.0
UTOPIA,SN,LTH,1998,0.0
UTOPIA,SN,LTH,1999,0.0
UTOPIA,SN,LTH,2000,0.0
UTOPIA,SN,LTH,2001,0.0
UTOPIA,SN,LTH,2002,0.0
UTOPIA,SN,LTH,2003,0.0
UTOPIA,SN,LTH,2004,0.0
UTOPIA,SN,LTH,2005,0.0
UTOPIA,SN,LTH,2006,0.0
UTOPIA,SN,LTH,2007,0.0
UTOPIA,SN,LTH,2008,0.0
UTOPIA,SN,LTH,2009,0.0
UTOPIA,SN,LTH,2010,0.0
UTOPIA,SN,HCO,1990,0.0
UTOPIA,SN,HCO,1991,0.0
UTOPIA,SN,HCO,1992,0.0
UTOPIA,SN,HCO,1993,0.0
UTOPIA,SN,HCO,1994,0.0
UTOPIA,SN,HCO,1995,0.0
UTOPIA,SN,HCO,1996,0.0
UTOPIA,SN,HCO,1997,0.0
UTOPIA,SN,HCO,1998,0.0
UTOPIA,SN,HCO,1999,0.0
UTOPIA,SN,HCO,2000,0.0
UTOPIA,SN,HCO,2001,0.0
UTOPIA,SN,HCO,2002,0.0
UTOPIA,SN,HCO,2003,0.0
UTOPIA,SN,HCO,2004,0.0
UTOPIA,SN,HCO,2005,0.0
UTOPIA,SN,HCO,2006,0.0
UTOPIA,SN,HCO,2007,0.0
UTOPIA,SN,HCO,2008,0.0
UTOPIA,SN,HCO,2009,0.0
UTOPIA,SN,HCO,2010,0.0
UTOPIA,SN,OIL,1990,0.0
UTOPIA,SN,OIL,1991,0.0
UTOPIA,SN,OIL,1992,0.0
UTOPIA,SN,OIL,1993,0.0
UTOPIA,SN,OIL,1994,0.0
UTOPIA,SN,OIL,1995,0.0
UTOPIA,SN,OIL,1996,0.0
UTOPIA,SN,OIL,1997,0.0
UTOPIA,SN,OIL,1998,0.0
UTOPIA,SN,OIL,1999,0.0
UTOPIA,SN,OIL,2000,0.0
UTOPIA,SN,OIL,2001,0.0
UTOPIA,SN,OIL,2002,0.0
UTOPIA,SN,OIL,2003,0.0
UTOPIA,SN,OIL,2004,0.0
UTOPIA,SN,OIL,2005,0.0
UTOPIA,SN,OIL,2006,0.0
UTOPIA,SN,OIL,2007,0.0
UTOPIA,SN,OIL,2008,0.0
UTOPIA,SN,OIL,2009,0.0
UTOPIA,SN,OIL,2010,0.0
UTOPIA,SN,CSV,1990,0.0
UTOPIA,SN,CSV,1991,0.0
UTOPIA,SN,CSV,1992,0.0
UTOPIA,SN,CSV,1993,0.0
UTOPIA,SN,CSV,1994,0.0
UTOPIA,SN,CSV,1995,0.0
UTOPIA,SN,CSV,1996,0.0
UTOPIA,SN,CSV,1997,0.0
UTOPIA,SN,CSV,1998,0.0
UTOPIA,SN,CSV,1999,0.0
UTOPIA,SN,CSV,2000,0.0
UTOPIA,SN,CSV,2001,0.0
UTOPIA,SN,CSV,2002,0.0
UTOPIA,SN,CSV,2003,0.0
UTOPIA,SN,CSV,2004,0.0
UTOPIA,SN,CSV,2005,0.0
UTOPIA,SN,CSV,2006,0.0
UTOPIA,SN,CSV,2007,0.0
UTOPIA,SN,CSV,2008,0.0
UTOPIA,SN,CSV,2009,0.0
UTOPIA,SN,CSV,2010,0.0
UTOPIA,SN,DSL,1990,0.0
UTOPIA,SN,DSL,1991,0.0
UTOPIA,SN,DSL,1992,0.0
UTOPIA,SN,DSL,1993,0.0
UTOPIA,SN,DSL,1994,0.0
UTOPIA,SN,DSL,1995,0.0
UTOPIA,SN,DSL,1996,0.0
UTOPIA,SN,DSL,1997,0.0
UTOPIA,SN,DSL,1998,0.0
UTOPIA,SN,DSL,1999,0.0
UTOPIA,SN,DSL,2000,0.0
UTOPIA,SN,DSL,2001,0.0
UTOPIA,SN,DSL,2002,0.0
UTOPIA,SN,DSL,2003,0.0
UTOPIA,SN,DSL,2004,0.0
UTOPIA,SN,DSL,2005,0.0
UTOPIA,SN,DSL,2006,0.0
UTOPIA,SN,DSL,2007,0.0
UTOPIA,SN,DSL,2008,0.0
UTOPIA,SN,DSL,2009,0.0
UTOPIA,SN,DSL,2010,0.0
UTOPIA,SN,HYD,1990,0.0
UTOPIA,SN,HYD,1991,0.0
UTOPIA,SN,HYD,1992,0.0
UTOPIA,SN,HYD,1993,0.0
UTOPIA,SN,HYD,1994,0.0
UTOPIA,SN,HYD,1995,0.0
UTOPIA,SN,HYD,1996,0.0
UTOPIA,SN,HYD,1997,0.0
UTOPIA,SN,HYD,1998,0.0
UTOPIA,SN,HYD,1999,0.0
UTOPIA,SN,HYD,2000,0.0
UTOPIA,SN,HYD,2001,0.0
UTOPIA,SN,HYD,2002,0.0
UTOPIA,SN,HYD,2003,0.0
UTOPIA,SN,HYD,2004,0.0
UTOPIA,SN,HYD,2005,0.0
UTOPIA,SN,HYD,2006,0.0
UTOPIA,SN,HYD,2007,0.0
UTOPIA,SN,HYD,2008,0.0
UTOPIA,SN,HYD,2009,1.96113865546219
UTOPIA,SN,HYD,2010,4.62395378151262
UTOPIA,SN,TX,1990,0.0
UTOPIA,SN,TX,1991,0.0
UTOPIA,SN,TX,1992,0.0
UTOPIA,SN,TX,1993,0.0
UTOPIA,SN,TX,1994,0.0
UTOPIA,SN,TX,1995,0.0
UTOPIA,SN,TX,1996,0.0
UTOPIA,SN,TX,1997,0.0
UTOPIA,SN,TX,1998,0.0
UTOPIA,SN,TX,1999,0.0
UTOPIA,SN,TX,2000,0.0
UTOPIA,SN,TX,2001,0.0
UTOPIA,SN,TX,2002,0.0
UTOPIA,SN,TX,2003,0.0
UTOPIA,SN,TX,2004,0.0
UTOPIA,SN,TX,2005,0.0
UTOPIA,SN,TX,2006,0.0
UTOPIA,SN,TX,2007,0.0
UTOPIA,SN,TX,2008,0.0
UTOPIA,SN,TX,2009,0.0
UTOPIA,SN,TX,2010,0.0
UTOPIA,SN,GSL,1990,0.0
UTOPIA,SN,GSL,1991,0.0
UTOPIA,SN,GSL,1992,0.0
UTOPIA,SN,GSL,1993,0.0
UTOPIA,SN,GSL,1994,0.0
UTOPIA,SN,GSL,1995,0.0
UTOPIA,SN,GSL,1996,0.0
UTOPIA,SN,GSL,1997,0.0
UTOPIA,SN,GSL,1998,0.0
UTOPIA,SN,GSL,1999,0.0
UTOPIA,SN,GSL,2000,0.0
UTOPIA,SN,GSL,2001,0.0
UTOPIA,SN,GSL,2002,0.0
UTOPIA,SN,GSL,2003,0.0
UTOPIA,SN,GSL,2004,0.0
UTOPIA,SN,GSL,2005,0.0
UTOPIA,SN,GSL,2006,0.0
UTOPIA,SN,GSL,2007,0.0
UTOPIA,SN,GSL,2008,0.0
UTOPIA,SN,GSL,2009,0.0
UTOPIA,SN,GSL,2010,0.0
UTOPIA,SN,RL,1990,0.0
UTOPIA,SN,RL,1991,0.0
UTOPIA,SN,RL,1992,0.0
UTOPIA,SN,RL,1993,0.0
UTOPIA,SN,RL,1994,0.0
UTOPIA,SN,RL,1995,0.0
UTOPIA,SN,RL,1996,0.0
UTOPIA,SN,RL,1997,0.0
UTOPIA,SN,RL,1998,0.0
UTOPIA,SN,RL,1999,0.0
UTOPIA,SN,RL,2000,0.0
UTOPIA,SN,RL,2001,0.0
UTOPIA,SN,RL,2002,0.0
UTOPIA,SN,RL,2003,0.0
UTOPIA,SN,RL,2004,0.0
UTOPIA,SN,RL,2005,0.0
UTOPIA,SN,RL,2006,0.0
UTOPIA,SN,RL,2007,0.0
UTOPIA,SN,RL,2008,0.0
UTOPIA,SN,RL,2009,0.0
UTOPIA,SN,RL,2010,0.0
UTOPIA,SN,RH,1990,0.0
UTOPIA,SN,RH,1991,0.0
UTOPIA,SN,RH,1992,0.0
UTOPIA,SN,RH,1993,0.0
UTOPIA,SN,RH,1994,0.0
UTOPIA,SN,RH,1995,0.0
UTOPIA,SN,RH,1996,0.0
UTOPIA,SN,RH,1997,0.0
UTOPIA,SN,RH,1998,0.0
UTOPIA,SN,RH,1999,0.0
UTOPIA,SN,RH,2000,0.0
UTOPIA,SN,RH,2001,0.0
UTOPIA,SN,RH,2002,0.0
UTOPIA,SN,RH,2003,0.0
UTOPIA,SN,RH,2004,0.0
UTOPIA,SN,RH,2005,0.0
UTOPIA,SN,RH,2006,0.0
UTOPIA,SN,RH,2007,0.0
UTOPIA,SN,RH,2008,0.0
UTOPIA,SN,RH,2009,0.0
UTOPIA,SN,RH,2010,0.0
UTOPIA,SN,URN,1990,0.0
UTOPIA,SN,URN,1991,0.0
UTOPIA,SN,URN,1992,0.0
UTOPIA,SN,URN,1993,0.0
UTOPIA,SN,URN,1994,0.0
UTOPIA,SN,URN,1995,0.0
UTOPIA,SN,URN,1996,0.0
UTOPIA,SN,URN,1997,0.0
UTOPIA,SN,URN,1998,0.0
UTOPIA,SN,URN,1999,0.0
UTOPIA,SN,URN,2000,0.0
UTOPIA,SN,URN,2001,0.0
UTOPIA,SN,URN,2002,0.0
UTOPIA,SN,URN,2003,0.0
UTOPIA,SN,URN,2004,0.0
UTOPIA,SN,URN,2005,0.0
UTOPIA,SN,URN,2006,0.0
UTOPIA,SN,URN,2007,0.0
UTOPIA,SN,URN,2008,0.0
UTOPIA,SN,URN,2009,0.0
UTOPIA,SN,URN,2010,0.0
UTOPIA,SN,ELC,1990,3.36134453781513
UTOPIA,SN,ELC,1991,3.92941176470588
UTOPIA,SN,ELC,1992,4.49747899159664
UTOPIA,SN,ELC,1993,5.06554621848739
UTOPIA,SN,ELC,1994,5.63361344537815
UTOPIA,SN,ELC,1995,6.20168067226891
UTOPIA,SN,ELC,1996,6.76974789915966
UTOPIA,SN,ELC,1997,7.33781512605042
UTOPIA,SN,ELC,1998,7.90588235294118
UTOPIA,SN,ELC,1999,8.47394957983193
UTOPIA,SN,ELC,2000,9.04201680672269
UTOPIA,SN,ELC,2001,9.89411764705882
UTOPIA,SN,ELC,2002,10.746218487395
UTOPIA,SN,ELC,2003,11.5983193277311
UTOPIA,SN,ELC,2004,12.4504201680672
UTOPIA,SN,ELC,2005,13.3025210084034
UTOPIA,SN,ELC,2006,14.1546218487395
UTOPIA,SN,ELC,2007,15.0067226890756
UTOPIA,SN,ELC,2008,15.8588235294118
UTOPIA,SN,ELC,2009,16.7109243697479
UTOPIA,SN,ELC,2010,17.563025210084
UTOPIA,WD,LTH,1990,0.0
UTOPIA,WD,LTH,1991,0.0
UTOPIA,WD,LTH,1992,0.0
UTOPIA,WD,LTH,1993,0.0
UTOPIA,WD,LTH,1994,0.0
UTOPIA,WD,LTH,1995,0.0
UTOPIA,WD,LTH,1996,0.0
UTOPIA,WD,LTH,1997,0.0
UTOPIA,WD,LTH,1998,0.0
UTOPIA,WD,LTH,1999,0.0
UTOPIA,WD,LTH,2000,0.0
UTOPIA,WD,LTH,2001,0.0
UTOPIA,WD,LTH,2002,0.0
UTOPIA,WD,LTH,2003,0.0
UTOPIA,WD,LTH,2004,0.0
UTOPIA,WD,LTH,2005,0.0
UTOPIA,WD,LTH,2006,0.0
UTOPIA,WD,LTH,2007,0.0
UTOPIA,WD,LTH,2008,0.0
UTOPIA,WD,LTH,2009,0.0
UTOPIA,WD,LTH,2010,0.0
UTOPIA,WD,HCO,1990,0.0
UTOPIA,WD,HCO,1991,0.0
UTOPIA,WD,HCO,1992,0.0
UTOPIA,WD,HCO,1993,0.0
UTOPIA,WD,HCO,1994,0.0
UTOPIA,WD,HCO,1995,0.0
UTOPIA,WD,HCO,1996,0.0
UTOPIA,WD,HCO,1997,0.0
UTOPIA,WD,HCO,1998,0.0
UTOPIA,WD,HCO,1999,0.0
UTOPIA,WD,HCO,2000,0.0
UTOPIA,WD,HCO,2001,0.0
UTOPIA,WD,HCO,2002,0.0
UTOPIA,WD,HCO,2003,0.0
UTOPIA,WD,HCO,2004,0.0
UTOPIA,WD,HCO,2005,0.0
UTOPIA,WD,HCO,2006,0.0
UTOPIA,WD,HCO,2007,0.0
UTOPIA,WD,HCO,2008,0.0
UTOPIA,WD,HCO,2009,0.0
UTOPIA,WD,HCO,2010,0.0
UTOPIA,WD,OIL,1990,0.0
UTOPIA,WD,OIL,1991,0.0
UTOPIA,WD,OIL,1992,0.0
UTOPIA,WD,OIL,1993,0.0
UTOPIA,WD,OIL,1994,0.0
UTOPIA,WD,OIL,1995,0.0
UTOPIA,WD,OIL,1996,0.0
UTOPIA,WD,OIL,1997,0.0
UTOPIA,WD,OIL,1998,0.0
UTOPIA,WD,OIL,1999,0.0
UTOPIA,WD,OIL,2000,0.0
UTOPIA,WD,OIL,2001,0.0
UTOPIA,WD,OIL,2002,0.0
UTOPIA,WD,OIL,2003,0.0
UTOPIA,WD,OIL,2004,0.0
UTOPIA,WD,OIL,2005,0.0
UTOPIA,WD,OIL,2006,0.0
UTOPIA,WD,OIL,2007,0.0
UTOPIA,WD,OIL,2008,0.0
UTOPIA,WD,OIL,2009,0.0
UTOPIA,WD,OIL,2010,0.0
UTOPIA,WD,CSV,1990,0.0
UTOPIA,WD,CSV,1991,0.0
UTOPIA,WD,CSV,1992,0.0
UTOPIA,WD,CSV,1993,0.0
UTOPIA,WD,CSV,1994,0.0
UTOPIA,WD,CSV,1995,0.0
UTOPIA,WD,CSV,1996,0.0
UTOPIA,WD,CSV,1997,0.0
UTOPIA,WD,CSV,1998,0.0
UTOPIA,WD,CSV,1999,0.0
UTOPIA,WD,CSV,2000,0.0
UTOPIA,WD,CSV,2001,0.0
UTOPIA,WD,CSV,2002,0.0
UTOPIA,WD,CSV,2003,0.0
UTOPIA,WD,CSV,2004,0.0
UTOPIA,WD,CSV,2005,0.0
UTOPIA,WD,CSV,2006,0.0
UTOPIA,WD,CSV,2007,0.0
UTOPIA,WD,CSV,2008,0.0
UTOPIA,WD,CSV,2009,0.0
UTOPIA,WD,CSV,2010,0.0
UTOPIA,WD,DSL,1990,0.0
UTOPIA,WD,DSL,1991,0.0
UTOPIA,WD,DSL,1992,-9.04733966770828e-17
UTOPIA,WD,DSL,1993,3.74259760276745e-16
UTOPIA,WD,DSL,1994,0.0
UTOPIA,WD,DSL,1995,0.0
UTOPIA,WD,DSL,1996,0.0
UTOPIA,WD,DSL,1997,0.0
UTOPIA,WD,DSL,1998,0.0
UTOPIA,WD,DSL,1999,0.0
UTOPIA,WD,DSL,2000,1.34864485524803e-15
UTOPIA,WD,DSL,2001,0.0
UTOPIA,WD,DSL,2002,0.0
UTOPIA,WD,DSL,2003,0.0
UTOPIA,WD,DSL,2004,0.0
UTOPIA,WD,DSL,2005,0.0
UTOPIA,WD,DSL,2006,0.0
UTOPIA,WD,DSL,2007,0.0
UTOPIA,WD,DSL,2008,0.0
UTOPIA,WD,DSL,2009,0.0
UTOPIA,WD,DSL,2010,0.0
UTOPIA,WD,HYD,1990,0.0
UTOPIA,WD,HYD,1991,0.0
UTOPIA,WD,HYD,1992,0.0
UTOPIA,WD,HYD,1993,0.0
UTOPIA,WD,HYD,1994,0.0
UTOPIA,WD,HYD,1995,0.0
UTOPIA,WD,HYD,1996,0.0
UTOPIA,WD,HYD,1997,0.0
UTOPIA,WD,HYD,1998,0.0
UTOPIA,WD,HYD,1999,0.0
UTOPIA,WD,HYD,2000,4.52610585
UTOPIA,WD,HYD,2001,5.3483085
UTOPIA,WD,HYD,2002,5.3483085
UTOPIA,WD,HYD,2003,5.3483085
UTOPIA,WD,HYD,2004,5.3483085
UTOPIA,WD,HYD,2005,5.3483085
UTOPIA,WD,HYD,2006,5.3483085
UTOPIA,WD,HYD,2007,5.3483085
UTOPIA,WD,HYD,2008,5.3483085
UTOPIA,WD,HYD,2009,5.3483085
UTOPIA,WD,HYD,2010,5.59044585
UTOPIA,WD,TX,1990,0.0
UTOPIA,WD,TX,1991,0.0
UTOPIA,WD,TX,1992,0.0
UTOPIA,WD,TX,1993,0.0
UTOPIA,WD,TX,1994,0.0
UTOPIA,WD,TX,1995,0.0
UTOPIA,WD,TX,1996,0.0
UTOPIA,WD,TX,1997,0.0
UTOPIA,WD,TX,1998,0.0
UTOPIA,WD,TX,1999,0.0
UTOPIA,WD,TX,2000,0.0
UTOPIA,WD,TX,2001,0.0
UTOPIA,WD,TX,2002,0.0
UTOPIA,WD,TX,2003,0.0
UTOPIA,WD,TX,2004,0.0
UTOPIA,WD,TX,2005,0.0
UTOPIA,WD,TX,2006,0.0
UTOPIA,WD,TX,2007,0.0
UTOPIA,WD,TX,2008,0.0
UTOPIA,WD,TX,2009,0.0
UTOPIA,WD,TX,2010,0.0
UTOPIA,WD,GSL,1990,0.0
UTOPIA,WD,GSL,1991,0.0
UTOPIA,WD,GSL,1992,0.0
UTOPIA,WD,GSL,1993,0.0
UTOPIA,WD,GSL,1994,0.0
UTOPIA,WD,GSL,1995,0.0
UTOPIA,WD,GSL,1996,0.0
UTOPIA,WD,GSL,1997,0.0
UTOPIA,WD,GSL,1998,0.0
UTOPIA,WD,GSL,1999,0.0
UTOPIA,WD,GSL,2000,5.77990652249154e-16
UTOPIA,WD,GSL,2001,0.0
UTOPIA,WD,GSL,2002,0.0
UTOPIA,WD,GSL,2003,0.0
UTOPIA,WD,GSL,2004,0.0
UTOPIA,WD,GSL,2005,0.0
UTOPIA,WD,GSL,2006,0.0
UTOPIA,WD,GSL,2007,0.0
UTOPIA,WD,GSL,2008,0.0
UTOPIA,WD,GSL,2009,0.0
UTOPIA,WD,GSL,2010,0.0
UTOPIA,WD,RL,1990,0.0
UTOPIA,WD,RL,1991,0.0
UTOPIA,WD,RL,1992,0.0
UTOPIA,WD,RL,1993,0.0
UTOPIA,WD,RL,1994,0.0
UTOPIA,WD,RL,1995,0.0
UTOPIA,WD,RL,1996,0.0
UTOPIA,WD,RL,1997,0.0
UTOPIA,WD,RL,1998,0.0
UTOPIA,WD,RL,1999,0.0
UTOPIA,WD,RL,2000,0.0
UTOPIA,WD,RL,2001,0.0
UTOPIA,WD,RL,2002,0.0
UTOPIA,WD,RL,2003,0.0
UTOPIA,WD,RL,2004,0.0
UTOPIA,WD,RL,2005,0.0
UTOPIA,WD,RL,2006,0.0
UTOPIA,WD,RL,2007,0.0
UTOPIA,WD,RL,2008,0.0
UTOPIA,WD,RL,2009,0.0
UTOPIA,WD,RL,2010,0.0
UTOPIA,WD,RH,1990,0.0
UTOPIA,WD,RH,1991,0.0
UTOPIA,WD,RH,1992,0.0
UTOPIA,WD,RH,1993,0.0
UTOPIA,WD,RH,1994,0.0
UTOPIA,WD,RH,1995,0.0
UTOPIA,WD,RH,1996,0.0
UTOPIA,WD,RH,1997,0.0
UTOPIA,WD,RH,1998,0.0
UTOPIA,WD,RH,1999,0.0
UTOPIA,WD,RH,2000,0.0
UTOPIA,WD,RH,2001,0.0
UTOPIA,WD,RH,2002,0.0
UTOPIA,WD,RH,2003,0.0
UTOPIA,WD,RH,2004,0.0
UTOPIA,WD,RH,2005,0.0
UTOPIA,WD,RH,2006,0.0
UTOPIA,WD,RH,2007,0.0
UTOPIA,WD,RH,2008,0.0
UTOPIA,WD,RH,2009,0.0
UTOPIA,WD,RH,2010,0.0
UTOPIA,WD,URN,1990,0.0
UTOPIA,WD,URN,1991,0.0
UTOPIA,WD,URN,1992,0.0
UTOPIA,WD,URN,1993,0.0
UTOPIA,WD,URN,1994,0.0
UTOPIA,WD,URN,1995,0.0
UTOPIA,WD,URN,1996,0.0
UTOPIA,WD,URN,1997,0.0
UTOPIA,WD,URN,1998,0.0
UTOPIA,WD,URN,1999,0.0
UTOPIA,WD,URN,2000,61.0715264520324
UTOPIA,WD,URN,2001,65.138583620234
UTOPIA,WD,URN,2002,69.4687456364356
UTOPIA,WD,URN,2003,73.7989076526373
UTOPIA,WD,URN,2004,78.1290696688389
UTOPIA,WD,URN,2005,82.4592316850404
UTOPIA,WD,URN,2006,86.7893937012421
UTOPIA,WD,URN,2007,91.1195557174438
UTOPIA,WD,URN,2008,95.4497177336454
UTOPIA,WD,URN,2009,99.7798797498469
UTOPIA,WD,URN,2010,104.032557814049
UTOPIA,WD,ELC,1990,12.8674363882994
UTOPIA,WD,ELC,1991,9.22088208820882
UTOPIA,WD,ELC,1992,10.0409240924092
UTOPIA,WD,ELC,1993,10.8609660966097
UTOPIA,WD,ELC,1994,11.6810081008101
UTOPIA,WD,ELC,1995,12.5010501050105
UTOPIA,WD,ELC,1996,13.3210921092109
UTOPIA,WD,ELC,1997,14.1411341134113
UTOPIA,WD,ELC,1998,14.9611761176118
UTOPIA,WD,ELC,1999,15.7812181218122
UTOPIA,WD,ELC,2000,78.6032403240324
UTOPIA,WD,ELC,2001,82.9334023402341
UTOPIA,WD,ELC,2002,87.2635643564356
UTOPIA,WD,ELC,2003,91.5937263726373
UTOPIA,WD,ELC,2004,95.9238883888389
UTOPIA,WD,ELC,2005,100.25405040504
UTOPIA,WD,ELC,2006,104.584212421242
UTOPIA,WD,ELC,2007,108.914374437444
UTOPIA,WD,ELC,2008,113.244536453645
UTOPIA,WD,ELC,2009,117.574698469847
UTOPIA,WD,ELC,2010,121.904860486049
UTOPIA,IN,LTH,1990,0.0
UTOPIA,IN,LTH,1991,0.0
UTOPIA,IN,LTH,1992,0.0
UTOPIA,IN,LTH,1993,0.0
UTOPIA,IN,LTH,1994,0.0
UTOPIA,IN,LTH,1995,0.0
UTOPIA,IN,LTH,1996,0.0
UTOPIA,IN,LTH,1997,0.0
UTOPIA,IN,LTH,1998,0.0
UTOPIA,IN,LTH,1999,0.0
UTOPIA,IN,LTH,2000,0.0
UTOPIA,IN,LTH,2001,0.0
UTOPIA,IN,LTH,2002,0.0
UTOPIA,IN,LTH,2003,0.0
UTOPIA,IN,LTH,2004,0.0
UTOPIA,IN,LTH,2005,0.0
UTOPIA,IN,LTH,2006,0.0
UTOPIA,IN,LTH,2007,0.0
UTOPIA,IN,LTH,2008,0.0
UTOPIA,IN,LTH,2009,0.0
UTOPIA,IN,LTH,2010,0.0
UTOPIA,IN,HCO,1990,0.0
UTOPIA,IN,HCO,1991,0.0
UTOPIA,IN,HCO,1992,0.0
UTOPIA,IN,HCO,1993,0.0
UTOPIA,IN,HCO,1994,0.0
UTOPIA,IN,HCO,1995,0.0
UTOPIA,IN,HCO,1996,0.0
UTOPIA,IN,HCO,1997,0.0
UTOPIA,IN,HCO,1998,0.0
UTOPIA,IN,HCO,1999,0.0
UTOPIA,IN,HCO,2000,0.0
UTOPIA,IN,HCO,2001,0.0
UTOPIA,IN,HCO,2002,0.0
UTOPIA,IN,HCO,2003,0.0
UTOPIA,IN,HCO,2004,0.0
UTOPIA,IN,HCO,2005,0.0
UTOPIA,IN,HCO,2006,0.0
UTOPIA,IN,HCO,2007,0.0
UTOPIA,IN,HCO,2008,0.0
UTOPIA,IN,HCO,2009,0.0
UTOPIA,IN,HCO,2010,0.0
UTOPIA,IN,OIL,1990,0.0
UTOPIA,IN,OIL,1991,0.0
UTOPIA,IN,OIL,1992,0.0
UTOPIA,IN,OIL,1993,0.0
UTOPIA,IN,OIL,1994,0.0
UTOPIA,IN,OIL,1995,0.0
UTOPIA,IN,OIL,1996,0.0
UTOPIA,IN,OIL,1997,0.0
UTOPIA,IN,OIL,1998,0.0
UTOPIA,IN,OIL,1999,0.0
UTOPIA,IN,OIL,2000,8.20963506668161e-17
UTOPIA,IN,OIL,2001,2.54563442696757e-14
UTOPIA,IN,OIL,2002,0.0
UTOPIA,IN,OIL,2003,0.0
UTOPIA,IN,OIL,2004,4.14203113218924e-15
UTOPIA,IN,OIL,2005,1.28129510624668e-14
UTOPIA,IN,OIL,2006,0.0
UTOPIA,IN,OIL,2007,0.0
UTOPIA,IN,OIL,2008,0.0
UTOPIA,IN,OIL,2009,0.0
UTOPIA,IN,OIL,2010,0.0
UTOPIA,IN,CSV,1990,0.0
UTOPIA,IN,CSV,1991,0.0
UTOPIA,IN,CSV,1992,0.0
UTOPIA,IN,CSV,1993,0.0
UTOPIA,IN,CSV,1994,0.0
UTOPIA,IN,CSV,1995,0.0
UTOPIA,IN,CSV,1996,0.0
UTOPIA,IN,CSV,1997,0.0
UTOPIA,IN,CSV,1998,0.0
UTOPIA,IN,CSV,1999,0.0
UTOPIA,IN,CSV,2000,0.0
UTOPIA,IN,CSV,2001,0.0
UTOPIA,IN,CSV,2002,0.0
UTOPIA,IN,CSV,2003,0.0
UTOPIA,IN,CSV,2004,0.0
UTOPIA,IN,CSV,2005,0.0
UTOPIA,IN,CSV,2006,0.0
UTOPIA,IN,CSV,2007,0.0
UTOPIA,IN,CSV,2008,0.0
UTOPIA,IN,CSV,2009,0.0
UTOPIA,IN,CSV,2010,0.0
UTOPIA,IN,DSL,1990,0.0
UTOPIA,IN,DSL,1991,0.0
UTOPIA,IN,DSL,1992,0.0
UTOPIA,IN,DSL,1993,0.0
UTOPIA,IN,DSL,1994,0.0
UTOPIA,IN,DSL,1995,0.0
UTOPIA,IN,DSL,1996,0.0
UTOPIA,IN,DSL,1997,0.0
UTOPIA,IN,DSL,1998,0.0
UTOPIA,IN,DSL,1999,0.0
UTOPIA,IN,DSL,2000,5.74674454667713e-17
UTOPIA,IN,DSL,2001,2.36761556760325e-14
UTOPIA,IN,DSL,2002,0.0
UTOPIA,IN,DSL,2003,0.0
UTOPIA,IN,DSL,2004,2.89942179253247e-15
UTOPIA,IN,DSL,2005,8.96906574372677e-15
UTOPIA,IN,DSL,2006,0.0
UTOPIA,IN,DSL,2007,0.0
UTOPIA,IN,DSL,2008,0.0
UTOPIA,IN,DSL,2009,0.0
UTOPIA,IN,DSL,2010,0.0
UTOPIA,IN,HYD,1990,0.0
UTOPIA,IN,HYD,1991,0.0
UTOPIA,IN,HYD,1992,0.0
UTOPIA,IN,HYD,1993,0.0
UTOPIA,IN,HYD,1994,0.0
UTOPIA,IN,HYD,1995,0.0
UTOPIA,IN,HYD,1996,0.0
UTOPIA,IN,HYD,1997,0.0
UTOPIA,IN,HYD,1998,0.0
UTOPIA,IN,HYD,1999,0.0
UTOPIA,IN,HYD,2000,4.52610585
UTOPIA,IN,HYD,2001,5.3483085
UTOPIA,IN,HYD,2002,5.3483085
UTOPIA,IN,HYD,2003,5.3483085
UTOPIA,IN,HYD,2004,5.3483085
UTOPIA,IN,HYD,2005,5.3483085
UTOPIA,IN,HYD,2006,5.3483085
UTOPIA,IN,HYD,2007,5.3483085
UTOPIA,IN,HYD,2008,5.3483085
UTOPIA,IN,HYD,2009,0.0
UTOPIA,IN,HYD,2010,5.59044585
UTOPIA,IN,TX,1990,0.0
UTOPIA,IN,TX,1991,0.0
UTOPIA,IN,TX,1992,0.0
UTOPIA,IN,TX,1993,0.0
UTOPIA,IN,TX,1994,0.0
UTOPIA,IN,TX,1995,0.0
UTOPIA,IN,TX,1996,0.0
UTOPIA,IN,TX,1997,0.0
UTOPIA,IN,TX,1998,0.0
UTOPIA,IN,TX,1999,0.0
UTOPIA,IN,TX,2000,0.0
UTOPIA,IN,TX,2001,0.0
UTOPIA,IN,TX,2002,0.0
UTOPIA,IN,TX,2003,0.0
UTOPIA,IN,TX,2004,0.0
UTOPIA,IN,TX,2005,0.0
UTOPIA,IN,TX,2006,0.0
UTOPIA,IN,TX,2007,0.0
UTOPIA,IN,TX,2008,0.0
UTOPIA,IN,TX,2009,0.0
UTOPIA,IN,TX,2010,0.0
UTOPIA,IN,GSL,1990,0.0
UTOPIA,IN,GSL,1991,0.0
UTOPIA,IN,GSL,1992,0.0
UTOPIA,IN,GSL,1993,0.0
UTOPIA,IN,GSL,1994,0.0
UTOPIA,IN,GSL,1995,0.0
UTOPIA,IN,GSL,1996,0.0
UTOPIA,IN,GSL,1997,0.0
UTOPIA,IN,GSL,1998,0.0
UTOPIA,IN,GSL,1999,0.0
UTOPIA,IN,GSL,2000,2.46289052000448e-17
UTOPIA,IN,GSL,2001,7.63690328090272e-15
UTOPIA,IN,GSL,2002,0.0
UTOPIA,IN,GSL,2003,0.0
UTOPIA,IN,GSL,2004,1.24260933965677e-15
UTOPIA,IN,GSL,2005,3.84388531874005e-15
UTOPIA,IN,GSL,2006,0.0
UTOPIA,IN,GSL,2007,0.0
UTOPIA,IN,GSL,2008,0.0
UTOPIA,IN,GSL,2009,0.0
UTOPIA,IN,GSL,2010,0.0
UTOPIA,IN,RL,1990,0.0
UTOPIA,IN,RL,1991,0.0
UTOPIA,IN,RL,1992,0.0
UTOPIA,IN,RL,1993,0.0
UTOPIA,IN,RL,1994,0.0
UTOPIA,IN,RL,1995,0.0
UTOPIA,IN,RL,1996,0.0
UTOPIA,IN,RL,1997,0.0
UTOPIA,IN,RL,1998,0.0
UTOPIA,IN,RL,1999,0.0
UTOPIA,IN,RL,2000,0.0
UTOPIA,IN,RL,2001,0.0
UTOPIA,IN,RL,2002,0.0
UTOPIA,IN,RL,2003,0.0
UTOPIA,IN,RL,2004,0.0
UTOPIA,IN,RL,2005,0.0
UTOPIA,IN,RL,2006,0.0
UTOPIA,IN,RL,2007,0.0
UTOPIA,IN,RL,2008,0.0
UTOPIA,IN,RL,2009,0.0
UTOPIA,IN,RL,2010,0.0
UTOPIA,IN,RH,1990,0.0
UTOPIA,IN,RH,1991,0.0
UTOPIA,IN,RH,1992,0.0
UTOPIA,IN,RH,1993,0.0
UTOPIA,IN,RH,1994,0.0
UTOPIA,IN,RH,1995,0.0
UTOPIA,IN,RH,1996,0.0
UTOPIA,IN,RH,1997,0.0
UTOPIA,IN,RH,1998,0.0
UTOPIA,IN,RH,1999,0.0
UTOPIA,IN,RH,2000,0.0
UTOPIA,IN,RH,2001,0.0
UTOPIA,IN,RH,2002,0.0
UTOPIA,IN,RH,2003,0.0
UTOPIA,IN,RH,2004,0.0
UTOPIA,IN,RH,2005,0.0
UTOPIA,IN,RH,2006,0.0
UTOPIA,IN,RH,2007,0.0
UTOPIA,IN,RH,2008,0.0
UTOPIA,IN,RH,2009,0.0
UTOPIA,IN,RH,2010,0.0
UTOPIA,IN,URN,1990,0.0
UTOPIA,IN,URN,1991,0.0
UTOPIA,IN,URN,1992,0.0
UTOPIA,IN,URN,1993,0.0
UTOPIA,IN,URN,1994,0.0
UTOPIA,IN,URN,1995,0.0
UTOPIA,IN,URN,1996,0.0
UTOPIA,IN,URN,1997,0.0
UTOPIA,IN,URN,1998,0.0
UTOPIA,IN,URN,1999,0.0
UTOPIA,IN,URN,2000,18.7371936910252
UTOPIA,IN,URN,2001,20.6875342211765
UTOPIA,IN,URN,2002,22.9009795993277
UTOPIA,IN,URN,2003,25.114424977479
UTOPIA,IN,URN,2004,78.1290696688389
UTOPIA,IN,URN,2005,82.4592316850405
UTOPIA,IN,URN,2006,31.7547611119328
UTOPIA,IN,URN,2007,33.968206490084
UTOPIA,IN,URN,2008,95.4497177336454
UTOPIA,IN,URN,2009,78.5280946703866
UTOPIA,IN,URN,2010,104.032557814049
UTOPIA,IN,ELC,1990,3.36134453781513
UTOPIA,IN,ELC,1991,3.92941176470588
UTOPIA,IN,ELC,1992,4.49747899159664
UTOPIA,IN,ELC,1993,5.06554621848739
UTOPIA,IN,ELC,1994,5.63361344537815
UTOPIA,IN,ELC,1995,6.20168067226891
UTOPIA,IN,ELC,1996,6.76974789915966
UTOPIA,IN,ELC,1997,7.33781512605042
UTOPIA,IN,ELC,1998,7.90588235294118
UTOPIA,IN,ELC,1999,8.47394957983193
UTOPIA,IN,ELC,2000,36.2689075630252
UTOPIA,IN,ELC,2001,38.4823529411765
UTOPIA,IN,ELC,2002,40.6957983193277
UTOPIA,IN,ELC,2003,42.909243697479
UTOPIA,IN,ELC,2004,95.9238883888389
UTOPIA,IN,ELC,2005,100.25405040504
UTOPIA,IN,ELC,2006,49.5495798319328
UTOPIA,IN,ELC,2007,51.763025210084
UTOPIA,IN,ELC,2008,113.244536453645
UTOPIA,IN,ELC,2009,78.5280946703866
UTOPIA,IN,ELC,2010,121.904860486049
