REGION,REGION,TIMESLICE,FUEL,YEAR,Trade
UTOPIA,UTOPIA,ID,LTH,1990,0.0
UTOPIA,UTOPIA,ID,LTH,1991,0.0
UTOPIA,UTOPIA,ID,LTH,1992,0.0
UTOPIA,UTOPIA,ID,LTH,1993,0.0
UTOPIA,UTOPIA,ID,LTH,1994,0.0
UTOPIA,UTOPIA,ID,LTH,1995,0.0
UTOPIA,UTOPIA,ID,LTH,1996,0.0
UTOPIA,UTOPIA,ID,LTH,1997,0.0
UTOPIA,UTOPIA,ID,LTH,1998,0.0
UTOPIA,UTOPIA,ID,LTH,1999,0.0
UTOPIA,UTOPIA,ID,LTH,2000,0.0
UTOPIA,UTOPIA,ID,LTH,2001,0.0
UTOPIA,UTOPIA,ID,LTH,2002,0.0
UTOPIA,UTOPIA,ID,LTH,2003,0.0
UTOPIA,UTOPIA,ID,LTH,2004,0.0
UTOPIA,UTOPIA,ID,LTH,2005,0.0
UTOPIA,UTOPIA,ID,LTH,2006,0.0
UTOPIA,UTOPIA,ID,LTH,2007,0.0
UTOPIA,UTOPIA,ID,LTH,2008,0.0
UTOPIA,UTOPIA,ID,LTH,2009,0.0
UTOPIA,UTOPIA,ID,LTH,2010,0.0
UTOPIA,UTOPIA,ID,HCO,1990,0.0
UTOPIA,UTOPIA,ID,HCO,1991,0.0
UTOPIA,UTOPIA,ID,HCO,1992,0.0
UTOPIA,UTOPIA,ID,HCO,1993,0.0
UTOPIA,UTOPIA,ID,HCO,1994,0.0
UTOPIA,UTOPIA,ID,HCO,1995,0.0
UTOPIA,UTOPIA,ID,HCO,1996,0.0
UTOPIA,UTOPIA,ID,HCO,1997,0.0
UTOPIA,UTOPIA,ID,HCO,1998,0.0
UTOPIA,UTOPIA,ID,HCO,1999,0.0
UTOPIA,UTOPIA,ID,HCO,2000,0.0
UTOPIA,UTOPIA,ID,HCO,2001,0.0
UTOPIA,UTOPIA,ID,HCO,2002,0.0
UTOPIA,UTOPIA,ID,HCO,2003,0.0
UTOPIA,UTOPIA,ID,HCO,2004,0.0
UTOPIA,UTOPIA,ID,HCO,2005,0.0
UTOPIA,UTOPIA,ID,HCO,2006,0.0
UTOPIA,UTOPIA,ID,HCO,2007,0.0
UTOPIA,UTOPIA,ID,HCO,2008,0.0
UTOPIA,UTOPIA,ID,HCO,2009,0.0
UTOPIA,UTOPIA,ID,HCO,2010,0.0
UTOPIA,UTOPIA,ID,OIL,1990,0.0
UTOPIA,UTOPIA,ID,OIL,1991,0.0
UTOPIA,UTOPIA,ID,OIL,1992,0.0
UTOPIA,UTOPIA,ID,OIL,1993,0.0
UTOPIA,UTOPIA,ID,OIL,1994,0.0
UTOPIA,UTOPIA,ID,OIL,1995,0.0
UTOPIA,UTOPIA,ID,OIL,1996,0.0
UTOPIA,UTOPIA,ID,OIL,1997,0.0
UTOPIA,UTOPIA,ID,OIL,1998,0.0
UTOPIA,UTOPIA,ID,OIL,1999,0.0
UTOPIA,UTOPIA,ID,OIL,2000,0.0
UTOPIA,UTOPIA,ID,OIL,2001,0.0
UTOPIA,UTOPIA,ID,OIL,2002,0.0
UTOPIA,UTOPIA,ID,OIL,2003,0.0
UTOPIA,UTOPIA,ID,OIL,2004,0.0
UTOPIA,UTOPIA,ID,OIL,2005,0.0
UTOPIA,UTOPIA,ID,OIL,2006,0.0
UTOPIA,UTOPIA,ID,OIL,2007,0.0
UTOPIA,UTOPIA,ID,OIL,2008,0.0
UTOPIA,UTOPIA,ID,OIL,2009,0.0
UTOPIA,UTOPIA,ID,OIL,2010,0.0
UTOPIA,UTOPIA,ID,CSV,1990,0.0
UTOPIA,UTOPIA,ID,CSV,1991,0.0
UTOPIA,UTOPIA,ID,CSV,1992,0.0
UTOPIA,UTOPIA,ID,CSV,1993,0.0
UTOPIA,UTOPIA,ID,CSV,1994,0.0
UTOPIA,UTOPIA,ID,CSV,1995,0.0
UTOPIA,UTOPIA,ID,CSV,1996,0.0
UTOPIA,UTOPIA,ID,CSV,1997,0.0
UTOPIA,UTOPIA,ID,CSV,1998,0.0
UTOPIA,UTOPIA,ID,CSV,1999,0.0
UTOPIA,UTOPIA,ID,CSV,2000,0.0
UTOPIA,UTOPIA,ID,CSV,2001,0.0
UTOPIA,UTOPIA,ID,CSV,2002,0.0
UTOPIA,UTOPIA,ID,CSV,2003,0.0
UTOPIA,UTOPIA,ID,CSV,2004,0.0
UTOPIA,UTOPIA,ID,CSV,2005,0.0
UTOPIA,UTOPIA,ID,CSV,2006,0.0
UTOPIA,UTOPIA,ID,CSV,2007,0.0
UTOPIA,UTOPIA,ID,CSV,2008,0.0
UTOPIA,UTOPIA,ID,CSV,2009,0.0
UTOPIA,UTOPIA,ID,CSV,2010,0.0
UTOPIA,UTOPIA,ID,DSL,1990,0.0
UTOPIA,UTOPIA,ID,DSL,1991,0.0
UTOPIA,UTOPIA,ID,DSL,1992,0.0
UTOPIA,UTOPIA,ID,DSL,1993,0.0
UTOPIA,UTOPIA,ID,DSL,1994,0.0
UTOPIA,UTOPIA,ID,DSL,1995,0.0
UTOPIA,UTOPIA,ID,DSL,1996,0.0
UTOPIA,UTOPIA,ID,DSL,1997,0.0
UTOPIA,UTOPIA,ID,DSL,1998,0.0
UTOPIA,UTOPIA,ID,DSL,1999,0.0
UTOPIA,UTOPIA,ID,DSL,2000,0.0
UTOPIA,UTOPIA,ID,DSL,2001,0.0
UTOPIA,UTOPIA,ID,DSL,2002,0.0
UTOPIA,UTOPIA,ID,DSL,2003,0.0
UTOPIA,UTOPIA,ID,DSL,2004,0.0
UTOPIA,UTOPIA,ID,DSL,2005,0.0
UTOPIA,UTOPIA,ID,DSL,2006,0.0
UTOPIA,UTOPIA,ID,DSL,2007,0.0
UTOPIA,UTOPIA,ID,DSL,2008,0.0
UTOPIA,UTOPIA,ID,DSL,2009,0.0
UTOPIA,UTOPIA,ID,DSL,2010,0.0
UTOPIA,UTOPIA,ID,HYD,1990,0.0
UTOPIA,UTOPIA,ID,HYD,1991,0.0
UTOPIA,UTOPIA,ID,HYD,1992,0.0
UTOPIA,UTOPIA,ID,HYD,1993,0.0
UTOPIA,UTOPIA,ID,HYD,1994,0.0
UTOPIA,UTOPIA,ID,HYD,1995,0.0
UTOPIA,UTOPIA,ID,HYD,1996,0.0
UTOPIA,UTOPIA,ID,HYD,1997,0.0
UTOPIA,UTOPIA,ID,HYD,1998,0.0
UTOPIA,UTOPIA,ID,HYD,1999,0.0
UTOPIA,UTOPIA,ID,HYD,2000,0.0
UTOPIA,UTOPIA,ID,HYD,2001,0.0
UTOPIA,UTOPIA,ID,HYD,2002,0.0
UTOPIA,UTOPIA,ID,HYD,2003,0.0
UTOPIA,UTOPIA,ID,HYD,2004,0.0
UTOPIA,UTOPIA,ID,HYD,2005,0.0
UTOPIA,UTOPIA,ID,HYD,2006,0.0
UTOPIA,UTOPIA,ID,HYD,2007,0.0
UTOPIA,UTOPIA,ID,HYD,2008,0.0
UTOPIA,UTOPIA,ID,HYD,2009,0.0
UTOPIA,UTOPIA,ID,HYD,2010,0.0
UTOPIA,UTOPIA,ID,TX,1990,0.0
UTOPIA,UTOPIA,ID,TX,1991,0.0
UTOPIA,UTOPIA,ID,TX,1992,0.0
UTOPIA,UTOPIA,ID,TX,1993,0.0
UTOPIA,UTOPIA,ID,TX,1994,0.0
UTOPIA,UTOPIA,ID,TX,1995,0.0
UTOPIA,UTOPIA,ID,TX,1996,0.0
UTOPIA,UTOPIA,ID,TX,1997,0.0
UTOPIA,UTOPIA,ID,TX,1998,0.0
UTOPIA,UTOPIA,ID,TX,1999,0.0
UTOPIA,UTOPIA,ID,TX,2000,0.0
UTOPIA,UTOPIA,ID,TX,2001,0.0
UTOPIA,UTOPIA,ID,TX,2002,0.0
UTOPIA,UTOPIA,ID,TX,2003,0.0
UTOPIA,UTOPIA,ID,TX,2004,0.0
UTOPIA,UTOPIA,ID,TX,2005,0.0
UTOPIA,UTOPIA,ID,TX,2006,0.0
UTOPIA,UTOPIA,ID,TX,2007,0.0
UTOPIA,UTOPIA,ID,TX,2008,0.0
UTOPIA,UTOPIA,ID,TX,2009,0.0
UTOPIA,UTOPIA,ID,TX,2010,0.0
UTOPIA,UTOPIA,ID,GSL,1990,0.0
UTOPIA,UTOPIA,ID,GSL,1991,0.0
UTOPIA,UTOPIA,ID,GSL,1992,0.0
UTOPIA,UTOPIA,ID,GSL,1993,0.0
UTOPIA,UTOPIA,ID,GSL,1994,0.0
UTOPIA,UTOPIA,ID,GSL,1995,0.0
UTOPIA,UTOPIA,ID,GSL,1996,0.0
UTOPIA,UTOPIA,ID,GSL,1997,0.0
UTOPIA,UTOPIA,ID,GSL,1998,0.0
UTOPIA,UTOPIA,ID,GSL,1999,0.0
UTOPIA,UTOPIA,ID,GSL,2000,0.0
UTOPIA,UTOPIA,ID,GSL,2001,0.0
UTOPIA,UTOPIA,ID,GSL,2002,0.0
UTOPIA,UTOPIA,ID,GSL,2003,0.0
UTOPIA,UTOPIA,ID,GSL,2004,0.0
UTOPIA,UTOPIA,ID,GSL,2005,0.0
UTOPIA,UTOPIA,ID,GSL,2006,0.0
UTOPIA,UTOPIA,ID,GSL,2007,0.0
UTOPIA,UTOPIA,ID,GSL,2008,0.0
UTOPIA,UTOPIA,ID,GSL,2009,0.0
UTOPIA,UTOPIA,ID,GSL,2010,0.0
UTOPIA,UTOPIA,ID,RL,1990,0.0
UTOPIA,UTOPIA,ID,RL,1991,0.0
UTOPIA,UTOPIA,ID,RL,1992,0.0
UTOPIA,UTOPIA,ID,RL,1993,0.0
UTOPIA,UTOPIA,ID,RL,1994,0.0
UTOPIA,UTOPIA,ID,RL,1995,0.0
UTOPIA,UTOPIA,ID,RL,1996,0.0
UTOPIA,UTOPIA,ID,RL,1997,0.0
UTOPIA,UTOPIA,ID,RL,1998,0.0
UTOPIA,UTOPIA,ID,RL,1999,0.0
UTOPIA,UTOPIA,ID,RL,2000,0.0
UTOPIA,UTOPIA,ID,RL,2001,0.0
UTOPIA,UTOPIA,ID,RL,2002,0.0
UTOPIA,UTOPIA,ID,RL,2003,0.0
UTOPIA,UTOPIA,ID,RL,2004,0.0
UTOPIA,UTOPIA,ID,RL,2005,0.0
UTOPIA,UTOPIA,ID,RL,2006,0.0
UTOPIA,UTOPIA,ID,RL,2007,0.0
UTOPIA,UTOPIA,ID,RL,2008,0.0
UTOPIA,UTOPIA,ID,RL,2009,0.0
UTOPIA,UTOPIA,ID,RL,2010,0.0
UTOPIA,UTOPIA,ID,RH,1990,0.0
UTOPIA,UTOPIA,ID,RH,1991,0.0
UTOPIA,UTOPIA,ID,RH,1992,0.0
UTOPIA,UTOPIA,ID,RH,1993,0.0
UTOPIA,UTOPIA,ID,RH,1994,0.0
UTOPIA,UTOPIA,ID,RH,1995,0.0
UTOPIA,UTOPIA,ID,RH,1996,0.0
UTOPIA,UTOPIA,ID,RH,1997,0.0
UTOPIA,UTOPIA,ID,RH,1998,0.0
UTOPIA,UTOPIA,ID,RH,1999,0.0
UTOPIA,UTOPIA,ID,RH,2000,0.0
UTOPIA,UTOPIA,ID,RH,2001,0.0
UTOPIA,UTOPIA,ID,RH,2002,0.0
UTOPIA,UTOPIA,ID,RH,2003,0.0
UTOPIA,UTOPIA,ID,RH,2004,0.0
UTOPIA,UTOPIA,ID,RH,2005,0.0
UTOPIA,UTOPIA,ID,RH,2006,0.0
UTOPIA,UTOPIA,ID,RH,2007,0.0
UTOPIA,UTOPIA,ID,RH,2008,0.0
UTOPIA,UTOPIA,ID,RH,2009,0.0
UTOPIA,UTOPIA,ID,RH,2010,0.0
UTOPIA,UTOPIA,ID,URN,1990,0.0
UTOPIA,UTOPIA,ID,URN,1991,0.0
UTOPIA,UTOPIA,ID,URN,1992,0.0
UTOPIA,UTOPIA,ID,URN,1993,0.0
UTOPIA,UTOPIA,ID,URN,1994,0.0
UTOPIA,UTOPIA,ID,URN,1995,0.0
UTOPIA,UTOPIA,ID,URN,1996,0.0
UTOPIA,UTOPIA,ID,URN,1997,0.0
UTOPIA,UTOPIA,ID,URN,1998,0.0
UTOPIA,UTOPIA,ID,URN,1999,0.0
UTOPIA,UTOPIA,ID,URN,2000,0.0
UTOPIA,UTOPIA,ID,URN,2001,0.0
UTOPIA,UTOPIA,ID,URN,2002,0.0
UTOPIA,UTOPIA,ID,URN,2003,0.0
UTOPIA,UTOPIA,ID,URN,2004,0.0
UTOPIA,UTOPIA,ID,URN,2005,0.0
UTOPIA,UTOPIA,ID,URN,2006,0.0
UTOPIA,UTOPIA,ID,URN,2007,0.0
UTOPIA,UTOPIA,ID,URN,2008,0.0
UTOPIA,UTOPIA,ID,URN,2009,0.0
UTOPIA,UTOPIA,ID,URN,2010,0.0
UTOPIA,UTOPIA,ID,ELC,1990,0.0
UTOPIA,UTOPIA,ID,ELC,1991,0.0
UTOPIA,UTOPIA,ID,ELC,1992,0.0
UTOPIA,UTOPIA,ID,ELC,1993,0.0
UTOPIA,UTOPIA,ID,ELC,1994,0.0
UTOPIA,UTOPIA,ID,ELC,1995,0.0
UTOPIA,UTOPIA,ID,ELC,1996,0.0
UTOPIA,UTOPIA,ID,ELC,1997,0.0
UTOPIA,UTOPIA,ID,ELC,1998,0.0
UTOPIA,UTOPIA,ID,ELC,1999,0.0
UTOPIA,UTOPIA,ID,ELC,2000,0.0
UTOPIA,UTOPIA,ID,ELC,2001,0.0
UTOPIA,UTOPIA,ID,ELC,2002,0.0
UTOPIA,UTOPIA,ID,ELC,2003,0.0
UTOPIA,UTOPIA,ID,ELC,2004,0.0
UTOPIA,UTOPIA,ID,ELC,2005,0.0
UTOPIA,UTOPIA,ID,ELC,2006,0.0
UTOPIA,UTOPIA,ID,ELC,2007,0.0
UTOPIA,UTOPIA,ID,ELC,2008,0.0
UTOPIA,UTOPIA,ID,ELC,2009,0.0
UTOPIA,UTOPIA,ID,ELC,2010,0.0
UTOPIA,UTOPIA,SD,LTH,1990,0.0
UTOPIA,UTOPIA,SD,LTH,1991,0.0
UTOPIA,UTOPIA,SD,LTH,1992,0.0
UTOPIA,UTOPIA,SD,LTH,1993,0.0
UTOPIA,UTOPIA,SD,LTH,1994,0.0
UTOPIA,UTOPIA,SD,LTH,1995,0.0
UTOPIA,UTOPIA,SD,LTH,1996,0.0
UTOPIA,UTOPIA,SD,LTH,1997,0.0
UTOPIA,UTOPIA,SD,LTH,1998,0.0
UTOPIA,UTOPIA,SD,LTH,1999,0.0
UTOPIA,UTOPIA,SD,LTH,2000,0.0
UTOPIA,UTOPIA,SD,LTH,2001,0.0
UTOPIA,UTOPIA,SD,LTH,2002,0.0
UTOPIA,UTOPIA,SD,LTH,2003,0.0
UTOPIA,UTOPIA,SD,LTH,2004,0.0
UTOPIA,UTOPIA,SD,LTH,2005,0.0
UTOPIA,UTOPIA,SD,LTH,2006,0.0
UTOPIA,UTOPIA,SD,LTH,2007,0.0
UTOPIA,UTOPIA,SD,LTH,2008,0.0
UTOPIA,UTOPIA,SD,LTH,2009,0.0
UTOPIA,UTOPIA,SD,LTH,2010,0.0
UTOPIA,UTOPIA,SD,HCO,1990,0.0
UTOPIA,UTOPIA,SD,HCO,1991,0.0
UTOPIA,UTOPIA,SD,HCO,1992,0.0
UTOPIA,UTOPIA,SD,HCO,1993,0.0
UTOPIA,UTOPIA,SD,HCO,1994,0.0
UTOPIA,UTOPIA,SD,HCO,1995,0.0
UTOPIA,UTOPIA,SD,HCO,1996,0.0
UTOPIA,UTOPIA,SD,HCO,1997,0.0
UTOPIA,UTOPIA,SD,HCO,1998,0.0
UTOPIA,UTOPIA,SD,HCO,1999,0.0
UTOPIA,UTOPIA,SD,HCO,2000,0.0
UTOPIA,UTOPIA,SD,HCO,2001,0.0
UTOPIA,UTOPIA,SD,HCO,2002,0.0
UTOPIA,UTOPIA,SD,HCO,2003,0.0
UTOPIA,UTOPIA,SD,HCO,2004,0.0
UTOPIA,UTOPIA,SD,HCO,2005,0.0
UTOPIA,UTOPIA,SD,HCO,2006,0.0
UTOPIA,UTOPIA,SD,HCO,2007,0.0
UTOPIA,UTOPIA,SD,HCO,2008,0.0
UTOPIA,UTOPIA,SD,HCO,2009,0.0
UTOPIA,UTOPIA,SD,HCO,2010,0.0
UTOPIA,UTOPIA,SD,OIL,1990,0.0
UTOPIA,UTOPIA,SD,OIL,1991,0.0
UTOPIA,UTOPIA,SD,OIL,1992,0.0
UTOPIA,UTOPIA,SD,OIL,1993,0.0
UTOPIA,UTOPIA,SD,OIL,1994,0.0
UTOPIA,UTOPIA,SD,OIL,1995,0.0
UTOPIA,UTOPIA,SD,OIL,1996,0.0
UTOPIA,UTOPIA,SD,OIL,1997,0.0
UTOPIA,UTOPIA,SD,OIL,1998,0.0
UTOPIA,UTOPIA,SD,OIL,1999,0.0
UTOPIA,UTOPIA,SD,OIL,2000,0.0
UTOPIA,UTOPIA,SD,OIL,2001,0.0
UTOPIA,UTOPIA,SD,OIL,2002,0.0
UTOPIA,UTOPIA,SD,OIL,2003,0.0
UTOPIA,UTOPIA,SD,OIL,2004,0.0
UTOPIA,UTOPIA,SD,OIL,2005,0.0
UTOPIA,UTOPIA,SD,OIL,2006,0.0
UTOPIA,UTOPIA,SD,OIL,2007,0.0
UTOPIA,UTOPIA,SD,OIL,2008,0.0
UTOPIA,UTOPIA,SD,OIL,2009,0.0
UTOPIA,UTOPIA,SD,OIL,2010,0.0
UTOPIA,UTOPIA,SD,CSV,1990,0.0
UTOPIA,UTOPIA,SD,CSV,1991,0.0
UTOPIA,UTOPIA,SD,CSV,1992,0.0
UTOPIA,UTOPIA,SD,CSV,1993,0.0
UTOPIA,UTOPIA,SD,CSV,1994,0.0
UTOPIA,UTOPIA,SD,CSV,1995,0.0
UTOPIA,UTOPIA,SD,CSV,1996,0.0
UTOPIA,UTOPIA,SD,CSV,1997,0.0
UTOPIA,UTOPIA,SD,CSV,1998,0.0
UTOPIA,UTOPIA,SD,CSV,1999,0.0
UTOPIA,UTOPIA,SD,CSV,2000,0.0
UTOPIA,UTOPIA,SD,CSV,2001,0.0
UTOPIA,UTOPIA,SD,CSV,2002,0.0
UTOPIA,UTOPIA,SD,CSV,2003,0.0
UTOPIA,UTOPIA,SD,CSV,2004,0.0
UTOPIA,UTOPIA,SD,CSV,2005,0.0
UTOPIA,UTOPIA,SD,CSV,2006,0.0
UTOPIA,UTOPIA,SD,CSV,2007,0.0
UTOPIA,UTOPIA,SD,CSV,2008,0.0
UTOPIA,UTOPIA,SD,CSV,2009,0.0
UTOPIA,UTOPIA,SD,CSV,2010,0.0
UTOPIA,UTOPIA,SD,DSL,1990,0.0
UTOPIA,UTOPIA,SD,DSL,1991,0.0
UTOPIA,UTOPIA,SD,DSL,1992,0.0
UTOPIA,UTOPIA,SD,DSL,1993,0.0
UTOPIA,UTOPIA,SD,DSL,1994,0.0
UTOPIA,UTOPIA,SD,DSL,1995,0.0
UTOPIA,UTOPIA,SD,DSL,1996,0.0
UTOPIA,UTOPIA,SD,DSL,1997,0.0
UTOPIA,UTOPIA,SD,DSL,1998,0.0
UTOPIA,UTOPIA,SD,DSL,1999,0.0
UTOPIA,UTOPIA,SD,DSL,2000,0.0
UTOPIA,UTOPIA,SD,DSL,2001,0.0
UTOPIA,UTOPIA,SD,DSL,2002,0.0
UTOPIA,UTOPIA,SD,DSL,2003,0.0
UTOPIA,UTOPIA,SD,DSL,2004,0.0
UTOPIA,UTOPIA,SD,DSL,2005,0.0
UTOPIA,UTOPIA,SD,DSL,2006,0.0
UTOPIA,UTOPIA,SD,DSL,2007,0.0
UTOPIA,UTOPIA,SD,DSL,2008,0.0
UTOPIA,UTOPIA,SD,DSL,2009,0.0
UTOPIA,UTOPIA,SD,DSL,2010,0.0
UTOPIA,UTOPIA,SD,HYD,1990,0.0
UTOPIA,UTOPIA,SD,HYD,1991,0.0
UTOPIA,UTOPIA,SD,HYD,1992,0.0
UTOPIA,UTOPIA,SD,HYD,1993,0.0
UTOPIA,UTOPIA,SD,HYD,1994,0.0
UTOPIA,UTOPIA,SD,HYD,1995,0.0
UTOPIA,UTOPIA,SD,HYD,1996,0.0
UTOPIA,UTOPIA,SD,HYD,1997,0.0
UTOPIA,UTOPIA,SD,HYD,1998,0.0
UTOPIA,UTOPIA,SD,HYD,1999,0.0
UTOPIA,UTOPIA,SD,HYD,2000,0.0
UTOPIA,UTOPIA,SD,HYD,2001,0.0
UTOPIA,UTOPIA,SD,HYD,2002,0.0
UTOPIA,UTOPIA,SD,HYD,2003,0.0
UTOPIA,UTOPIA,SD,HYD,2004,0.0
UTOPIA,UTOPIA,SD,HYD,2005,0.0
UTOPIA,UTOPIA,SD,HYD,2006,0.0
UTOPIA,UTOPIA,SD,HYD,2007,0.0
UTOPIA,UTOPIA,SD,HYD,2008,0.0
UTOPIA,UTOPIA,SD,HYD,2009,0.0
UTOPIA,UTOPIA,SD,HYD,2010,0.0
UTOPIA,UTOPIA,SD,TX,1990,0.0
UTOPIA,UTOPIA,SD,TX,1991,0.0
UTOPIA,UTOPIA,SD,TX,1992,0.0
UTOPIA,UTOPIA,SD,TX,1993,0.0
UTOPIA,UTOPIA,SD,TX,1994,0.0
UTOPIA,UTOPIA,SD,TX,1995,0.0
UTOPIA,UTOPIA,SD,TX,1996,0.0
UTOPIA,UTOPIA,SD,TX,1997,0.0
UTOPIA,UTOPIA,SD,TX,1998,0.0
UTOPIA,UTOPIA,SD,TX,1999,0.0
UTOPIA,UTOPIA,SD,TX,2000,0.0
UTOPIA,UTOPIA,SD,TX,2001,0.0
UTOPIA,UTOPIA,SD,TX,2002,0.0
UTOPIA,UTOPIA,SD,TX,2003,0.0
UTOPIA,UTOPIA,SD,TX,2004,0.0
UTOPIA,UTOPIA,SD,TX,2005,0.0
UTOPIA,UTOPIA,SD,TX,2006,0.0
UTOPIA,UTOPIA,SD,TX,2007,0.0
UTOPIA,UTOPIA,SD,TX,2008,0.0
UTOPIA,UTOPIA,SD,TX,2009,0.0
UTOPIA,UTOPIA,SD,TX,2010,0.0
UTOPIA,UTOPIA,SD,GSL,1990,0.0
UTOPIA,UTOPIA,SD,GSL,1991,0.0
UTOPIA,UTOPIA,SD,GSL,1992,0.0
UTOPIA,UTOPIA,SD,GSL,1993,0.0
UTOPIA,UTOPIA,SD,GSL,1994,0.0
UTOPIA,UTOPIA,SD,GSL,1995,0.0
UTOPIA,UTOPIA,SD,GSL,1996,0.0
UTOPIA,UTOPIA,SD,GSL,1997,0.0
UTOPIA,UTOPIA,SD,GSL,1998,0.0
UTOPIA,UTOPIA,SD,GSL,1999,0.0
UTOPIA,UTOPIA,SD,GSL,2000,0.0
UTOPIA,UTOPIA,SD,GSL,2001,0.0
UTOPIA,UTOPIA,SD,GSL,2002,0.0
UTOPIA,UTOPIA,SD,GSL,2003,0.0
UTOPIA,UTOPIA,SD,GSL,2004,0.0
UTOPIA,UTOPIA,SD,GSL,2005,0.0
UTOPIA,UTOPIA,SD,GSL,2006,0.0
UTOPIA,UTOPIA,SD,GSL,2007,0.0
UTOPIA,UTOPIA,SD,GSL,2008,0.0
UTOPIA,UTOPIA,SD,GSL,2009,0.0
UTOPIA,UTOPIA,SD,GSL,2010,0.0
UTOPIA,UTOPIA,SD,RL,1990,0.0
UTOPIA,UTOPIA,SD,RL,1991,0.0
UTOPIA,UTOPIA,SD,RL,1992,0.0
UTOPIA,UTOPIA,SD,RL,1993,0.0
UTOPIA,UTOPIA,SD,RL,1994,0.0
UTOPIA,UTOPIA,SD,RL,1995,0.0
UTOPIA,UTOPIA,SD,RL,1996,0.0
UTOPIA,UTOPIA,SD,RL,1997,0.0
UTOPIA,UTOPIA,SD,RL,1998,0.0
UTOPIA,UTOPIA,SD,RL,1999,0.0
UTOPIA,UTOPIA,SD,RL,2000,0.0
UTOPIA,UTOPIA,SD,RL,2001,0.0
UTOPIA,UTOPIA,SD,RL,2002,0.0
UTOPIA,UTOPIA,SD,RL,2003,0.0
UTOPIA,UTOPIA,SD,RL,2004,0.0
UTOPIA,UTOPIA,SD,RL,2005,0.0
UTOPIA,UTOPIA,SD,RL,2006,0.0
UTOPIA,UTOPIA,SD,RL,2007,0.0
UTOPIA,UTOPIA,SD,RL,2008,0.0
UTOPIA,UTOPIA,SD,RL,2009,0.0
UTOPIA,UTOPIA,SD,RL,2010,0.0
UTOPIA,UTOPIA,SD,RH,1990,0.0
UTOPIA,UTOPIA,SD,RH,1991,0.0
UTOPIA,UTOPIA,SD,RH,1992,0.0
UTOPIA,UTOPIA,SD,RH,1993,0.0
UTOPIA,UTOPIA,SD,RH,1994,0.0
UTOPIA,UTOPIA,SD,RH,1995,0.0
UTOPIA,UTOPIA,SD,RH,1996,0.0
UTOPIA,UTOPIA,SD,RH,1997,0.0
UTOPIA,UTOPIA,SD,RH,1998,0.0
UTOPIA,UTOPIA,SD,RH,1999,0.0
UTOPIA,UTOPIA,SD,RH,2000,0.0
UTOPIA,UTOPIA,SD,RH,2001,0.0
UTOPIA,UTOPIA,SD,RH,2002,0.0
UTOPIA,UTOPIA,SD,RH,2003,0.0
UTOPIA,UTOPIA,SD,RH,2004,0.0
UTOPIA,UTOPIA,SD,RH,2005,0.0
UTOPIA,UTOPIA,SD,RH,2006,0.0
UTOPIA,UTOPIA,SD,RH,2007,0.0
UTOPIA,UTOPIA,SD,RH,2008,0.0
UTOPIA,UTOPIA,SD,RH,2009,0.0
UTOPIA,UTOPIA,SD,RH,2010,0.0
UTOPIA,UTOPIA,SD,URN,1990,0.0
UTOPIA,UTOPIA,SD,URN,1991,0.0
UTOPIA,UTOPIA,SD,URN,1992,0.0
UTOPIA,UTOPIA,SD,URN,1993,0.0
UTOPIA,UTOPIA,SD,URN,1994,0.0
UTOPIA,UTOPIA,SD,URN,1995,0.0
UTOPIA,UTOPIA,SD,URN,1996,0.0
UTOPIA,UTOPIA,SD,URN,1997,0.0
UTOPIA,UTOPIA,SD,URN,1998,0.0
UTOPIA,UTOPIA,SD,URN,1999,0.0
UTOPIA,UTOPIA,SD,URN,2000,0.0
UTOPIA,UTOPIA,SD,URN,2001,0.0
UTOPIA,UTOPIA,SD,URN,2002,0.0
UTOPIA,UTOPIA,SD,URN,2003,0.0
UTOPIA,UTOPIA,SD,URN,2004,0.0
UTOPIA,UTOPIA,SD,URN,2005,0.0
UTOPIA,UTOPIA,SD,URN,2006,0.0
UTOPIA,UTOPIA,SD,URN,2007,0.0
UTOPIA,UTOPIA,SD,URN,2008,0.0
UTOPIA,UTOPIA,SD,URN,2009,0.0
UTOPIA,UTOPIA,SD,URN,2010,0.0
UTOPIA,UTOPIA,SD,ELC,1990,0.0
UTOPIA,UTOPIA,SD,ELC,1991,0.0
UTOPIA,UTOPIA,SD,ELC,1992,0.0
UTOPIA,UTOPIA,SD,ELC,1993,0.0
UTOPIA,UTOPIA,SD,ELC,1994,0.0
UTOPIA,UTOPIA,SD,ELC,1995,0.0
UTOPIA,UTOPIA,SD,ELC,1996,0.0
UTOPIA,UTOPIA,SD,ELC,1997,0.0
UTOPIA,UTOPIA,SD,ELC,1998,0.0
UTOPIA,UTOPIA,SD,ELC,1999,0.0
UTOPIA,UTOPIA,SD,ELC,2000,0.0
UTOPIA,UTOPIA,SD,ELC,2001,0.0
UTOPIA,UTOPIA,SD,ELC,2002,0.0
UTOPIA,UTOPIA,SD,ELC,2003,0.0
UTOPIA,UTOPIA,SD,ELC,2004,0.0
UTOPIA,UTOPIA,SD,ELC,2005,0.0
UTOPIA,UTOPIA,SD,ELC,2006,0.0
UTOPIA,UTOPIA,SD,ELC,2007,0.0
UTOPIA,UTOPIA,SD,ELC,2008,0.0
UTOPIA,UTOPIA,SD,ELC,2009,0.0
UTOPIA,UTOPIA,SD,ELC,2010,0.0
UTOPIA,UTOPIA,WN,LTH,1990,0.0
UTOPIA,UTOPIA,WN,LTH,1991,0.0
UTOPIA,UTOPIA,WN,LTH,1992,0.0
UTOPIA,UTOPIA,WN,LTH,1993,0.0
UTOPIA,UTOPIA,WN,LTH,1994,0.0
UTOPIA,UTOPIA,WN,LTH,1995,0.0
UTOPIA,UTOPIA,WN,LTH,1996,0.0
UTOPIA,UTOPIA,WN,LTH,1997,0.0
UTOPIA,UTOPIA,WN,LTH,1998,0.0
UTOPIA,UTOPIA,WN,LTH,1999,0.0
UTOPIA,UTOPIA,WN,LTH,2000,0.0
UTOPIA,UTOPIA,WN,LTH,2001,0.0
UTOPIA,UTOPIA,WN,LTH,2002,0.0
UTOPIA,UTOPIA,WN,LTH,2003,0.0
UTOPIA,UTOPIA,WN,LTH,2004,0.0
UTOPIA,UTOPIA,WN,LTH,2005,0.0
UTOPIA,UTOPIA,WN,LTH,2006,0.0
UTOPIA,UTOPIA,WN,LTH,2007,0.0
UTOPIA,UTOPIA,WN,LTH,2008,0.0
UTOPIA,UTOPIA,WN,LTH,2009,0.0
UTOPIA,UTOPIA,WN,LTH,2010,0.0
UTOPIA,UTOPIA,WN,HCO,1990,0.0
UTOPIA,UTOPIA,WN,HCO,1991,0.0
UTOPIA,UTOPIA,WN,HCO,1992,0.0
UTOPIA,UTOPIA,WN,HCO,1993,0.0
UTOPIA,UTOPIA,WN,HCO,1994,0.0
UTOPIA,UTOPIA,WN,HCO,1995,0.0
UTOPIA,UTOPIA,WN,HCO,1996,0.0
UTOPIA,UTOPIA,WN,HCO,1997,0.0
UTOPIA,UTOPIA,WN,HCO,1998,0.0
UTOPIA,UTOPIA,WN,HCO,1999,0.0
UTOPIA,UTOPIA,WN,HCO,2000,0.0
UTOPIA,UTOPIA,WN,HCO,2001,0.0
UTOPIA,UTOPIA,WN,HCO,2002,0.0
UTOPIA,UTOPIA,WN,HCO,2003,0.0
UTOPIA,UTOPIA,WN,HCO,2004,0.0
UTOPIA,UTOPIA,WN,HCO,2005,0.0
UTOPIA,UTOPIA,WN,HCO,2006,0.0
UTOPIA,UTOPIA,WN,HCO,2007,0.0
UTOPIA,UTOPIA,WN,HCO,2008,0.0
UTOPIA,UTOPIA,WN,HCO,2009,0.0
UTOPIA,UTOPIA,WN,HCO,2010,0.0
UTOPIA,UTOPIA,WN,OIL,1990,0.0
UTOPIA,UTOPIA,WN,OIL,1991,0.0
UTOPIA,UTOPIA,WN,OIL,1992,0.0
UTOPIA,UTOPIA,WN,OIL,1993,0.0
UTOPIA,UTOPIA,WN,OIL,1994,0.0
UTOPIA,UTOPIA,WN,OIL,1995,0.0
UTOPIA,UTOPIA,WN,OIL,1996,0.0
UTOPIA,UTOPIA,WN,OIL,1997,0.0
UTOPIA,UTOPIA,WN,OIL,1998,0.0
UTOPIA,UTOPIA,WN,OIL,1999,0.0
UTOPIA,UTOPIA,WN,OIL,2000,0.0
UTOPIA,UTOPIA,WN,OIL,2001,0.0
UTOPIA,UTOPIA,WN,OIL,2002,0.0
UTOPIA,UTOPIA,WN,OIL,2003,0.0
UTOPIA,UTOPIA,WN,OIL,2004,0.0
UTOPIA,UTOPIA,WN,OIL,2005,0.0
UTOPIA,UTOPIA,WN,OIL,2006,0.0
UTOPIA,UTOPIA,WN,OIL,2007,0.0
UTOPIA,UTOPIA,WN,OIL,2008,0.0
UTOPIA,UTOPIA,WN,OIL,2009,0.0
UTOPIA,UTOPIA,WN,OIL,2010,0.0
UTOPIA,UTOPIA,WN,CSV,1990,0.0
UTOPIA,UTOPIA,WN,CSV,1991,0.0
UTOPIA,UTOPIA,WN,CSV,1992,0.0
UTOPIA,UTOPIA,WN,CSV,1993,0.0
UTOPIA,UTOPIA,WN,CSV,1994,0.0
UTOPIA,UTOPIA,WN,CSV,1995,0.0
UTOPIA,UTOPIA,WN,CSV,1996,0.0
UTOPIA,UTOPIA,WN,CSV,1997,0.0
UTOPIA,UTOPIA,WN,CSV,1998,0.0
UTOPIA,UTOPIA,WN,CSV,1999,0.0
UTOPIA,UTOPIA,WN,CSV,2000,0.0
UTOPIA,UTOPIA,WN,CSV,2001,0.0
UTOPIA,UTOPIA,WN,CSV,2002,0.0
UTOPIA,UTOPIA,WN,CSV,2003,0.0
UTOPIA,UTOPIA,WN,CSV,2004,0.0
UTOPIA,UTOPIA,WN,CSV,2005,0.0
UTOPIA,UTOPIA,WN,CSV,2006,0.0
UTOPIA,UTOPIA,WN,CSV,2007,0.0
UTOPIA,UTOPIA,WN,CSV,2008,0.0
UTOPIA,UTOPIA,WN,CSV,2009,0.0
UTOPIA,UTOPIA,WN,CSV,2010,0.0
UTOPIA,UTOPIA,WN,DSL,1990,0.0
UTOPIA,UTOPIA,WN,DSL,1991,0.0
UTOPIA,UTOPIA,WN,DSL,1992,0.0
UTOPIA,UTOPIA,WN,DSL,1993,0.0
UTOPIA,UTOPIA,WN,DSL,1994,0.0
UTOPIA,UTOPIA,WN,DSL,1995,0.0
UTOPIA,UTOPIA,WN,DSL,1996,0.0
UTOPIA,UTOPIA,WN,DSL,1997,0.0
UTOPIA,UTOPIA,WN,DSL,1998,0.0
UTOPIA,UTOPIA,WN,DSL,1999,0.0
UTOPIA,UTOPIA,WN,DSL,2000,0.0
UTOPIA,UTOPIA,WN,DSL,2001,0.0
UTOPIA,UTOPIA,WN,DSL,2002,0.0
UTOPIA,UTOPIA,WN,DSL,2003,0.0
UTOPIA,UTOPIA,WN,DSL,2004,0.0
UTOPIA,UTOPIA,WN,DSL,2005,0.0
UTOPIA,UTOPIA,WN,DSL,2006,0.0
UTOPIA,UTOPIA,WN,DSL,2007,0.0
UTOPIA,UTOPIA,WN,DSL,2008,0.0
UTOPIA,UTOPIA,WN,DSL,2009,0.0
UTOPIA,UTOPIA,WN,DSL,2010,0.0
UTOPIA,UTOPIA,WN,HYD,1990,0.0
UTOPIA,UTOPIA,WN,HYD,1991,0.0
UTOPIA,UTOPIA,WN,HYD,1992,0.0
UTOPIA,UTOPIA,WN,HYD,1993,0.0
UTOPIA,UTOPIA,WN,HYD,1994,0.0
UTOPIA,UTOPIA,WN,HYD,1995,0.0
UTOPIA,UTOPIA,WN,HYD,1996,0.0
UTOPIA,UTOPIA,WN,HYD,1997,0.0
UTOPIA,UTOPIA,WN,HYD,1998,0.0
UTOPIA,UTOPIA,WN,HYD,1999,0.0
UTOPIA,UTOPIA,WN,HYD,2000,0.0
UTOPIA,UTOPIA,WN,HYD,2001,0.0
UTOPIA,UTOPIA,WN,HYD,2002,0.0
UTOPIA,UTOPIA,WN,HYD,2003,0.0
UTOPIA,UTOPIA,WN,HYD,2004,0.0
UTOPIA,UTOPIA,WN,HYD,2005,0.0
UTOPIA,UTOPIA,WN,HYD,2006,0.0
UTOPIA,UTOPIA,WN,HYD,2007,0.0
UTOPIA,UTOPIA,WN,HYD,2008,0.0
UTOPIA,UTOPIA,WN,HYD,2009,0.0
UTOPIA,UTOPIA,WN,HYD,2010,0.0
UTOPIA,UTOPIA,WN,TX,1990,0.0
UTOPIA,UTOPIA,WN,TX,1991,0.0
UTOPIA,UTOPIA,WN,TX,1992,0.0
UTOPIA,UTOPIA,WN,TX,1993,0.0
UTOPIA,UTOPIA,WN,TX,1994,0.0
UTOPIA,UTOPIA,WN,TX,1995,0.0
UTOPIA,UTOPIA,WN,TX,1996,0.0
UTOPIA,UTOPIA,WN,TX,1997,0.0
UTOPIA,UTOPIA,WN,TX,1998,0.0
UTOPIA,UTOPIA,WN,TX,1999,0.0
UTOPIA,UTOPIA,WN,TX,2000,0.0
UTOPIA,UTOPIA,WN,TX,2001,0.0
UTOPIA,UTOPIA,WN,TX,2002,0.0
UTOPIA,UTOPIA,WN,TX,2003,0.0
UTOPIA,UTOPIA,WN,TX,2004,0.0
UTOPIA,UTOPIA,WN,TX,2005,0.0
UTOPIA,UTOPIA,WN,TX,2006,0.0
UTOPIA,UTOPIA,WN,TX,2007,0.0
UTOPIA,UTOPIA,WN,TX,2008,0.0
UTOPIA,UTOPIA,WN,TX,2009,0.0
UTOPIA,UTOPIA,WN,TX,2010,0.0
UTOPIA,UTOPIA,WN,GSL,1990,0.0
UTOPIA,UTOPIA,WN,GSL,1991,0.0
UTOPIA,UTOPIA,WN,GSL,1992,0.0
UTOPIA,UTOPIA,WN,GSL,1993,0.0
UTOPIA,UTOPIA,WN,GSL,1994,0.0
UTOPIA,UTOPIA,WN,GSL,1995,0.0
UTOPIA,UTOPIA,WN,GSL,1996,0.0
UTOPIA,UTOPIA,WN,GSL,1997,0.0
UTOPIA,UTOPIA,WN,GSL,1998,0.0
UTOPIA,UTOPIA,WN,GSL,1999,0.0
UTOPIA,UTOPIA,WN,GSL,2000,0.0
UTOPIA,UTOPIA,WN,GSL,2001,0.0
UTOPIA,UTOPIA,WN,GSL,2002,0.0
UTOPIA,UTOPIA,WN,GSL,2003,0.0
UTOPIA,UTOPIA,WN,GSL,2004,0.0
UTOPIA,UTOPIA,WN,GSL,2005,0.0
UTOPIA,UTOPIA,WN,GSL,2006,0.0
UTOPIA,UTOPIA,WN,GSL,2007,0.0
UTOPIA,UTOPIA,WN,GSL,2008,0.0
UTOPIA,UTOPIA,WN,GSL,2009,0.0
UTOPIA,UTOPIA,WN,GSL,2010,0.0
UTOPIA,UTOPIA,WN,RL,1990,0.0
UTOPIA,UTOPIA,WN,RL,1991,0.0
UTOPIA,UTOPIA,WN,RL,1992,0.0
UTOPIA,UTOPIA,WN,RL,1993,0.0
UTOPIA,UTOPIA,WN,RL,1994,0.0
UTOPIA,UTOPIA,WN,RL,1995,0.0
UTOPIA,UTOPIA,WN,RL,1996,0.0
UTOPIA,UTOPIA,WN,RL,1997,0.0
UTOPIA,UTOPIA,WN,RL,1998,0.0
UTOPIA,UTOPIA,WN,RL,1999,0.0
UTOPIA,UTOPIA,WN,RL,2000,0.0
UTOPIA,UTOPIA,WN,RL,2001,0.0
UTOPIA,UTOPIA,WN,RL,2002,0.0
UTOPIA,UTOPIA,WN,RL,2003,0.0
UTOPIA,UTOPIA,WN,RL,2004,0.0
UTOPIA,UTOPIA,WN,RL,2005,0.0
UTOPIA,UTOPIA,WN,RL,2006,0.0
UTOPIA,UTOPIA,WN,RL,2007,0.0
UTOPIA,UTOPIA,WN,RL,2008,0.0
UTOPIA,UTOPIA,WN,RL,2009,0.0
UTOPIA,UTOPIA,WN,RL,2010,0.0
UTOPIA,UTOPIA,WN,RH,1990,0.0
UTOPIA,UTOPIA,WN,RH,1991,0.0
UTOPIA,UTOPIA,WN,RH,1992,0.0
UTOPIA,UTOPIA,WN,RH,1993,0.0
UTOPIA,UTOPIA,WN,RH,1994,0.0
UTOPIA,UTOPIA,WN,RH,1995,0.0
UTOPIA,UTOPIA,WN,RH,1996,0.0
UTOPIA,UTOPIA,WN,RH,1997,0.0
UTOPIA,UTOPIA,WN,RH,1998,0.0
UTOPIA,UTOPIA,WN,RH,1999,0.0
UTOPIA,UTOPIA,WN,RH,2000,0.0
UTOPIA,UTOPIA,WN,RH,2001,0.0
UTOPIA,UTOPIA,WN,RH,2002,0.0
UTOPIA,UTOPIA,WN,RH,2003,0.0
UTOPIA,UTOPIA,WN,RH,2004,0.0
UTOPIA,UTOPIA,WN,RH,2005,0.0
UTOPIA,UTOPIA,WN,RH,2006,0.0
UTOPIA,UTOPIA,WN,RH,2007,0.0
UTOPIA,UTOPIA,WN,RH,2008,0.0
UTOPIA,UTOPIA,WN,RH,2009,0.0
UTOPIA,UTOPIA,WN,RH,2010,0.0
UTOPIA,UTOPIA,WN,URN,1990,0.0
UTOPIA,UTOPIA,WN,URN,1991,0.0
UTOPIA,UTOPIA,WN,URN,1992,0.0
UTOPIA,UTOPIA,WN,URN,1993,0.0
UTOPIA,UTOPIA,WN,URN,1994,0.0
UTOPIA,UTOPIA,WN,URN,1995,0.0
UTOPIA,UTOPIA,WN,URN,1996,0.0
UTOPIA,UTOPIA,WN,URN,1997,0.0
UTOPIA,UTOPIA,WN,URN,1998,0.0
UTOPIA,UTOPIA,WN,URN,1999,0.0
UTOPIA,UTOPIA,WN,URN,2000,0.0
UTOPIA,UTOPIA,WN,URN,2001,0.0
UTOPIA,UTOPIA,WN,URN,2002,0.0
UTOPIA,UTOPIA,WN,URN,2003,0.0
UTOPIA,UTOPIA,WN,URN,2004,0.0
UTOPIA,UTOPIA,WN,URN,2005,0.0
UTOPIA,UTOPIA,WN,URN,2006,0.0
UTOPIA,UTOPIA,WN,URN,2007,0.0
UTOPIA,UTOPIA,WN,URN,2008,0.0
UTOPIA,UTOPIA,WN,URN,2009,0.0
UTOPIA,UTOPIA,WN,URN,2010,0.0
UTOPIA,UTOPIA,WN,ELC,1990,0.0
UTOPIA,UTOPIA,WN,ELC,1991,0.0
UTOPIA,UTOPIA,WN,ELC,1992,0.0
UTOPIA,UTOPIA,WN,ELC,1993,0.0
UTOPIA,UTOPIA,WN,ELC,1994,0.0
UTOPIA,UTOPIA,WN,ELC,1995,0.0
UTOPIA,UTOPIA,WN,ELC,1996,0.0
UTOPIA,UTOPIA,WN,ELC,1997,0.0
UTOPIA,UTOPIA,WN,ELC,1998,0.0
UTOPIA,UTOPIA,WN,ELC,1999,0.0
UTOPIA,UTOPIA,WN,ELC,2000,0.0
UTOPIA,UTOPIA,WN,ELC,2001,0.0
UTOPIA,UTOPIA,WN,ELC,2002,0.0
UTOPIA,UTOPIA,WN,ELC,2003,0.0
UTOPIA,UTOPIA,WN,ELC,2004,0.0
UTOPIA,UTOPIA,WN,ELC,2005,0.0
UTOPIA,UTOPIA,WN,ELC,2006,0.0
UTOPIA,UTOPIA,WN,ELC,2007,0.0
UTOPIA,UTOPIA,WN,ELC,2008,0.0
UTOPIA,UTOPIA,WN,ELC,2009,0.0
UTOPIA,UTOPIA,WN,ELC,2010,0.0
UTOPIA,UTOPIA,SN,LTH,1990,0.0
UTOPIA,UTOPIA,SN,LTH,1991,0.0
UTOPIA,UTOPIA,SN,LTH,1992,0.0
UTOPIA,UTOPIA,SN,LTH,1993,0.0
UTOPIA,UTOPIA,SN,LTH,1994,0.0
UTOPIA,UTOPIA,SN,LTH,1995,0.0
UTOPIA,UTOPIA,SN,LTH,1996,0.0
UTOPIA,UTOPIA,SN,LTH,1997,0.0
UTOPIA,UTOPIA,SN,LTH,1998,0.0
UTOPIA,UTOPIA,SN,LTH,1999,0.0
UTOPIA,UTOPIA,SN,LTH,2000,0.0
UTOPIA,UTOPIA,SN,LTH,2001,0.0
UTOPIA,UTOPIA,SN,LTH,2002,0.0
UTOPIA,UTOPIA,SN,LTH,2003,0.0
UTOPIA,UTOPIA,SN,LTH,2004,0.0
UTOPIA,UTOPIA,SN,LTH,2005,0.0
UTOPIA,UTOPIA,SN,LTH,2006,0.0
UTOPIA,UTOPIA,SN,LTH,2007,0.0
UTOPIA,UTOPIA,SN,LTH,2008,0.0
UTOPIA,UTOPIA,SN,LTH,2009,0.0
UTOPIA,UTOPIA,SN,LTH,2010,0.0
UTOPIA,UTOPIA,SN,HCO,1990,0.0
UTOPIA,UTOPIA,SN,HCO,1991,0.0
UTOPIA,UTOPIA,SN,HCO,1992,0.0
UTOPIA,UTOPIA,SN,HCO,1993,0.0
UTOPIA,UTOPIA,SN,HCO,1994,0.0
UTOPIA,UTOPIA,SN,HCO,1995,0.0
UTOPIA,UTOPIA,SN,HCO,1996,0.0
UTOPIA,UTOPIA,SN,HCO,1997,0.0
UTOPIA,UTOPIA,SN,HCO,1998,0.0
UTOPIA,UTOPIA,SN,HCO,1999,0.0
UTOPIA,UTOPIA,SN,HCO,2000,0.0
UTOPIA,UTOPIA,SN,HCO,2001,0.0
UTOPIA,UTOPIA,SN,HCO,2002,0.0
UTOPIA,UTOPIA,SN,HCO,2003,0.0
UTOPIA,UTOPIA,SN,HCO,2004,0.0
UTOPIA,UTOPIA,SN,HCO,2005,0.0
UTOPIA,UTOPIA,SN,HCO,2006,0.0
UTOPIA,UTOPIA,SN,HCO,2007,0.0
UTOPIA,UTOPIA,SN,HCO,2008,0.0
UTOPIA,UTOPIA,SN,HCO,2009,0.0
UTOPIA,UTOPIA,SN,HCO,2010,0.0
UTOPIA,UTOPIA,SN,OIL,1990,0.0
UTOPIA,UTOPIA,SN,OIL,1991,0.0
UTOPIA,UTOPIA,SN,OIL,1992,0.0
UTOPIA,UTOPIA,SN,OIL,1993,0.0
UTOPIA,UTOPIA,SN,OIL,1994,0.0
UTOPIA,UTOPIA,SN,OIL,1995,0.0
UTOPIA,UTOPIA,SN,OIL,1996,0.0
UTOPIA,UTOPIA,SN,OIL,1997,0.0
UTOPIA,UTOPIA,SN,OIL,1998,0.0
UTOPIA,UTOPIA,SN,OIL,1999,0.0
UTOPIA,UTOPIA,SN,OIL,2000,0.0
UTOPIA,UTOPIA,SN,OIL,2001,0.0
UTOPIA,UTOPIA,SN,OIL,2002,0.0
UTOPIA,UTOPIA,SN,OIL,2003,0.0
UTOPIA,UTOPIA,SN,OIL,2004,0.0
UTOPIA,UTOPIA,SN,OIL,2005,0.0
UTOPIA,UTOPIA,SN,OIL,2006,0.0
UTOPIA,UTOPIA,SN,OIL,2007,0.0
UTOPIA,UTOPIA,SN,OIL,2008,0.0
UTOPIA,UTOPIA,SN,OIL,2009,0.0
UTOPIA,UTOPIA,SN,OIL,2010,0.0
UTOPIA,UTOPIA,SN,CSV,1990,0.0
UTOPIA,UTOPIA,SN,CSV,1991,0.0
UTOPIA,UTOPIA,SN,CSV,1992,0.0
UTOPIA,UTOPIA,SN,CSV,1993,0.0
UTOPIA,UTOPIA,SN,CSV,1994,0.0
UTOPIA,UTOPIA,SN,CSV,1995,0.0
UTOPIA,UTOPIA,SN,CSV,1996,0.0
UTOPIA,UTOPIA,SN,CSV,1997,0.0
UTOPIA,UTOPIA,SN,CSV,1998,0.0
UTOPIA,UTOPIA,SN,CSV,1999,0.0
UTOPIA,UTOPIA,SN,CSV,2000,0.0
UTOPIA,UTOPIA,SN,CSV,2001,0.0
UTOPIA,UTOPIA,SN,CSV,2002,0.0
UTOPIA,UTOPIA,SN,CSV,2003,0.0
UTOPIA,UTOPIA,SN,CSV,2004,0.0
UTOPIA,UTOPIA,SN,CSV,2005,0.0
UTOPIA,UTOPIA,SN,CSV,2006,0.0
UTOPIA,UTOPIA,SN,CSV,2007,0.0
UTOPIA,UTOPIA,SN,CSV,2008,0.0
UTOPIA,UTOPIA,SN,CSV,2009,0.0
UTOPIA,UTOPIA,SN,CSV,2010,0.0
UTOPIA,UTOPIA,SN,DSL,1990,0.0
UTOPIA,UTOPIA,SN,DSL,1991,0.0
UTOPIA,UTOPIA,SN,DSL,1992,0.0
UTOPIA,UTOPIA,SN,DSL,1993,0.0
UTOPIA,UTOPIA,SN,DSL,1994,0.0
UTOPIA,UTOPIA,SN,DSL,1995,0.0
UTOPIA,UTOPIA,SN,DSL,1996,0.0
UTOPIA,UTOPIA,SN,DSL,1997,0.0
UTOPIA,UTOPIA,SN,DSL,1998,0.0
UTOPIA,UTOPIA,SN,DSL,1999,0.0
UTOPIA,UTOPIA,SN,DSL,2000,0.0
UTOPIA,UTOPIA,SN,DSL,2001,0.0
UTOPIA,UTOPIA,SN,DSL,2002,0.0
UTOPIA,UTOPIA,SN,DSL,2003,0.0
UTOPIA,UTOPIA,SN,DSL,2004,0.0
UTOPIA,UTOPIA,SN,DSL,2005,0.0
UTOPIA,UTOPIA,SN,DSL,2006,0.0
UTOPIA,UTOPIA,SN,DSL,2007,0.0
UTOPIA,UTOPIA,SN,DSL,2008,0.0
UTOPIA,UTOPIA,SN,DSL,2009,0.0
UTOPIA,UTOPIA,SN,DSL,2010,0.0
UTOPIA,UTOPIA,SN,HYD,1990,0.0
UTOPIA,UTOPIA,SN,HYD,1991,0.0
UTOPIA,UTOPIA,SN,HYD,1992,0.0
UTOPIA,UTOPIA,SN,HYD,1993,0.0
UTOPIA,UTOPIA,SN,HYD,1994,0.0
UTOPIA,UTOPIA,SN,HYD,1995,0.0
UTOPIA,UTOPIA,SN,HYD,1996,0.0
UTOPIA,UTOPIA,SN,HYD,1997,0.0
UTOPIA,UTOPIA,SN,HYD,1998,0.0
UTOPIA,UTOPIA,SN,HYD,1999,0.0
UTOPIA,UTOPIA,SN,HYD,2000,0.0
UTOPIA,UTOPIA,SN,HYD,2001,0.0
UTOPIA,UTOPIA,SN,HYD,2002,0.0
UTOPIA,UTOPIA,SN,HYD,2003,0.0
UTOPIA,UTOPIA,SN,HYD,2004,0.0
UTOPIA,UTOPIA,SN,HYD,2005,0.0
UTOPIA,UTOPIA,SN,HYD,2006,0.0
UTOPIA,UTOPIA,SN,HYD,2007,0.0
UTOPIA,UTOPIA,SN,HYD,2008,0.0
UTOPIA,UTOPIA,SN,HYD,2009,0.0
UTOPIA,UTOPIA,SN,HYD,2010,0.0
UTOPIA,UTOPIA,SN,TX,1990,0.0
UTOPIA,UTOPIA,SN,TX,1991,0.0
UTOPIA,UTOPIA,SN,TX,1992,0.0
UTOPIA,UTOPIA,SN,TX,1993,0.0
UTOPIA,UTOPIA,SN,TX,1994,0.0
UTOPIA,UTOPIA,SN,TX,1995,0.0
UTOPIA,UTOPIA,SN,TX,1996,0.0
UTOPIA,UTOPIA,SN,TX,1997,0.0
UTOPIA,UTOPIA,SN,TX,1998,0.0
UTOPIA,UTOPIA,SN,TX,1999,0.0
UTOPIA,UTOPIA,SN,TX,2000,0.0
UTOPIA,UTOPIA,SN,TX,2001,0.0
UTOPIA,UTOPIA,SN,TX,2002,0.0
UTOPIA,UTOPIA,SN,TX,2003,0.0
UTOPIA,UTOPIA,SN,TX,2004,0.0
UTOPIA,UTOPIA,SN,TX,2005,0.0
UTOPIA,UTOPIA,SN,TX,2006,0.0
UTOPIA,UTOPIA,SN,TX,2007,0.0
UTOPIA,UTOPIA,SN,TX,2008,0.0
UTOPIA,UTOPIA,SN,TX,2009,0.0
UTOPIA,UTOPIA,SN,TX,2010,0.0
UTOPIA,UTOPIA,SN,GSL,1990,0.0
UTOPIA,UTOPIA,SN,GSL,1991,0.0
UTOPIA,UTOPIA,SN,GSL,1992,0.0
UTOPIA,UTOPIA,SN,GSL,1993,0.0
UTOPIA,UTOPIA,SN,GSL,1994,0.0
UTOPIA,UTOPIA,SN,GSL,1995,0.0
UTOPIA,UTOPIA,SN,GSL,1996,0.0
UTOPIA,UTOPIA,SN,GSL,1997,0.0
UTOPIA,UTOPIA,SN,GSL,1998,0.0
UTOPIA,UTOPIA,SN,GSL,1999,0.0
UTOPIA,UTOPIA,SN,GSL,2000,0.0
UTOPIA,UTOPIA,SN,GSL,2001,0.0
UTOPIA,UTOPIA,SN,GSL,2002,0.0
UTOPIA,UTOPIA,SN,GSL,2003,0.0
UTOPIA,UTOPIA,SN,GSL,2004,0.0
UTOPIA,UTOPIA,SN,GSL,2005,0.0
UTOPIA,UTOPIA,SN,GSL,2006,0.0
UTOPIA,UTOPIA,SN,GSL,2007,0.0
UTOPIA,UTOPIA,SN,GSL,2008,0.0
UTOPIA,UTOPIA,SN,GSL,2009,0.0
UTOPIA,UTOPIA,SN,GSL,2010,0.0
UTOPIA,UTOPIA,SN,RL,1990,0.0
UTOPIA,UTOPIA,SN,RL,1991,0.0
UTOPIA,UTOPIA,SN,RL,1992,0.0
UTOPIA,UTOPIA,SN,RL,1993,0.0
UTOPIA,UTOPIA,SN,RL,1994,0.0
UTOPIA,UTOPIA,SN,RL,1995,0.0
UTOPIA,UTOPIA,SN,RL,1996,0.0
UTOPIA,UTOPIA,SN,RL,1997,0.0
UTOPIA,UTOPIA,SN,RL,1998,0.0
UTOPIA,UTOPIA,SN,RL,1999,0.0
UTOPIA,UTOPIA,SN,RL,2000,0.0
UTOPIA,UTOPIA,SN,RL,2001,0.0
UTOPIA,UTOPIA,SN,RL,2002,0.0
UTOPIA,UTOPIA,SN,RL,2003,0.0
UTOPIA,UTOPIA,SN,RL,2004,0.0
UTOPIA,UTOPIA,SN,RL,2005,0.0
UTOPIA,UTOPIA,SN,RL,2006,0.0
UTOPIA,UTOPIA,SN,RL,2007,0.0
UTOPIA,UTOPIA,SN,RL,2008,0.0
UTOPIA,UTOPIA,SN,RL,2009,0.0
UTOPIA,UTOPIA,SN,RL,2010,0.0
UTOPIA,UTOPIA,SN,RH,1990,0.0
UTOPIA,UTOPIA,SN,RH,1991,0.0
UTOPIA,UTOPIA,SN,RH,1992,0.0
UTOPIA,UTOPIA,SN,RH,1993,0.0
UTOPIA,UTOPIA,SN,RH,1994,0.0
UTOPIA,UTOPIA,SN,RH,1995,0.0
UTOPIA,UTOPIA,SN,RH,1996,0.0
UTOPIA,UTOPIA,SN,RH,1997,0.0
UTOPIA,UTOPIA,SN,RH,1998,0.0
UTOPIA,UTOPIA,SN,RH,1999,0.0
UTOPIA,UTOPIA,SN,RH,2000,0.0
UTOPIA,UTOPIA,SN,RH,2001,0.0
UTOPIA,UTOPIA,SN,RH,2002,0.0
UTOPIA,UTOPIA,SN,RH,2003,0.0
UTOPIA,UTOPIA,SN,RH,2004,0.0
UTOPIA,UTOPIA,SN,RH,2005,0.0
UTOPIA,UTOPIA,SN,RH,2006,0.0
UTOPIA,UTOPIA,SN,RH,2007,0.0
UTOPIA,UTOPIA,SN,RH,2008,0.0
UTOPIA,UTOPIA,SN,RH,2009,0.0
UTOPIA,UTOPIA,SN,RH,2010,0.0
UTOPIA,UTOPIA,SN,URN,1990,0.0
UTOPIA,UTOPIA,SN,URN,1991,0.0
UTOPIA,UTOPIA,SN,URN,1992,0.0
UTOPIA,UTOPIA,SN,URN,1993,0.0
UTOPIA,UTOPIA,SN,URN,1994,0.0
UTOPIA,UTOPIA,SN,URN,1995,0.0
UTOPIA,UTOPIA,SN,URN,1996,0.0
UTOPIA,UTOPIA,SN,URN,1997,0.0
UTOPIA,UTOPIA,SN,URN,1998,0.0
UTOPIA,UTOPIA,SN,URN,1999,0.0
UTOPIA,UTOPIA,SN,URN,2000,0.0
UTOPIA,UTOPIA,SN,URN,2001,0.0
UTOPIA,UTOPIA,SN,URN,2002,0.0
UTOPIA,UTOPIA,SN,URN,2003,0.0
UTOPIA,UTOPIA,SN,URN,2004,0.0
UTOPIA,UTOPIA,SN,URN,2005,0.0
UTOPIA,UTOPIA,SN,URN,2006,0.0
UTOPIA,UTOPIA,SN,URN,2007,0.0
UTOPIA,UTOPIA,SN,URN,2008,0.0
UTOPIA,UTOPIA,SN,URN,2009,0.0
UTOPIA,UTOPIA,SN,URN,2010,0.0
UTOPIA,UTOPIA,SN,ELC,1990,0.0
UTOPIA,UTOPIA,SN,ELC,1991,0.0
UTOPIA,UTOPIA,SN,ELC,1992,0.0
UTOPIA,UTOPIA,SN,ELC,1993,0.0
UTOPIA,UTOPIA,SN,ELC,1994,0.0
UTOPIA,UTOPIA,SN,ELC,1995,0.0
UTOPIA,UTOPIA,SN,ELC,1996,0.0
UTOPIA,UTOPIA,SN,ELC,1997,0.0
UTOPIA,UTOPIA,SN,ELC,1998,0.0
UTOPIA,UTOPIA,SN,ELC,1999,0.0
UTOPIA,UTOPIA,SN,ELC,2000,0.0
UTOPIA,UTOPIA,SN,ELC,2001,0.0
UTOPIA,UTOPIA,SN,ELC,2002,0.0
UTOPIA,UTOPIA,SN,ELC,2003,0.0
UTOPIA,UTOPIA,SN,ELC,2004,0.0
UTOPIA,UTOPIA,SN,ELC,2005,0.0
UTOPIA,UTOPIA,SN,ELC,2006,0.0
UTOPIA,UTOPIA,SN,ELC,2007,0.0
UTOPIA,UTOPIA,SN,ELC,2008,0.0
UTOPIA,UTOPIA,SN,ELC,2009,0.0
UTOPIA,UTOPIA,SN,ELC,2010,0.0
UTOPIA,UTOPIA,WD,LTH,1990,0.0
UTOPIA,UTOPIA,WD,LTH,1991,0.0
UTOPIA,UTOPIA,WD,LTH,1992,0.0
UTOPIA,UTOPIA,WD,LTH,1993,0.0
UTOPIA,UTOPIA,WD,LTH,1994,0.0
UTOPIA,UTOPIA,WD,LTH,1995,0.0
UTOPIA,UTOPIA,WD,LTH,1996,0.0
UTOPIA,UTOPIA,WD,LTH,1997,0.0
UTOPIA,UTOPIA,WD,LTH,1998,0.0
UTOPIA,UTOPIA,WD,LTH,1999,0.0
UTOPIA,UTOPIA,WD,LTH,2000,0.0
UTOPIA,UTOPIA,WD,LTH,2001,0.0
UTOPIA,UTOPIA,WD,LTH,2002,0.0
UTOPIA,UTOPIA,WD,LTH,2003,0.0
UTOPIA,UTOPIA,WD,LTH,2004,0.0
UTOPIA,UTOPIA,WD,LTH,2005,0.0
UTOPIA,UTOPIA,WD,LTH,2006,0.0
UTOPIA,UTOPIA,WD,LTH,2007,0.0
UTOPIA,UTOPIA,WD,LTH,2008,0.0
UTOPIA,UTOPIA,WD,LTH,2009,0.0
UTOPIA,UTOPIA,WD,LTH,2010,0.0
UTOPIA,UTOPIA,WD,HCO,1990,0.0
UTOPIA,UTOPIA,WD,HCO,1991,0.0
UTOPIA,UTOPIA,WD,HCO,1992,0.0
UTOPIA,UTOPIA,WD,HCO,1993,0.0
UTOPIA,UTOPIA,WD,HCO,1994,0.0
UTOPIA,UTOPIA,WD,HCO,1995,0.0
UTOPIA,UTOPIA,WD,HCO,1996,0.0
UTOPIA,UTOPIA,WD,HCO,1997,0.0
UTOPIA,UTOPIA,WD,HCO,1998,0.0
UTOPIA,UTOPIA,WD,HCO,1999,0.0
UTOPIA,UTOPIA,WD,HCO,2000,0.0
UTOPIA,UTOPIA,WD,HCO,2001,0.0
UTOPIA,UTOPIA,WD,HCO,2002,0.0
UTOPIA,UTOPIA,WD,HCO,2003,0.0
UTOPIA,UTOPIA,WD,HCO,2004,0.0
UTOPIA,UTOPIA,WD,HCO,2005,0.0
UTOPIA,UTOPIA,WD,HCO,2006,0.0
UTOPIA,UTOPIA,WD,HCO,2007,0.0
UTOPIA,UTOPIA,WD,HCO,2008,0.0
UTOPIA,UTOPIA,WD,HCO,2009,0.0
UTOPIA,UTOPIA,WD,HCO,2010,0.0
UTOPIA,UTOPIA,WD,OIL,1990,0.0
UTOPIA,UTOPIA,WD,OIL,1991,0.0
UTOPIA,UTOPIA,WD,OIL,1992,0.0
UTOPIA,UTOPIA,WD,OIL,1993,0.0
UTOPIA,UTOPIA,WD,OIL,1994,0.0
UTOPIA,UTOPIA,WD,OIL,1995,0.0
UTOPIA,UTOPIA,WD,OIL,1996,0.0
UTOPIA,UTOPIA,WD,OIL,1997,0.0
UTOPIA,UTOPIA,WD,OIL,1998,0.0
UTOPIA,UTOPIA,WD,OIL,1999,0.0
UTOPIA,UTOPIA,WD,OIL,2000,0.0
UTOPIA,UTOPIA,WD,OIL,2001,0.0
UTOPIA,UTOPIA,WD,OIL,2002,0.0
UTOPIA,UTOPIA,WD,OIL,2003,0.0
UTOPIA,UTOPIA,WD,OIL,2004,0.0
UTOPIA,UTOPIA,WD,OIL,2005,0.0
UTOPIA,UTOPIA,WD,OIL,2006,0.0
UTOPIA,UTOPIA,WD,OIL,2007,0.0
UTOPIA,UTOPIA,WD,OIL,2008,0.0
UTOPIA,UTOPIA,WD,OIL,2009,0.0
UTOPIA,UTOPIA,WD,OIL,2010,0.0
UTOPIA,UTOPIA,WD,CSV,1990,0.0
UTOPIA,UTOPIA,WD,CSV,1991,0.0
UTOPIA,UTOPIA,WD,CSV,1992,0.0
UTOPIA,UTOPIA,WD,CSV,1993,0.0
UTOPIA,UTOPIA,WD,CSV,1994,0.0
UTOPIA,UTOPIA,WD,CSV,1995,0.0
UTOPIA,UTOPIA,WD,CSV,1996,0.0
UTOPIA,UTOPIA,WD,CSV,1997,0.0
UTOPIA,UTOPIA,WD,CSV,1998,0.0
UTOPIA,UTOPIA,WD,CSV,1999,0.0
UTOPIA,UTOPIA,WD,CSV,2000,0.0
UTOPIA,UTOPIA,WD,CSV,2001,0.0
UTOPIA,UTOPIA,WD,CSV,2002,0.0
UTOPIA,UTOPIA,WD,CSV,2003,0.0
UTOPIA,UTOPIA,WD,CSV,2004,0.0
UTOPIA,UTOPIA,WD,CSV,2005,0.0
UTOPIA,UTOPIA,WD,CSV,2006,0.0
UTOPIA,UTOPIA,WD,CSV,2007,0.0
UTOPIA,UTOPIA,WD,CSV,2008,0.0
UTOPIA,UTOPIA,WD,CSV,2009,0.0
UTOPIA,UTOPIA,WD,CSV,2010,0.0
UTOPIA,UTOPIA,WD,DSL,1990,0.0
UTOPIA,UTOPIA,WD,DSL,1991,0.0
UTOPIA,UTOPIA,WD,DSL,1992,0.0
UTOPIA,UTOPIA,WD,DSL,1993,0.0
UTOPIA,UTOPIA,WD,DSL,1994,0.0
UTOPIA,UTOPIA,WD,DSL,1995,0.0
UTOPIA,UTOPIA,WD,DSL,1996,0.0
UTOPIA,UTOPIA,WD,DSL,1997,0.0
UTOPIA,UTOPIA,WD,DSL,1998,0.0
UTOPIA,UTOPIA,WD,DSL,1999,0.0
UTOPIA,UTOPIA,WD,DSL,2000,0.0
UTOPIA,UTOPIA,WD,DSL,2001,0.0
UTOPIA,UTOPIA,WD,DSL,2002,0.0
UTOPIA,UTOPIA,WD,DSL,2003,0.0
UTOPIA,UTOPIA,WD,DSL,2004,0.0
UTOPIA,UTOPIA,WD,DSL,2005,0.0
UTOPIA,UTOPIA,WD,DSL,2006,0.0
UTOPIA,UTOPIA,WD,DSL,2007,0.0
UTOPIA,UTOPIA,WD,DSL,2008,0.0
UTOPIA,UTOPIA,WD,DSL,2009,0.0
UTOPIA,UTOPIA,WD,DSL,2010,0.0
UTOPIA,UTOPIA,WD,HYD,1990,0.0
UTOPIA,UTOPIA,WD,HYD,1991,0.0
UTOPIA,UTOPIA,WD,HYD,1992,0.0
UTOPIA,UTOPIA,WD,HYD,1993,0.0
UTOPIA,UTOPIA,WD,HYD,1994,0.0
UTOPIA,UTOPIA,WD,HYD,1995,0.0
UTOPIA,UTOPIA,WD,HYD,1996,0.0
UTOPIA,UTOPIA,WD,HYD,1997,0.0
UTOPIA,UTOPIA,WD,HYD,1998,0.0
UTOPIA,UTOPIA,WD,HYD,1999,0.0
UTOPIA,UTOPIA,WD,HYD,2000,0.0
UTOPIA,UTOPIA,WD,HYD,2001,0.0
UTOPIA,UTOPIA,WD,HYD,2002,0.0
UTOPIA,UTOPIA,WD,HYD,2003,0.0
UTOPIA,UTOPIA,WD,HYD,2004,0.0
UTOPIA,UTOPIA,WD,HYD,2005,0.0
UTOPIA,UTOPIA,WD,HYD,2006,0.0
UTOPIA,UTOPIA,WD,HYD,2007,0.0
UTOPIA,UTOPIA,WD,HYD,2008,0.0
UTOPIA,UTOPIA,WD,HYD,2009,0.0
UTOPIA,UTOPIA,WD,HYD,2010,0.0
UTOPIA,UTOPIA,WD,TX,1990,0.0
UTOPIA,UTOPIA,WD,TX,1991,0.0
UTOPIA,UTOPIA,WD,TX,1992,0.0
UTOPIA,UTOPIA,WD,TX,1993,0.0
UTOPIA,UTOPIA,WD,TX,1994,0.0
UTOPIA,UTOPIA,WD,TX,1995,0.0
UTOPIA,UTOPIA,WD,TX,1996,0.0
UTOPIA,UTOPIA,WD,TX,1997,0.0
UTOPIA,UTOPIA,WD,TX,1998,0.0
UTOPIA,UTOPIA,WD,TX,1999,0.0
UTOPIA,UTOPIA,WD,TX,2000,0.0
UTOPIA,UTOPIA,WD,TX,2001,0.0
UTOPIA,UTOPIA,WD,TX,2002,0.0
UTOPIA,UTOPIA,WD,TX,2003,0.0
UTOPIA,UTOPIA,WD,TX,2004,0.0
UTOPIA,UTOPIA,WD,TX,2005,0.0
UTOPIA,UTOPIA,WD,TX,2006,0.0
UTOPIA,UTOPIA,WD,TX,2007,0.0
UTOPIA,UTOPIA,WD,TX,2008,0.0
UTOPIA,UTOPIA,WD,TX,2009,0.0
UTOPIA,UTOPIA,WD,TX,2010,0.0
UTOPIA,UTOPIA,WD,GSL,1990,0.0
UTOPIA,UTOPIA,WD,GSL,1991,0.0
UTOPIA,UTOPIA,WD,GSL,1992,0.0
UTOPIA,UTOPIA,WD,GSL,1993,0.0
UTOPIA,UTOPIA,WD,GSL,1994,0.0
UTOPIA,UTOPIA,WD,GSL,1995,0.0
UTOPIA,UTOPIA,WD,GSL,1996,0.0
UTOPIA,UTOPIA,WD,GSL,1997,0.0
UTOPIA,UTOPIA,WD,GSL,1998,0.0
UTOPIA,UTOPIA,WD,GSL,1999,0.0
UTOPIA,UTOPIA,WD,GSL,2000,0.0
UTOPIA,UTOPIA,WD,GSL,2001,0.0
UTOPIA,UTOPIA,WD,GSL,2002,0.0
UTOPIA,UTOPIA,WD,GSL,2003,0.0
UTOPIA,UTOPIA,WD,GSL,2004,0.0
UTOPIA,UTOPIA,WD,GSL,2005,0.0
UTOPIA,UTOPIA,WD,GSL,2006,0.0
UTOPIA,UTOPIA,WD,GSL,2007,0.0
UTOPIA,UTOPIA,WD,GSL,2008,0.0
UTOPIA,UTOPIA,WD,GSL,2009,0.0
UTOPIA,UTOPIA,WD,GSL,2010,0.0
UTOPIA,UTOPIA,WD,RL,1990,0.0
UTOPIA,UTOPIA,WD,RL,1991,0.0
UTOPIA,UTOPIA,WD,RL,1992,0.0
UTOPIA,UTOPIA,WD,RL,1993,0.0
UTOPIA,UTOPIA,WD,RL,1994,0.0
UTOPIA,UTOPIA,WD,RL,1995,0.0
UTOPIA,UTOPIA,WD,RL,1996,0.0
UTOPIA,UTOPIA,WD,RL,1997,0.0
UTOPIA,UTOPIA,WD,RL,1998,0.0
UTOPIA,UTOPIA,WD,RL,1999,0.0
UTOPIA,UTOPIA,WD,RL,2000,0.0
UTOPIA,UTOPIA,WD,RL,2001,0.0
UTOPIA,UTOPIA,WD,RL,2002,0.0
UTOPIA,UTOPIA,WD,RL,2003,0.0
UTOPIA,UTOPIA,WD,RL,2004,0.0
UTOPIA,UTOPIA,WD,RL,2005,0.0
UTOPIA,UTOPIA,WD,RL,2006,0.0
UTOPIA,UTOPIA,WD,RL,2007,0.0
UTOPIA,UTOPIA,WD,RL,2008,0.0
UTOPIA,UTOPIA,WD,RL,2009,0.0
UTOPIA,UTOPIA,WD,RL,2010,0.0
UTOPIA,UTOPIA,WD,RH,1990,0.0
UTOPIA,UTOPIA,WD,RH,1991,0.0
UTOPIA,UTOPIA,WD,RH,1992,0.0
UTOPIA,UTOPIA,WD,RH,1993,0.0
UTOPIA,UTOPIA,WD,RH,1994,0.0
UTOPIA,UTOPIA,WD,RH,1995,0.0
UTOPIA,UTOPIA,WD,RH,1996,0.0
UTOPIA,UTOPIA,WD,RH,1997,0.0
UTOPIA,UTOPIA,WD,RH,1998,0.0
UTOPIA,UTOPIA,WD,RH,1999,0.0
UTOPIA,UTOPIA,WD,RH,2000,0.0
UTOPIA,UTOPIA,WD,RH,2001,0.0
UTOPIA,UTOPIA,WD,RH,2002,0.0
UTOPIA,UTOPIA,WD,RH,2003,0.0
UTOPIA,UTOPIA,WD,RH,2004,0.0
UTOPIA,UTOPIA,WD,RH,2005,0.0
UTOPIA,UTOPIA,WD,RH,2006,0.0
UTOPIA,UTOPIA,WD,RH,2007,0.0
UTOPIA,UTOPIA,WD,RH,2008,0.0
UTOPIA,UTOPIA,WD,RH,2009,0.0
UTOPIA,UTOPIA,WD,RH,2010,0.0
UTOPIA,UTOPIA,WD,URN,1990,0.0
UTOPIA,UTOPIA,WD,URN,1991,0.0
UTOPIA,UTOPIA,WD,URN,1992,0.0
UTOPIA,UTOPIA,WD,URN,1993,0.0
UTOPIA,UTOPIA,WD,URN,1994,0.0
UTOPIA,UTOPIA,WD,URN,1995,0.0
UTOPIA,UTOPIA,WD,URN,1996,0.0
UTOPIA,UTOPIA,WD,URN,1997,0.0
UTOPIA,UTOPIA,WD,URN,1998,0.0
UTOPIA,UTOPIA,WD,URN,1999,0.0
UTOPIA,UTOPIA,WD,URN,2000,0.0
UTOPIA,UTOPIA,WD,URN,2001,0.0
UTOPIA,UTOPIA,WD,URN,2002,0.0
UTOPIA,UTOPIA,WD,URN,2003,0.0
UTOPIA,UTOPIA,WD,URN,2004,0.0
UTOPIA,UTOPIA,WD,URN,2005,0.0
UTOPIA,UTOPIA,WD,URN,2006,0.0
UTOPIA,UTOPIA,WD,URN,2007,0.0
UTOPIA,UTOPIA,WD,URN,2008,0.0
UTOPIA,UTOPIA,WD,URN,2009,0.0
UTOPIA,UTOPIA,WD,URN,2010,0.0
UTOPIA,UTOPIA,WD,ELC,1990,0.0
UTOPIA,UTOPIA,WD,ELC,1991,0.0
UTOPIA,UTOPIA,WD,ELC,1992,0.0
UTOPIA,UTOPIA,WD,ELC,1993,0.0
UTOPIA,UTOPIA,WD,ELC,1994,0.0
UTOPIA,UTOPIA,WD,ELC,1995,0.0
UTOPIA,UTOPIA,WD,ELC,1996,0.0
UTOPIA,UTOPIA,WD,ELC,1997,0.0
UTOPIA,UTOPIA,WD,ELC,1998,0.0
UTOPIA,UTOPIA,WD,ELC,1999,0.0
UTOPIA,UTOPIA,WD,ELC,2000,0.0
UTOPIA,UTOPIA,WD,ELC,2001,0.0
UTOPIA,UTOPIA,WD,ELC,2002,0.0
UTOPIA,UTOPIA,WD,ELC,2003,0.0
UTOPIA,UTOPIA,WD,ELC,2004,0.0
UTOPIA,UTOPIA,WD,ELC,2005,0.0
UTOPIA,UTOPIA,WD,ELC,2006,0.0
UTOPIA,UTOPIA,WD,ELC,2007,0.0
UTOPIA,UTOPIA,WD,ELC,2008,0.0
UTOPIA,UTOPIA,WD,ELC,2009,0.0
UTOPIA,UTOPIA,WD,ELC,2010,0.0
UTOPIA,UTOPIA,IN,LTH,1990,0.0
UTOPIA,UTOPIA,IN,LTH,1991,0.0
UTOPIA,UTOPIA,IN,LTH,1992,0.0
UTOPIA,UTOPIA,IN,LTH,1993,0.0
UTOPIA,UTOPIA,IN,LTH,1994,0.0
UTOPIA,UTOPIA,IN,LTH,1995,0.0
UTOPIA,UTOPIA,IN,LTH,1996,0.0
UTOPIA,UTOPIA,IN,LTH,1997,0.0
UTOPIA,UTOPIA,IN,LTH,1998,0.0
UTOPIA,UTOPIA,IN,LTH,1999,0.0
UTOPIA,UTOPIA,IN,LTH,2000,0.0
UTOPIA,UTOPIA,IN,LTH,2001,0.0
UTOPIA,UTOPIA,IN,LTH,2002,0.0
UTOPIA,UTOPIA,IN,LTH,2003,0.0
UTOPIA,UTOPIA,IN,LTH,2004,0.0
UTOPIA,UTOPIA,IN,LTH,2005,0.0
UTOPIA,UTOPIA,IN,LTH,2006,0.0
UTOPIA,UTOPIA,IN,LTH,2007,0.0
UTOPIA,UTOPIA,IN,LTH,2008,0.0
UTOPIA,UTOPIA,IN,LTH,2009,0.0
UTOPIA,UTOPIA,IN,LTH,2010,0.0
UTOPIA,UTOPIA,IN,HCO,1990,0.0
UTOPIA,UTOPIA,IN,HCO,1991,0.0
UTOPIA,UTOPIA,IN,HCO,1992,0.0
UTOPIA,UTOPIA,IN,HCO,1993,0.0
UTOPIA,UTOPIA,IN,HCO,1994,0.0
UTOPIA,UTOPIA,IN,HCO,1995,0.0
UTOPIA,UTOPIA,IN,HCO,1996,0.0
UTOPIA,UTOPIA,IN,HCO,1997,0.0
UTOPIA,UTOPIA,IN,HCO,1998,0.0
UTOPIA,UTOPIA,IN,HCO,1999,0.0
UTOPIA,UTOPIA,IN,HCO,2000,0.0
UTOPIA,UTOPIA,IN,HCO,2001,0.0
UTOPIA,UTOPIA,IN,HCO,2002,0.0
UTOPIA,UTOPIA,IN,HCO,2003,0.0
UTOPIA,UTOPIA,IN,HCO,2004,0.0
UTOPIA,UTOPIA,IN,HCO,2005,0.0
UTOPIA,UTOPIA,IN,HCO,2006,0.0
UTOPIA,UTOPIA,IN,HCO,2007,0.0
UTOPIA,UTOPIA,IN,HCO,2008,0.0
UTOPIA,UTOPIA,IN,HCO,2009,0.0
UTOPIA,UTOPIA,IN,HCO,2010,0.0
UTOPIA,UTOPIA,IN,OIL,1990,0.0
UTOPIA,UTOPIA,IN,OIL,1991,0.0
UTOPIA,UTOPIA,IN,OIL,1992,0.0
UTOPIA,UTOPIA,IN,OIL,1993,0.0
UTOPIA,UTOPIA,IN,OIL,1994,0.0
UTOPIA,UTOPIA,IN,OIL,1995,0.0
UTOPIA,UTOPIA,IN,OIL,1996,0.0
UTOPIA,UTOPIA,IN,OIL,1997,0.0
UTOPIA,UTOPIA,IN,OIL,1998,0.0
UTOPIA,UTOPIA,IN,OIL,1999,0.0
UTOPIA,UTOPIA,IN,OIL,2000,0.0
UTOPIA,UTOPIA,IN,OIL,2001,0.0
UTOPIA,UTOPIA,IN,OIL,2002,0.0
UTOPIA,UTOPIA,IN,OIL,2003,0.0
UTOPIA,UTOPIA,IN,OIL,2004,0.0
UTOPIA,UTOPIA,IN,OIL,2005,0.0
UTOPIA,UTOPIA,IN,OIL,2006,0.0
UTOPIA,UTOPIA,IN,OIL,2007,0.0
UTOPIA,UTOPIA,IN,OIL,2008,0.0
UTOPIA,UTOPIA,IN,OIL,2009,0.0
UTOPIA,UTOPIA,IN,OIL,2010,0.0
UTOPIA,UTOPIA,IN,CSV,1990,0.0
UTOPIA,UTOPIA,IN,CSV,1991,0.0
UTOPIA,UTOPIA,IN,CSV,1992,0.0
UTOPIA,UTOPIA,IN,CSV,1993,0.0
UTOPIA,UTOPIA,IN,CSV,1994,0.0
UTOPIA,UTOPIA,IN,CSV,1995,0.0
UTOPIA,UTOPIA,IN,CSV,1996,0.0
UTOPIA,UTOPIA,IN,CSV,1997,0.0
UTOPIA,UTOPIA,IN,CSV,1998,0.0
UTOPIA,UTOPIA,IN,CSV,1999,0.0
UTOPIA,UTOPIA,IN,CSV,2000,0.0
UTOPIA,UTOPIA,IN,CSV,2001,0.0
UTOPIA,UTOPIA,IN,CSV,2002,0.0
UTOPIA,UTOPIA,IN,CSV,2003,0.0
UTOPIA,UTOPIA,IN,CSV,2004,0.0
UTOPIA,UTOPIA,IN,CSV,2005,0.0
UTOPIA,UTOPIA,IN,CSV,2006,0.0
UTOPIA,UTOPIA,IN,CSV,2007,0.0
UTOPIA,UTOPIA,IN,CSV,2008,0.0
UTOPIA,UTOPIA,IN,CSV,2009,0.0
UTOPIA,UTOPIA,IN,CSV,2010,0.0
UTOPIA,UTOPIA,IN,DSL,1990,0.0
UTOPIA,UTOPIA,IN,DSL,1991,0.0
UTOPIA,UTOPIA,IN,DSL,1992,0.0
UTOPIA,UTOPIA,IN,DSL,1993,0.0
UTOPIA,UTOPIA,IN,DSL,1994,0.0
UTOPIA,UTOPIA,IN,DSL,1995,0.0
UTOPIA,UTOPIA,IN,DSL,1996,0.0
UTOPIA,UTOPIA,IN,DSL,1997,0.0
UTOPIA,UTOPIA,IN,DSL,1998,0.0
UTOPIA,UTOPIA,IN,DSL,1999,0.0
UTOPIA,UTOPIA,IN,DSL,2000,0.0
UTOPIA,UTOPIA,IN,DSL,2001,0.0
UTOPIA,UTOPIA,IN,DSL,2002,0.0
UTOPIA,UTOPIA,IN,DSL,2003,0.0
UTOPIA,UTOPIA,IN,DSL,2004,0.0
UTOPIA,UTOPIA,IN,DSL,2005,0.0
UTOPIA,UTOPIA,IN,DSL,2006,0.0
UTOPIA,UTOPIA,IN,DSL,2007,0.0
UTOPIA,UTOPIA,IN,DSL,2008,0.0
UTOPIA,UTOPIA,IN,DSL,2009,0.0
UTOPIA,UTOPIA,IN,DSL,2010,0.0
UTOPIA,UTOPIA,IN,HYD,1990,0.0
UTOPIA,UTOPIA,IN,HYD,1991,0.0
UTOPIA,UTOPIA,IN,HYD,1992,0.0
UTOPIA,UTOPIA,IN,HYD,1993,0.0
UTOPIA,UTOPIA,IN,HYD,1994,0.0
UTOPIA,UTOPIA,IN,HYD,1995,0.0
UTOPIA,UTOPIA,IN,HYD,1996,0.0
UTOPIA,UTOPIA,IN,HYD,1997,0.0
UTOPIA,UTOPIA,IN,HYD,1998,0.0
UTOPIA,UTOPIA,IN,HYD,1999,0.0
UTOPIA,UTOPIA,IN,HYD,2000,0.0
UTOPIA,UTOPIA,IN,HYD,2001,0.0
UTOPIA,UTOPIA,IN,HYD,2002,0.0
UTOPIA,UTOPIA,IN,HYD,2003,0.0
UTOPIA,UTOPIA,IN,HYD,2004,0.0
UTOPIA,UTOPIA,IN,HYD,2005,0.0
UTOPIA,UTOPIA,IN,HYD,2006,0.0
UTOPIA,UTOPIA,IN,HYD,2007,0.0
UTOPIA,UTOPIA,IN,HYD,2008,0.0
UTOPIA,UTOPIA,IN,HYD,2009,0.0
UTOPIA,UTOPIA,IN,HYD,2010,0.0
UTOPIA,UTOPIA,IN,TX,1990,0.0
UTOPIA,UTOPIA,IN,TX,1991,0.0
UTOPIA,UTOPIA,IN,TX,1992,0.0
UTOPIA,UTOPIA,IN,TX,1993,0.0
UTOPIA,UTOPIA,IN,TX,1994,0.0
UTOPIA,UTOPIA,IN,TX,1995,0.0
UTOPIA,UTOPIA,IN,TX,1996,0.0
UTOPIA,UTOPIA,IN,TX,1997,0.0
UTOPIA,UTOPIA,IN,TX,1998,0.0
UTOPIA,UTOPIA,IN,TX,1999,0.0
UTOPIA,UTOPIA,IN,TX,2000,0.0
UTOPIA,UTOPIA,IN,TX,2001,0.0
UTOPIA,UTOPIA,IN,TX,2002,0.0
UTOPIA,UTOPIA,IN,TX,2003,0.0
UTOPIA,UTOPIA,IN,TX,2004,0.0
UTOPIA,UTOPIA,IN,TX,2005,0.0
UTOPIA,UTOPIA,IN,TX,2006,0.0
UTOPIA,UTOPIA,IN,TX,2007,0.0
UTOPIA,UTOPIA,IN,TX,2008,0.0
UTOPIA,UTOPIA,IN,TX,2009,0.0
UTOPIA,UTOPIA,IN,TX,2010,0.0
UTOPIA,UTOPIA,IN,GSL,1990,0.0
UTOPIA,UTOPIA,IN,GSL,1991,0.0
UTOPIA,UTOPIA,IN,GSL,1992,0.0
UTOPIA,UTOPIA,IN,GSL,1993,0.0
UTOPIA,UTOPIA,IN,GSL,1994,0.0
UTOPIA,UTOPIA,IN,GSL,1995,0.0
UTOPIA,UTOPIA,IN,GSL,1996,0.0
UTOPIA,UTOPIA,IN,GSL,1997,0.0
UTOPIA,UTOPIA,IN,GSL,1998,0.0
UTOPIA,UTOPIA,IN,GSL,1999,0.0
UTOPIA,UTOPIA,IN,GSL,2000,0.0
UTOPIA,UTOPIA,IN,GSL,2001,0.0
UTOPIA,UTOPIA,IN,GSL,2002,0.0
UTOPIA,UTOPIA,IN,GSL,2003,0.0
UTOPIA,UTOPIA,IN,GSL,2004,0.0
UTOPIA,UTOPIA,IN,GSL,2005,0.0
UTOPIA,UTOPIA,IN,GSL,2006,0.0
UTOPIA,UTOPIA,IN,GSL,2007,0.0
UTOPIA,UTOPIA,IN,GSL,2008,0.0
UTOPIA,UTOPIA,IN,GSL,2009,0.0
UTOPIA,UTOPIA,IN,GSL,2010,0.0
UTOPIA,UTOPIA,IN,RL,1990,0.0
UTOPIA,UTOPIA,IN,RL,1991,0.0
UTOPIA,UTOPIA,IN,RL,1992,0.0
UTOPIA,UTOPIA,IN,RL,1993,0.0
UTOPIA,UTOPIA,IN,RL,1994,0.0
UTOPIA,UTOPIA,IN,RL,1995,0.0
UTOPIA,UTOPIA,IN,RL,1996,0.0
UTOPIA,UTOPIA,IN,RL,1997,0.0
UTOPIA,UTOPIA,IN,RL,1998,0.0
UTOPIA,UTOPIA,IN,RL,1999,0.0
UTOPIA,UTOPIA,IN,RL,2000,0.0
UTOPIA,UTOPIA,IN,RL,2001,0.0
UTOPIA,UTOPIA,IN,RL,2002,0.0
UTOPIA,UTOPIA,IN,RL,2003,0.0
UTOPIA,UTOPIA,IN,RL,2004,0.0
UTOPIA,UTOPIA,IN,RL,2005,0.0
UTOPIA,UTOPIA,IN,RL,2006,0.0
UTOPIA,UTOPIA,IN,RL,2007,0.0
UTOPIA,UTOPIA,IN,RL,2008,0.0
UTOPIA,UTOPIA,IN,RL,2009,0.0
UTOPIA,UTOPIA,IN,RL,2010,0.0
UTOPIA,UTOPIA,IN,RH,1990,0.0
UTOPIA,UTOPIA,IN,RH,1991,0.0
UTOPIA,UTOPIA,IN,RH,1992,0.0
UTOPIA,UTOPIA,IN,RH,1993,0.0
UTOPIA,UTOPIA,IN,RH,1994,0.0
UTOPIA,UTOPIA,IN,RH,1995,0.0
UTOPIA,UTOPIA,IN,RH,1996,0.0
UTOPIA,UTOPIA,IN,RH,1997,0.0
UTOPIA,UTOPIA,IN,RH,1998,0.0
UTOPIA,UTOPIA,IN,RH,1999,0.0
UTOPIA,UTOPIA,IN,RH,2000,0.0
UTOPIA,UTOPIA,IN,RH,2001,0.0
UTOPIA,UTOPIA,IN,RH,2002,0.0
UTOPIA,UTOPIA,IN,RH,2003,0.0
UTOPIA,UTOPIA,IN,RH,2004,0.0
UTOPIA,UTOPIA,IN,RH,2005,0.0
UTOPIA,UTOPIA,IN,RH,2006,0.0
UTOPIA,UTOPIA,IN,RH,2007,0.0
UTOPIA,UTOPIA,IN,RH,2008,0.0
UTOPIA,UTOPIA,IN,RH,2009,0.0
UTOPIA,UTOPIA,IN,RH,2010,0.0
UTOPIA,UTOPIA,IN,URN,1990,0.0
UTOPIA,UTOPIA,IN,URN,1991,0.0
UTOPIA,UTOPIA,IN,URN,1992,0.0
UTOPIA,UTOPIA,IN,URN,1993,0.0
UTOPIA,UTOPIA,IN,URN,1994,0.0
UTOPIA,UTOPIA,IN,URN,1995,0.0
UTOPIA,UTOPIA,IN,URN,1996,0.0
UTOPIA,UTOPIA,IN,URN,1997,0.0
UTOPIA,UTOPIA,IN,URN,1998,0.0
UTOPIA,UTOPIA,IN,URN,1999,0.0
UTOPIA,UTOPIA,IN,URN,2000,0.0
UTOPIA,UTOPIA,IN,URN,2001,0.0
UTOPIA,UTOPIA,IN,URN,2002,0.0
UTOPIA,UTOPIA,IN,URN,2003,0.0
UTOPIA,UTOPIA,IN,URN,2004,0.0
UTOPIA,UTOPIA,IN,URN,2005,0.0
UTOPIA,UTOPIA,IN,URN,2006,0.0
UTOPIA,UTOPIA,IN,URN,2007,0.0
UTOPIA,UTOPIA,IN,URN,2008,0.0
UTOPIA,UTOPIA,IN,URN,2009,0.0
UTOPIA,UTOPIA,IN,URN,2010,0.0
UTOPIA,UTOPIA,IN,ELC,1990,0.0
UTOPIA,UTOPIA,IN,ELC,1991,0.0
UTOPIA,UTOPIA,IN,ELC,1992,0.0
UTOPIA,UTOPIA,IN,ELC,1993,0.0
UTOPIA,UTOPIA,IN,ELC,1994,0.0
UTOPIA,UTOPIA,IN,ELC,1995,0.0
UTOPIA,UTOPIA,IN,ELC,1996,0.0
UTOPIA,UTOPIA,IN,ELC,1997,0.0
UTOPIA,UTOPIA,IN,ELC,1998,0.0
UTOPIA,UTOPIA,IN,ELC,1999,0.0
UTOPIA,UTOPIA,IN,ELC,2000,0.0
UTOPIA,UTOPIA,IN,ELC,2001,0.0
UTOPIA,UTOPIA,IN,ELC,2002,0.0
UTOPIA,UTOPIA,IN,ELC,2003,0.0
UTOPIA,UTOPIA,IN,ELC,2004,0.0
UTOPIA,UTOPIA,IN,ELC,2005,0.0
UTOPIA,UTOPIA,IN,ELC,2006,0.0
UTOPIA,UTOPIA,IN,ELC,2007,0.0
UTOPIA,UTOPIA,IN,ELC,2008,0.0
UTOPIA,UTOPIA,IN,ELC,2009,0.0
UTOPIA,UTOPIA,IN,ELC,2010,0.0
