REGION,TECHNOLOGY,YEAR,DiscountedOperatingCost
UTOPIA,RHE,1990,0.0
UTOPIA,RHE,1991,0.0
UTOPIA,RHE,1992,0.0
UTOPIA,RHE,1993,0.0
UTOPIA,RHE,1994,0.0
UTOPIA,RHE,1995,0.0
UTOPIA,RHE,1996,0.0
UTOPIA,RHE,1997,0.0
UTOPIA,RHE,1998,0.0
UTOPIA,RHE,1999,0.0
UTOPIA,RHE,2000,0.000534571925620452
UTOPIA,RHE,2001,0.000595362576287464
UTOPIA,RHE,2002,0.000486104966185315
UTOPIA,RHE,2003,0.000463544001743863
UTOPIA,RHE,2004,0.000462887492203234
UTOPIA,RHE,2005,0.000442205259398647
UTOPIA,RHE,2006,0.000401947673052506
UTOPIA,RHE,2007,0.000383290144422202
UTOPIA,RHE,2008,0.000423113067625671
UTOPIA,RHE,2009,0.000402964826310163
UTOPIA,RHE,2010,0.000351807482170025
UTOPIA,E21,1990,0.0
UTOPIA,E21,1991,0.0
UTOPIA,E21,1992,0.0
UTOPIA,E21,1993,0.0
UTOPIA,E21,1994,0.0
UTOPIA,E21,1995,0.0
UTOPIA,E21,1996,0.0
UTOPIA,E21,1997,0.0
UTOPIA,E21,1998,0.0
UTOPIA,E21,1999,0.0
UTOPIA,E21,2000,756.033167902223
UTOPIA,E21,2001,768.144457521794
UTOPIA,E21,2002,780.382298723442
UTOPIA,E21,2003,789.712863270182
UTOPIA,E21,2004,799.513931330979
UTOPIA,E21,2005,803.735413046654
UTOPIA,E21,2006,808.456290830669
UTOPIA,E21,2007,839.298380782708
UTOPIA,E21,2008,804.061775850152
UTOPIA,E21,2009,832.18634957481
UTOPIA,E21,2010,795.159633762023
UTOPIA,IMPDSL1,1990,-0.0
UTOPIA,IMPDSL1,1991,-0.0
UTOPIA,IMPDSL1,1992,-0.0
UTOPIA,IMPDSL1,1993,-0.0
UTOPIA,IMPDSL1,1994,-0.0
UTOPIA,IMPDSL1,1995,-0.0
UTOPIA,IMPDSL1,1996,-0.0
UTOPIA,IMPDSL1,1997,-0.0
UTOPIA,IMPDSL1,1998,-0.0
UTOPIA,IMPDSL1,1999,-0.0
UTOPIA,IMPDSL1,2000,-0.0
UTOPIA,IMPDSL1,2001,-0.0
UTOPIA,IMPDSL1,2002,-0.0
UTOPIA,IMPDSL1,2003,-0.0
UTOPIA,IMPDSL1,2004,-0.0
UTOPIA,IMPDSL1,2005,-0.0
UTOPIA,IMPDSL1,2006,-0.0
UTOPIA,IMPDSL1,2007,-0.0
UTOPIA,IMPDSL1,2008,-0.0
UTOPIA,IMPDSL1,2009,-0.0
UTOPIA,IMPDSL1,2010,-0.0
UTOPIA,E70,1990,8.7831006565368
UTOPIA,E70,1991,8.36485776813029
UTOPIA,E70,1992,7.70098016748502
UTOPIA,E70,1993,7.33426682617621
UTOPIA,E70,1994,6.74415340338042
UTOPIA,E70,1995,6.42300324131469
UTOPIA,E70,1996,5.89867644610533
UTOPIA,E70,1997,5.61778709152888
UTOPIA,E70,1998,5.15211514567023
UTOPIA,E70,1999,4.90677632920974
UTOPIA,E70,2000,4.49338491685874
UTOPIA,E70,2001,4.45059077479342
UTOPIA,E70,2002,4.23865788075563
UTOPIA,E70,2003,4.19207922272535
UTOPIA,E70,2004,3.99245640259557
UTOPIA,E70,2005,3.94316681737834
UTOPIA,E70,2006,3.75539696893176
UTOPIA,E70,2007,3.70430313261976
UTOPIA,E70,2008,3.52790774535215
UTOPIA,E70,2009,3.47577117768685
UTOPIA,E70,2010,2.20683884297578
UTOPIA,IMPOIL1,1990,-0.0
UTOPIA,IMPOIL1,1991,-0.0
UTOPIA,IMPOIL1,1992,-0.0
UTOPIA,IMPOIL1,1993,-0.0
UTOPIA,IMPOIL1,1994,-0.0
UTOPIA,IMPOIL1,1995,-0.0
UTOPIA,IMPOIL1,1996,-0.0
UTOPIA,IMPOIL1,1997,-0.0
UTOPIA,IMPOIL1,1998,-0.0
UTOPIA,IMPOIL1,1999,-0.0
UTOPIA,IMPOIL1,2000,3.27771508990125e-17
UTOPIA,IMPOIL1,2001,9.679525868222e-15
UTOPIA,IMPOIL1,2002,-0.0
UTOPIA,IMPOIL1,2003,-0.0
UTOPIA,IMPOIL1,2004,1.36051555242582e-15
UTOPIA,IMPOIL1,2005,4.0082058746688e-15
UTOPIA,IMPOIL1,2006,2.17525834510281e-15
UTOPIA,IMPOIL1,2007,-0.0
UTOPIA,IMPOIL1,2008,-0.0
UTOPIA,IMPOIL1,2009,-0.0
UTOPIA,IMPOIL1,2010,-0.0
UTOPIA,TXD,1990,30.4480827637491
UTOPIA,TXD,1991,28.9981740607134
UTOPIA,TXD,1992,23.0144234890357
UTOPIA,TXD,1993,21.9184999658779
UTOPIA,TXD,1994,16.6998084274185
UTOPIA,TXD,1995,15.9045794546843
UTOPIA,TXD,1996,15.1472185282708
UTOPIA,TXD,1997,10.8194418059078
UTOPIA,TXD,1998,10.3042302913407
UTOPIA,TXD,1999,6.54236843894657
UTOPIA,TXD,2000,6.23082718452407
UTOPIA,TXD,2001,5.93412112811816
UTOPIA,TXD,2002,5.65154384100772
UTOPIA,TXD,2003,2.69121135286092
UTOPIA,TXD,2004,2.56305843129612
UTOPIA,TXD,2005,2.44100802980583
UTOPIA,TXD,2006,2.32476955219602
UTOPIA,TXD,2007,2.21406655952317
UTOPIA,TXD,2008,0.0
UTOPIA,TXD,2009,0.0
UTOPIA,TXD,2010,0.0
UTOPIA,RHO,1990,24.3975424943489
UTOPIA,RHO,1991,22.1204385282096
UTOPIA,RHO,1992,19.9163612198766
UTOPIA,RHO,1993,17.9563383696665
UTOPIA,RHO,1994,16.0575348711527
UTOPIA,RHO,1995,14.3753169322701
UTOPIA,RHO,1996,12.7440752945657
UTOPIA,RHO,1997,11.3049484245671
UTOPIA,RHO,1998,9.90793025816572
UTOPIA,RHO,1999,8.68123413096425
UTOPIA,RHO,2000,7.48897486143123
UTOPIA,RHO,2001,6.44765073784174
UTOPIA,RHO,2002,5.43417677019953
UTOPIA,RHO,2003,4.55435767407199
UTOPIA,RHO,2004,3.6967188912922
UTOPIA,RHO,2005,2.95737511303376
UTOPIA,RHO,2006,2.23535533864985
UTOPIA,RHO,2007,1.61797148321323
UTOPIA,RHO,2008,1.013766593492
UTOPIA,RHO,2009,0.502055836776989
UTOPIA,RHO,2010,0.0
UTOPIA,E01,1990,19.5180014589707
UTOPIA,E01,1991,18.5885728180673
UTOPIA,E01,1992,17.7034026838736
UTOPIA,E01,1993,13.4883068067608
UTOPIA,E01,1994,12.8460064826294
UTOPIA,E01,1995,12.2342918882185
UTOPIA,E01,1996,11.6517065602081
UTOPIA,E01,1997,11.0968633906743
UTOPIA,E01,1998,10.5684413244518
UTOPIA,E01,1999,7.54888666032268
UTOPIA,E01,2000,7.66871025810558
UTOPIA,E01,2001,6.84706273045141
UTOPIA,E01,2002,6.52101212423943
UTOPIA,E01,2003,6.21048773737089
UTOPIA,E01,2004,5.91475022606751
UTOPIA,E01,2005,3.75539696893176
UTOPIA,E01,2006,3.57656854183977
UTOPIA,E01,2007,3.40625575413311
UTOPIA,E01,2008,3.24405309917439
UTOPIA,E01,2009,3.08957438016609
UTOPIA,E01,2010,2.20683884297578
UTOPIA,IMPGSL1,1990,-0.0
UTOPIA,IMPGSL1,1991,-0.0
UTOPIA,IMPGSL1,1992,-0.0
UTOPIA,IMPGSL1,1993,-0.0
UTOPIA,IMPGSL1,1994,-0.0
UTOPIA,IMPGSL1,1995,-0.0
UTOPIA,IMPGSL1,1996,-0.0
UTOPIA,IMPGSL1,1997,-0.0
UTOPIA,IMPGSL1,1998,-0.0
UTOPIA,IMPGSL1,1999,-0.0
UTOPIA,IMPGSL1,2000,-0.0
UTOPIA,IMPGSL1,2001,-0.0
UTOPIA,IMPGSL1,2002,-0.0
UTOPIA,IMPGSL1,2003,-0.0
UTOPIA,IMPGSL1,2004,-0.0
UTOPIA,IMPGSL1,2005,-0.0
UTOPIA,IMPGSL1,2006,-0.0
UTOPIA,IMPGSL1,2007,-0.0
UTOPIA,IMPGSL1,2008,-0.0
UTOPIA,IMPGSL1,2009,-0.0
UTOPIA,IMPGSL1,2010,-0.0
UTOPIA,TXG,1990,-0.0
UTOPIA,TXG,1991,-0.0
UTOPIA,TXG,1992,-0.0
UTOPIA,TXG,1993,-0.0
UTOPIA,TXG,1994,-0.0
UTOPIA,TXG,1995,-0.0
UTOPIA,TXG,1996,-2.72662120791437e-15
UTOPIA,TXG,1997,0.0
UTOPIA,TXG,1998,-2.4731260697845e-15
UTOPIA,TXG,1999,-2.35535816169952e-15
UTOPIA,TXG,2000,-2.24319823694621e-15
UTOPIA,TXG,2001,-2.13637932206331e-15
UTOPIA,TXG,2002,-2.03464693808403e-15
UTOPIA,TXG,2003,-1.93775898865146e-15
UTOPIA,TXG,2004,-1.84548424090329e-15
UTOPIA,TXG,2005,-1.75760302177673e-15
UTOPIA,TXG,2006,-1.67390825556758e-15
UTOPIA,TXG,2007,-1.59419922624417e-15
UTOPIA,TXG,2008,-1.5182849773754e-15
UTOPIA,TXG,2009,-1.44598574292622e-15
UTOPIA,TXG,2010,-1.3771292311795e-15
UTOPIA,RL1,1990,122.795544613526
UTOPIA,RL1,1991,111.6727033638
UTOPIA,RL1,1992,102.168103328312
UTOPIA,RL1,1993,92.5179810715283
UTOPIA,RL1,1994,84.3147672365047
UTOPIA,RL1,1995,75.9596628145022
UTOPIA,RL1,1996,88.601614911467
UTOPIA,RL1,1997,81.1019820939563
UTOPIA,RL1,1998,73.4908302362531
UTOPIA,RL1,1999,172.002575519548
UTOPIA,RL1,2000,116.764480475078
UTOPIA,RL1,2001,111.204269515594
UTOPIA,RL1,2002,105.908830392444
UTOPIA,RL1,2003,100.865554928379
UTOPIA,RL1,2004,96.0624353352854
UTOPIA,RL1,2005,91.4880356242361
UTOPIA,RL1,2006,74.6122281003976
UTOPIA,RL1,2007,71.0592657516637
UTOPIA,RL1,2008,67.6754920436246
UTOPIA,RL1,2009,69.056628836331
UTOPIA,RL1,2010,65.7682231178761
UTOPIA,E31,1990,9.5150257112482
UTOPIA,E31,1991,9.75900072948533
UTOPIA,E31,1992,9.29428640903365
UTOPIA,E31,1993,9.48396572350372
UTOPIA,E31,1994,9.03234830809878
UTOPIA,E31,1995,8.6022364839036
UTOPIA,E31,1996,8.73877992015604
UTOPIA,E31,1997,8.32264754300575
UTOPIA,E31,1998,7.92633099333881
UTOPIA,E31,1999,7.54888666032268
UTOPIA,E31,2000,7.64325425158815
UTOPIA,E31,2001,8.60162987917034
UTOPIA,E31,2002,8.19202845635271
UTOPIA,E31,2003,7.80193186319306
UTOPIA,E31,2004,7.4304112982791
UTOPIA,E31,2005,7.07658247426566
UTOPIA,E31,2006,6.73960308525874
UTOPIA,E31,2007,6.41866986676324
UTOPIA,E31,2008,6.11301892072689
UTOPIA,E31,2009,5.82192298353333
UTOPIA,E31,2010,5.7957169964548
UTOPIA,TXU,1990,507462.963252858
UTOPIA,TXU,1991,470286.18938818
UTOPIA,TXU,1992,435499.350986231
UTOPIA,TXU,1993,402959.136220321
UTOPIA,TXU,1994,372530.462654372
UTOPIA,TXU,1995,344086.01846155
UTOPIA,TXU,1996,317505.828675632
UTOPIA,TXU,1997,292676.845131316
UTOPIA,TXU,1998,269492.558820982
UTOPIA,TXU,1999,247852.633462808
UTOPIA,TXU,2000,227662.559139151
UTOPIA,TXU,2001,204782.186654239
UTOPIA,TXU,2002,183564.655632427
UTOPIA,TXU,2003,163903.483150891
UTOPIA,TXU,2004,145698.556901991
UTOPIA,TXU,2005,128855.769925886
UTOPIA,TXU,2006,113286.675684689
UTOPIA,TXU,2007,98908.1623691257
UTOPIA,TXU,2008,85642.1453881856
UTOPIA,TXU,2009,73415.2770485846
UTOPIA,TXU,2010,62158.6724842102
UTOPIA,TXE,1990,0.0
UTOPIA,TXE,1991,37.1771493538492
UTOPIA,TXE,1992,70.8136178168555
UTOPIA,TXE,1993,101.162311166936
UTOPIA,TXE,1994,128.4600776723
UTOPIA,TXE,1995,152.928663895596
UTOPIA,TXE,1996,174.775615880681
UTOPIA,TXE,1997,194.195128756312
UTOPIA,TXE,1998,211.368847625918
UTOPIA,TXE,1999,226.46662245634
UTOPIA,TXE,2000,239.647219530519
UTOPIA,TXE,2001,262.470764247711
UTOPIA,TXE,2002,282.577220308095
UTOPIA,TXE,2003,300.173603990284
UTOPIA,TXE,2004,315.453376935602
UTOPIA,TXE,2005,328.597267641252
UTOPIA,TXE,2006,339.774045452179
UTOPIA,TXE,2007,349.141249712765
UTOPIA,TXE,2008,356.845876593767
UTOPIA,TXE,2009,363.025025972014
UTOPIA,TXE,2010,367.806510609943
UTOPIA,IMPURN1,1990,-0.0
UTOPIA,IMPURN1,1991,-0.0
UTOPIA,IMPURN1,1992,-0.0
UTOPIA,IMPURN1,1993,-0.0
UTOPIA,IMPURN1,1994,-0.0
UTOPIA,IMPURN1,1995,-0.0
UTOPIA,IMPURN1,1996,-0.0
UTOPIA,IMPURN1,1997,-0.0
UTOPIA,IMPURN1,1998,-0.0
UTOPIA,IMPURN1,1999,-0.0
UTOPIA,IMPURN1,2000,41.1848259306083
UTOPIA,IMPURN1,2001,42.0522467963501
UTOPIA,IMPURN1,2002,42.9581302610775
UTOPIA,IMPURN1,2003,43.6823825414175
UTOPIA,IMPURN1,2004,48.411861779005
UTOPIA,IMPURN1,2005,48.78443584155
UTOPIA,IMPURN1,2006,52.6313110563185
UTOPIA,IMPURN1,2007,45.1392610333174
UTOPIA,IMPURN1,2008,49.2962088161427
UTOPIA,IMPURN1,2009,47.9104603034314
UTOPIA,IMPURN1,2010,49.0971142873501
UTOPIA,IMPHCO1,1990,-0.0
UTOPIA,IMPHCO1,1991,-0.0
UTOPIA,IMPHCO1,1992,-0.0
UTOPIA,IMPHCO1,1993,-0.0
UTOPIA,IMPHCO1,1994,-0.0
UTOPIA,IMPHCO1,1995,-0.0
UTOPIA,IMPHCO1,1996,-0.0
UTOPIA,IMPHCO1,1997,-0.0
UTOPIA,IMPHCO1,1998,-0.0
UTOPIA,IMPHCO1,1999,-0.0
UTOPIA,IMPHCO1,2000,-0.0
UTOPIA,IMPHCO1,2001,-0.0
UTOPIA,IMPHCO1,2002,-0.0
UTOPIA,IMPHCO1,2003,-0.0
UTOPIA,IMPHCO1,2004,-0.0
UTOPIA,IMPHCO1,2005,-0.0
UTOPIA,IMPHCO1,2006,-0.0
UTOPIA,IMPHCO1,2007,-0.0
UTOPIA,IMPHCO1,2008,-0.0
UTOPIA,IMPHCO1,2009,-0.0
UTOPIA,IMPHCO1,2010,-0.0
UTOPIA,E51,1990,87.83116352289
UTOPIA,E51,1991,83.6487271646571
UTOPIA,E51,1992,79.6654544425305
UTOPIA,E51,1993,75.8718613738386
UTOPIA,E51,1994,72.258915594132
UTOPIA,E51,1995,68.8180148515543
UTOPIA,E51,1996,65.5409665252898
UTOPIA,E51,1997,62.4199681193236
UTOPIA,E51,1998,59.4475886850701
UTOPIA,E51,1999,56.6167511286382
UTOPIA,E51,2000,53.9207153606078
UTOPIA,E51,2001,51.3530622481979
UTOPIA,E51,2002,48.9076783316171
UTOPIA,E51,2003,46.5787412682067
UTOPIA,E51,2004,44.3607059697207
UTOPIA,E51,2005,42.248291399734
UTOPIA,E51,2006,40.2364679997466
UTOPIA,E51,2007,38.3204457140444
UTOPIA,E51,2008,36.4956625848042
UTOPIA,E51,2009,34.7577738902897
UTOPIA,E51,2010,33.1026418002759
UTOPIA,RLU,1990,-0.0
UTOPIA,RLU,1991,-0.0
UTOPIA,RLU,1992,-0.0
UTOPIA,RLU,1993,-0.0
UTOPIA,RLU,1994,-0.0
UTOPIA,RLU,1995,-0.0
UTOPIA,RLU,1996,-0.0
UTOPIA,RLU,1997,-0.0
UTOPIA,RLU,1998,-0.0
UTOPIA,RLU,1999,-0.0
UTOPIA,RLU,2000,-0.0
UTOPIA,RLU,2001,-0.0
UTOPIA,RLU,2002,-0.0
UTOPIA,RLU,2003,-0.0
UTOPIA,RLU,2004,-0.0
UTOPIA,RLU,2005,-0.0
UTOPIA,RLU,2006,-0.0
UTOPIA,RLU,2007,-0.0
UTOPIA,RLU,2008,-0.0
UTOPIA,RLU,2009,-0.0
UTOPIA,RLU,2010,-0.0
UTOPIA,RIV,1990,-0.0
UTOPIA,RIV,1991,-0.0
UTOPIA,RIV,1992,-0.0
UTOPIA,RIV,1993,-0.0
UTOPIA,RIV,1994,-0.0
UTOPIA,RIV,1995,-0.0
UTOPIA,RIV,1996,-0.0
UTOPIA,RIV,1997,-0.0
UTOPIA,RIV,1998,-0.0
UTOPIA,RIV,1999,-0.0
UTOPIA,RIV,2000,2.03375357584961e-05
UTOPIA,RIV,2001,2.28876273758165e-05
UTOPIA,RIV,2002,2.17977403579205e-05
UTOPIA,RIV,2003,2.07597527218291e-05
UTOPIA,RIV,2004,1.97711930684086e-05
UTOPIA,RIV,2005,1.97216714994115e-05
UTOPIA,RIV,2006,2.10600919558206e-05
UTOPIA,RIV,2007,2.08752145537172e-05
UTOPIA,RIV,2008,1.98811567178259e-05
UTOPIA,RIV,2009,1.78447758852241e-05
UTOPIA,RIV,2010,2.02659052131558e-05
UTOPIA,RHU,1990,2459243.59114846
UTOPIA,RHU,1991,2459243.59114846
UTOPIA,RHU,1992,2453667.07506876
UTOPIA,RHU,1993,2443045.13967885
UTOPIA,RHU,1994,2427870.9462647
UTOPIA,RHU,1995,2408602.12923085
UTOPIA,RHU,1996,2385663.06133342
UTOPIA,RHU,1997,2359446.98373635
UTOPIA,RHU,1998,2330318.00862849
UTOPIA,RHU,1999,2298613.00170837
UTOPIA,RHU,2000,-0.0
UTOPIA,RHU,2001,-0.0
UTOPIA,RHU,2002,-0.0
UTOPIA,RHU,2003,-0.0
UTOPIA,RHU,2004,-0.0
UTOPIA,RHU,2005,-0.0
UTOPIA,RHU,2006,-0.0
UTOPIA,RHU,2007,-0.0
UTOPIA,RHU,2008,-0.0
UTOPIA,RHU,2009,-0.0
UTOPIA,RHU,2010,-0.0
UTOPIA,SRE,1990,0.0
UTOPIA,SRE,1991,0.0
UTOPIA,SRE,1992,0.0
UTOPIA,SRE,1993,0.0
UTOPIA,SRE,1994,0.0
UTOPIA,SRE,1995,0.0
UTOPIA,SRE,1996,0.0
UTOPIA,SRE,1997,0.0
UTOPIA,SRE,1998,0.0
UTOPIA,SRE,1999,0.0
UTOPIA,SRE,2000,4.99564350050667e-08
UTOPIA,SRE,2001,4.75775571476705e-08
UTOPIA,SRE,2002,0.0
UTOPIA,SRE,2003,0.0
UTOPIA,SRE,2004,0.0
UTOPIA,SRE,2005,0.0
UTOPIA,SRE,2006,0.0
UTOPIA,SRE,2007,0.0
UTOPIA,SRE,2008,0.0
UTOPIA,SRE,2009,9.66457485795945e-08
UTOPIA,SRE,2010,1.22712487625062e-07
