REGION,TECHNOLOGY,YEAR,NewCapacity
UTOPIA,RHE,1990,0.0
UTOPIA,RHE,1991,0.0
UTOPIA,RHE,1992,0.0
UTOPIA,RHE,1993,0.0
UTOPIA,RHE,1994,0.0
UTOPIA,RHE,1995,0.0
UTOPIA,RHE,1996,0.0
UTOPIA,RHE,1997,0.0
UTOPIA,RHE,1998,0.0
UTOPIA,RHE,1999,0.0
UTOPIA,RHE,2000,3.36673267326732
UTOPIA,RHE,2001,4.30009900990097
UTOPIA,RHE,2002,4.40009900990099
UTOPIA,RHE,2003,4.30009900990101
UTOPIA,RHE,2004,4.40009900990102
UTOPIA,RHE,2005,4.30009900990095
UTOPIA,RHE,2006,4.40009900990099
UTOPIA,RHE,2007,4.30009900990101
UTOPIA,RHE,2008,4.40009900990097
UTOPIA,RHE,2009,4.30009900990103
UTOPIA,RHE,2010,4.40009900990096
UTOPIA,E21,1990,0.0
UTOPIA,E21,1991,0.0
UTOPIA,E21,1992,0.0
UTOPIA,E21,1993,0.0
UTOPIA,E21,1994,0.0
UTOPIA,E21,1995,0.0
UTOPIA,E21,1996,0.0
UTOPIA,E21,1997,0.0
UTOPIA,E21,1998,0.0
UTOPIA,E21,1999,0.0
UTOPIA,E21,2000,0.0
UTOPIA,E21,2001,0.0
UTOPIA,E21,2002,0.0
UTOPIA,E21,2003,0.0
UTOPIA,E21,2004,0.0
UTOPIA,E21,2005,0.0
UTOPIA,E21,2006,0.0
UTOPIA,E21,2007,0.0
UTOPIA,E21,2008,0.0
UTOPIA,E21,2009,0.0
UTOPIA,E21,2010,0.0
UTOPIA,IMPDSL1,1990,64.2494872356435
UTOPIA,IMPDSL1,1991,67.4619615974257
UTOPIA,IMPDSL1,1992,70.6744359592079
UTOPIA,IMPDSL1,1993,73.8869103209901
UTOPIA,IMPDSL1,1994,77.0993846827723
UTOPIA,IMPDSL1,1995,80.3118590445545
UTOPIA,IMPDSL1,1996,83.5243334063366
UTOPIA,IMPDSL1,1997,86.7368077681188
UTOPIA,IMPDSL1,1998,89.9492821299009
UTOPIA,IMPDSL1,1999,93.1617564916831
UTOPIA,IMPDSL1,2000,91.5646141916832
UTOPIA,IMPDSL1,2001,90.2393289916832
UTOPIA,IMPDSL1,2002,88.7711866916831
UTOPIA,IMPDSL1,2003,87.4459014916832
UTOPIA,IMPDSL1,2004,85.9777591916832
UTOPIA,IMPDSL1,2005,84.6524739916832
UTOPIA,IMPDSL1,2006,83.1843316916832
UTOPIA,IMPDSL1,2007,81.8590464916831
UTOPIA,IMPDSL1,2008,80.3909041916832
UTOPIA,IMPDSL1,2009,79.0656189916832
UTOPIA,IMPDSL1,2010,77.5974766916832
UTOPIA,E70,1990,0.0
UTOPIA,E70,1991,0.0
UTOPIA,E70,1992,0.0
UTOPIA,E70,1993,0.0
UTOPIA,E70,1994,0.0
UTOPIA,E70,1995,0.0
UTOPIA,E70,1996,0.0
UTOPIA,E70,1997,0.0
UTOPIA,E70,1998,0.0
UTOPIA,E70,1999,0.0
UTOPIA,E70,2000,0.0
UTOPIA,E70,2001,0.0
UTOPIA,E70,2002,0.0
UTOPIA,E70,2003,0.0
UTOPIA,E70,2004,0.0
UTOPIA,E70,2005,0.0
UTOPIA,E70,2006,0.0
UTOPIA,E70,2007,0.0
UTOPIA,E70,2008,0.0
UTOPIA,E70,2009,0.0
UTOPIA,E70,2010,0.0
UTOPIA,IMPOIL1,1990,-0.0
UTOPIA,IMPOIL1,1991,-0.0
UTOPIA,IMPOIL1,1992,-0.0
UTOPIA,IMPOIL1,1993,-0.0
UTOPIA,IMPOIL1,1994,-0.0
UTOPIA,IMPOIL1,1995,-0.0
UTOPIA,IMPOIL1,1996,-0.0
UTOPIA,IMPOIL1,1997,-0.0
UTOPIA,IMPOIL1,1998,-0.0
UTOPIA,IMPOIL1,1999,-0.0
UTOPIA,IMPOIL1,2000,-0.0
UTOPIA,IMPOIL1,2001,-0.0
UTOPIA,IMPOIL1,2002,-0.0
UTOPIA,IMPOIL1,2003,-0.0
UTOPIA,IMPOIL1,2004,-0.0
UTOPIA,IMPOIL1,2005,-0.0
UTOPIA,IMPOIL1,2006,-0.0
UTOPIA,IMPOIL1,2007,-0.0
UTOPIA,IMPOIL1,2008,-0.0
UTOPIA,IMPOIL1,2009,-0.0
UTOPIA,IMPOIL1,2010,-0.0
UTOPIA,TXD,1990,4.6
UTOPIA,TXD,1991,0.259999999999998
UTOPIA,TXD,1992,0.360000000000001
UTOPIA,TXD,1993,0.26
UTOPIA,TXD,1994,0.360000000000001
UTOPIA,TXD,1995,0.260000000000002
UTOPIA,TXD,1996,0.259999999999997
UTOPIA,TXD,1997,0.360000000000001
UTOPIA,TXD,1998,0.26
UTOPIA,TXD,1999,0.36
UTOPIA,TXD,2000,0.26
UTOPIA,TXD,2001,0.389000000000001
UTOPIA,TXD,2002,0.388999999999998
UTOPIA,TXD,2003,0.488999999999998
UTOPIA,TXD,2004,0.389000000000005
UTOPIA,TXD,2005,4.98899999999999
UTOPIA,TXD,2006,0.649000000000004
UTOPIA,TXD,2007,0.749000000000001
UTOPIA,TXD,2008,0.748999999999999
UTOPIA,TXD,2009,0.748999999999999
UTOPIA,TXD,2010,0.649000000000007
UTOPIA,RHO,1990,16.3346534653465
UTOPIA,RHO,1991,3.26673267326732
UTOPIA,RHO,1992,3.36673267326734
UTOPIA,RHO,1993,3.26673267326733
UTOPIA,RHO,1994,3.36673267326732
UTOPIA,RHO,1995,3.26673267326733
UTOPIA,RHO,1996,3.36673267326731
UTOPIA,RHO,1997,3.26673267326733
UTOPIA,RHO,1998,3.36673267326734
UTOPIA,RHO,1999,3.26673267326732
UTOPIA,RHO,2000,0.0
UTOPIA,RHO,2001,0.0
UTOPIA,RHO,2002,0.0
UTOPIA,RHO,2003,0.0
UTOPIA,RHO,2004,0.0
UTOPIA,RHO,2005,0.0
UTOPIA,RHO,2006,0.0
UTOPIA,RHO,2007,0.0
UTOPIA,RHO,2008,0.0
UTOPIA,RHO,2009,0.0
UTOPIA,RHO,2010,0.0
UTOPIA,E01,1990,0.0
UTOPIA,E01,1991,0.0
UTOPIA,E01,1992,0.0
UTOPIA,E01,1993,0.0
UTOPIA,E01,1994,0.0
UTOPIA,E01,1995,0.0
UTOPIA,E01,1996,0.0
UTOPIA,E01,1997,0.0
UTOPIA,E01,1998,0.0
UTOPIA,E01,1999,0.0225798659394097
UTOPIA,E01,2000,0.126722296639861
UTOPIA,E01,2001,0.205293014975013
UTOPIA,E01,2002,0.199381738972983
UTOPIA,E01,2003,0.195418014975015
UTOPIA,E01,2004,0.199381738972984
UTOPIA,E01,2005,0.295418014975012
UTOPIA,E01,2006,0.199381738972984
UTOPIA,E01,2007,0.195418014975014
UTOPIA,E01,2008,0.199381738972985
UTOPIA,E01,2009,0.195418014975013
UTOPIA,E01,2010,0.246006738972983
UTOPIA,IMPGSL1,1990,-0.0
UTOPIA,IMPGSL1,1991,-0.0
UTOPIA,IMPGSL1,1992,-0.0
UTOPIA,IMPGSL1,1993,-0.0
UTOPIA,IMPGSL1,1994,-0.0
UTOPIA,IMPGSL1,1995,-0.0
UTOPIA,IMPGSL1,1996,-0.0
UTOPIA,IMPGSL1,1997,-0.0
UTOPIA,IMPGSL1,1998,-0.0
UTOPIA,IMPGSL1,1999,-0.0
UTOPIA,IMPGSL1,2000,-0.0
UTOPIA,IMPGSL1,2001,-0.0
UTOPIA,IMPGSL1,2002,-0.0
UTOPIA,IMPGSL1,2003,-0.0
UTOPIA,IMPGSL1,2004,-0.0
UTOPIA,IMPGSL1,2005,-0.0
UTOPIA,IMPGSL1,2006,-0.0
UTOPIA,IMPGSL1,2007,-0.0
UTOPIA,IMPGSL1,2008,-0.0
UTOPIA,IMPGSL1,2009,1.82501901007166e-15
UTOPIA,IMPGSL1,2010,-0.0
UTOPIA,TXG,1990,0.0
UTOPIA,TXG,1991,0.0
UTOPIA,TXG,1992,0.0
UTOPIA,TXG,1993,0.0
UTOPIA,TXG,1994,0.0
UTOPIA,TXG,1995,0.0
UTOPIA,TXG,1996,0.0
UTOPIA,TXG,1997,0.0
UTOPIA,TXG,1998,0.0
UTOPIA,TXG,1999,0.0
UTOPIA,TXG,2000,0.0
UTOPIA,TXG,2001,0.0
UTOPIA,TXG,2002,0.0
UTOPIA,TXG,2003,0.0
UTOPIA,TXG,2004,0.0
UTOPIA,TXG,2005,0.0
UTOPIA,TXG,2006,0.0
UTOPIA,TXG,2007,0.0
UTOPIA,TXG,2008,0.0
UTOPIA,TXG,2009,0.0
UTOPIA,TXG,2010,0.0
UTOPIA,RL1,1990,2.8008400840084
UTOPIA,RL1,1991,1.02004200420042
UTOPIA,RL1,1992,0.920042004200419
UTOPIA,RL1,1993,1.02004200420042
UTOPIA,RL1,1994,0.92004200420042
UTOPIA,RL1,1995,1.02004200420042
UTOPIA,RL1,1996,1.02004200420042
UTOPIA,RL1,1997,0.920042004200416
UTOPIA,RL1,1998,1.02004200420042
UTOPIA,RL1,1999,0.92004200420042
UTOPIA,RL1,2000,3.82088208820882
UTOPIA,RL1,2001,1.65010501050105
UTOPIA,RL1,2002,1.55010501050105
UTOPIA,RL1,2003,1.65010501050105
UTOPIA,RL1,2004,1.55010501050105
UTOPIA,RL1,2005,1.65010501050105
UTOPIA,RL1,2006,1.65010501050106
UTOPIA,RL1,2007,1.55010501050104
UTOPIA,RL1,2008,1.65010501050105
UTOPIA,RL1,2009,1.55010501050105
UTOPIA,RL1,2010,4.45094509450945
UTOPIA,E31,1990,0.03
UTOPIA,E31,1991,0.00999999999999998
UTOPIA,E31,1992,0.0
UTOPIA,E31,1993,0.01
UTOPIA,E31,1994,0.0
UTOPIA,E31,1995,0.0
UTOPIA,E31,1996,0.01
UTOPIA,E31,1997,0.0
UTOPIA,E31,1998,0.0
UTOPIA,E31,1999,0.0
UTOPIA,E31,2000,0.00999999999999998
UTOPIA,E31,2001,0.03
UTOPIA,E31,2002,0.0
UTOPIA,E31,2003,0.0
UTOPIA,E31,2004,0.0
UTOPIA,E31,2005,0.0
UTOPIA,E31,2006,0.0
UTOPIA,E31,2007,0.0
UTOPIA,E31,2008,0.0
UTOPIA,E31,2009,0.0
UTOPIA,E31,2010,0.00999999999999994
UTOPIA,TXU,1990,-0.0
UTOPIA,TXU,1991,-0.0
UTOPIA,TXU,1992,-0.0
UTOPIA,TXU,1993,-0.0
UTOPIA,TXU,1994,-0.0
UTOPIA,TXU,1995,-0.0
UTOPIA,TXU,1996,-0.0
UTOPIA,TXU,1997,-0.0
UTOPIA,TXU,1998,-0.0
UTOPIA,TXU,1999,-0.0
UTOPIA,TXU,2000,-0.0
UTOPIA,TXU,2001,-0.0
UTOPIA,TXU,2002,-0.0
UTOPIA,TXU,2003,-0.0
UTOPIA,TXU,2004,-0.0
UTOPIA,TXU,2005,-0.0
UTOPIA,TXU,2006,-0.0
UTOPIA,TXU,2007,-0.0
UTOPIA,TXU,2008,-0.0
UTOPIA,TXU,2009,-0.0
UTOPIA,TXU,2010,-0.0
UTOPIA,TXE,1990,0.0
UTOPIA,TXE,1991,0.0
UTOPIA,TXE,1992,0.0
UTOPIA,TXE,1993,0.0
UTOPIA,TXE,1994,0.0
UTOPIA,TXE,1995,0.0
UTOPIA,TXE,1996,0.0
UTOPIA,TXE,1997,0.0
UTOPIA,TXE,1998,0.0
UTOPIA,TXE,1999,0.0
UTOPIA,TXE,2000,0.0
UTOPIA,TXE,2001,0.0
UTOPIA,TXE,2002,0.0
UTOPIA,TXE,2003,0.0
UTOPIA,TXE,2004,0.0
UTOPIA,TXE,2005,0.0
UTOPIA,TXE,2006,0.0
UTOPIA,TXE,2007,0.0
UTOPIA,TXE,2008,0.0
UTOPIA,TXE,2009,0.0
UTOPIA,TXE,2010,0.0
UTOPIA,IMPURN1,1990,-0.0
UTOPIA,IMPURN1,1991,-0.0
UTOPIA,IMPURN1,1992,-0.0
UTOPIA,IMPURN1,1993,-0.0
UTOPIA,IMPURN1,1994,-0.0
UTOPIA,IMPURN1,1995,-0.0
UTOPIA,IMPURN1,1996,-0.0
UTOPIA,IMPURN1,1997,-0.0
UTOPIA,IMPURN1,1998,-0.0
UTOPIA,IMPURN1,1999,-0.0
UTOPIA,IMPURN1,2000,-0.0
UTOPIA,IMPURN1,2001,-0.0
UTOPIA,IMPURN1,2002,-0.0
UTOPIA,IMPURN1,2003,-0.0
UTOPIA,IMPURN1,2004,-0.0
UTOPIA,IMPURN1,2005,-0.0
UTOPIA,IMPURN1,2006,-0.0
UTOPIA,IMPURN1,2007,-0.0
UTOPIA,IMPURN1,2008,-0.0
UTOPIA,IMPURN1,2009,-0.0
UTOPIA,IMPURN1,2010,-0.0
UTOPIA,IMPHCO1,1990,14.4167702625262
UTOPIA,IMPHCO1,1991,15.4633165256526
UTOPIA,IMPHCO1,1992,16.7759477887789
UTOPIA,IMPHCO1,1993,17.8224940519052
UTOPIA,IMPHCO1,1994,19.1351253150315
UTOPIA,IMPHCO1,1995,20.4477565781578
UTOPIA,IMPHCO1,1996,21.4943028412841
UTOPIA,IMPHCO1,1997,22.8069341044104
UTOPIA,IMPHCO1,1998,24.1195653675367
UTOPIA,IMPHCO1,1999,25.4321966306631
UTOPIA,IMPHCO1,2000,36.9997824977497
UTOPIA,IMPHCO1,2001,51.6082837983798
UTOPIA,IMPHCO1,2002,67.3275400990098
UTOPIA,IMPHCO1,2003,82.73429639964
UTOPIA,IMPHCO1,2004,98.4535527002701
UTOPIA,IMPHCO1,2005,113.8603090009
UTOPIA,IMPHCO1,2006,129.57956530153
UTOPIA,IMPHCO1,2007,144.98632160216
UTOPIA,IMPHCO1,2008,160.70557790279
UTOPIA,IMPHCO1,2009,176.11233420342
UTOPIA,IMPHCO1,2010,191.56550550405
UTOPIA,E51,1990,0.0
UTOPIA,E51,1991,0.0
UTOPIA,E51,1992,0.0
UTOPIA,E51,1993,0.0
UTOPIA,E51,1994,0.0
UTOPIA,E51,1995,0.0
UTOPIA,E51,1996,0.0
UTOPIA,E51,1997,0.0
UTOPIA,E51,1998,0.0
UTOPIA,E51,1999,0.0
UTOPIA,E51,2000,0.0
UTOPIA,E51,2001,0.0
UTOPIA,E51,2002,0.0
UTOPIA,E51,2003,0.0
UTOPIA,E51,2004,0.0
UTOPIA,E51,2005,0.0
UTOPIA,E51,2006,0.0
UTOPIA,E51,2007,0.0
UTOPIA,E51,2008,0.0
UTOPIA,E51,2009,0.0
UTOPIA,E51,2010,0.0
UTOPIA,RLU,1990,-0.0
UTOPIA,RLU,1991,-0.0
UTOPIA,RLU,1992,-0.0
UTOPIA,RLU,1993,-0.0
UTOPIA,RLU,1994,-0.0
UTOPIA,RLU,1995,-0.0
UTOPIA,RLU,1996,-0.0
UTOPIA,RLU,1997,-0.0
UTOPIA,RLU,1998,-0.0
UTOPIA,RLU,1999,-0.0
UTOPIA,RLU,2000,-0.0
UTOPIA,RLU,2001,-0.0
UTOPIA,RLU,2002,-0.0
UTOPIA,RLU,2003,-0.0
UTOPIA,RLU,2004,-0.0
UTOPIA,RLU,2005,-0.0
UTOPIA,RLU,2006,-0.0
UTOPIA,RLU,2007,-0.0
UTOPIA,RLU,2008,-0.0
UTOPIA,RLU,2009,-0.0
UTOPIA,RLU,2010,-0.0
UTOPIA,RIV,1990,3.459105
UTOPIA,RIV,1991,3.72519
UTOPIA,RIV,1992,3.72519
UTOPIA,RIV,1993,3.991275
UTOPIA,RIV,1994,3.991275
UTOPIA,RIV,1995,3.991275
UTOPIA,RIV,1996,4.25736
UTOPIA,RIV,1997,4.25736
UTOPIA,RIV,1998,4.25736
UTOPIA,RIV,1999,4.25736
UTOPIA,RIV,2000,4.523445
UTOPIA,RIV,2001,5.3217
UTOPIA,RIV,2002,5.3217
UTOPIA,RIV,2003,5.3217
UTOPIA,RIV,2004,5.3217
UTOPIA,RIV,2005,5.3217
UTOPIA,RIV,2006,5.3217
UTOPIA,RIV,2007,5.3217
UTOPIA,RIV,2008,5.3217
UTOPIA,RIV,2009,5.3217
UTOPIA,RIV,2010,5.587785
UTOPIA,RHU,1990,-0.0
UTOPIA,RHU,1991,-0.0
UTOPIA,RHU,1992,-0.0
UTOPIA,RHU,1993,-0.0
UTOPIA,RHU,1994,-0.0
UTOPIA,RHU,1995,-0.0
UTOPIA,RHU,1996,-0.0
UTOPIA,RHU,1997,-0.0
UTOPIA,RHU,1998,-0.0
UTOPIA,RHU,1999,-0.0
UTOPIA,RHU,2000,-0.0
UTOPIA,RHU,2001,-0.0
UTOPIA,RHU,2002,-0.0
UTOPIA,RHU,2003,-0.0
UTOPIA,RHU,2004,-0.0
UTOPIA,RHU,2005,-0.0
UTOPIA,RHU,2006,-0.0
UTOPIA,RHU,2007,-0.0
UTOPIA,RHU,2008,-0.0
UTOPIA,RHU,2009,-0.0
UTOPIA,RHU,2010,-0.0
UTOPIA,SRE,1990,0.1
UTOPIA,SRE,1991,0.0
UTOPIA,SRE,1992,0.0
UTOPIA,SRE,1993,0.0
UTOPIA,SRE,1994,0.0
UTOPIA,SRE,1995,0.0
UTOPIA,SRE,1996,0.0
UTOPIA,SRE,1997,0.0
UTOPIA,SRE,1998,0.0
UTOPIA,SRE,1999,0.0
UTOPIA,SRE,2000,0.0
UTOPIA,SRE,2001,0.0
UTOPIA,SRE,2002,0.0
UTOPIA,SRE,2003,0.0
UTOPIA,SRE,2004,0.0
UTOPIA,SRE,2005,0.0
UTOPIA,SRE,2006,0.0
UTOPIA,SRE,2007,0.0
UTOPIA,SRE,2008,0.0
UTOPIA,SRE,2009,0.0
UTOPIA,SRE,2010,0.0
