REGION,TIMESLICE,FUEL,YEAR,Production
UTOPIA,ID,LTH,1990,0.0
UTOPIA,ID,LTH,1991,0.0
UTOPIA,ID,LTH,1992,0.0
UTOPIA,ID,LTH,1993,0.0
UTOPIA,ID,LTH,1994,0.0
UTOPIA,ID,LTH,1995,0.0
UTOPIA,ID,LTH,1996,0.0
UTOPIA,ID,LTH,1997,0.0
UTOPIA,ID,LTH,1998,0.0
UTOPIA,ID,LTH,1999,0.0
UTOPIA,ID,LTH,2000,0.0
UTOPIA,ID,LTH,2001,0.0
UTOPIA,ID,LTH,2002,0.0
UTOPIA,ID,LTH,2003,0.0
UTOPIA,ID,LTH,2004,0.0
UTOPIA,ID,LTH,2005,0.0
UTOPIA,ID,LTH,2006,0.0
UTOPIA,ID,LTH,2007,0.0
UTOPIA,ID,LTH,2008,0.0
UTOPIA,ID,LTH,2009,0.0
UTOPIA,ID,LTH,2010,0.0
UTOPIA,ID,HCO,1990,0.651962971500001
UTOPIA,ID,HCO,1991,0.738856602
UTOPIA,ID,HCO,1992,0.870106602
UTOPIA,ID,HCO,1993,0.957000232499999
UTOPIA,ID,HCO,1994,1.0882502325
UTOPIA,ID,HCO,1995,1.2195002325
UTOPIA,ID,HCO,1996,1.306393863
UTOPIA,ID,HCO,1997,1.437643863
UTOPIA,ID,HCO,1998,1.568893863
UTOPIA,ID,HCO,1999,1.700143863
UTOPIA,ID,HCO,2000,3.54089479548019
UTOPIA,ID,HCO,2001,5.84478351495048
UTOPIA,ID,HCO,2002,8.33383509292078
UTOPIA,ID,HCO,2003,10.7707929208911
UTOPIA,ID,HCO,2004,13.2598444988614
UTOPIA,ID,HCO,2005,15.6968023268317
UTOPIA,ID,HCO,2006,18.185853904802
UTOPIA,ID,HCO,2007,20.6228117327723
UTOPIA,ID,HCO,2008,23.073968385
UTOPIA,ID,HCO,2009,23.979593385
UTOPIA,ID,HCO,2010,24.8408620155
UTOPIA,ID,OIL,1990,0.0
UTOPIA,ID,OIL,1991,0.0
UTOPIA,ID,OIL,1992,0.0
UTOPIA,ID,OIL,1993,0.0
UTOPIA,ID,OIL,1994,0.0
UTOPIA,ID,OIL,1995,0.0
UTOPIA,ID,OIL,1996,0.0
UTOPIA,ID,OIL,1997,0.0
UTOPIA,ID,OIL,1998,0.0
UTOPIA,ID,OIL,1999,0.0
UTOPIA,ID,OIL,2000,0.0
UTOPIA,ID,OIL,2001,0.0
UTOPIA,ID,OIL,2002,0.0
UTOPIA,ID,OIL,2003,0.0
UTOPIA,ID,OIL,2004,0.0
UTOPIA,ID,OIL,2005,0.0
UTOPIA,ID,OIL,2006,0.0
UTOPIA,ID,OIL,2007,0.0
UTOPIA,ID,OIL,2008,0.0
UTOPIA,ID,OIL,2009,0.0
UTOPIA,ID,OIL,2010,0.0
UTOPIA,ID,CSV,1990,0.0
UTOPIA,ID,CSV,1991,0.0
UTOPIA,ID,CSV,1992,0.0
UTOPIA,ID,CSV,1993,0.0
UTOPIA,ID,CSV,1994,0.0
UTOPIA,ID,CSV,1995,0.0
UTOPIA,ID,CSV,1996,0.0
UTOPIA,ID,CSV,1997,0.0
UTOPIA,ID,CSV,1998,0.0
UTOPIA,ID,CSV,1999,0.0
UTOPIA,ID,CSV,2000,0.0
UTOPIA,ID,CSV,2001,0.0
UTOPIA,ID,CSV,2002,0.0
UTOPIA,ID,CSV,2003,0.0
UTOPIA,ID,CSV,2004,0.0
UTOPIA,ID,CSV,2005,0.0
UTOPIA,ID,CSV,2006,0.0
UTOPIA,ID,CSV,2007,0.0
UTOPIA,ID,CSV,2008,0.0
UTOPIA,ID,CSV,2009,0.0
UTOPIA,ID,CSV,2010,0.0
UTOPIA,ID,DSL,1990,5.186838704
UTOPIA,ID,DSL,1991,5.4461806392
UTOPIA,ID,DSL,1992,5.7055225744
UTOPIA,ID,DSL,1993,5.9648645096
UTOPIA,ID,DSL,1994,6.2242064448
UTOPIA,ID,DSL,1995,6.48354838
UTOPIA,ID,DSL,1996,6.7428903152
UTOPIA,ID,DSL,1997,7.0022322504
UTOPIA,ID,DSL,1998,7.2615741856
UTOPIA,ID,DSL,1999,7.5209161208
UTOPIA,ID,DSL,2000,6.97849495848091
UTOPIA,ID,DSL,2001,6.34330360427728
UTOPIA,ID,DSL,2002,5.68429797150365
UTOPIA,ID,DSL,2003,5.04910661730001
UTOPIA,ID,DSL,2004,4.39010098452637
UTOPIA,ID,DSL,2005,3.75490963032275
UTOPIA,ID,DSL,2006,3.09590399754911
UTOPIA,ID,DSL,2007,2.46071264334548
UTOPIA,ID,DSL,2008,1.8190304
UTOPIA,ID,DSL,2009,1.8838767
UTOPIA,ID,DSL,2010,1.948723
UTOPIA,ID,HYD,1990,0.5766328035
UTOPIA,ID,HYD,1991,0.620989173
UTOPIA,ID,HYD,1992,0.620989173
UTOPIA,ID,HYD,1993,0.6653455425
UTOPIA,ID,HYD,1994,0.6653455425
UTOPIA,ID,HYD,1995,0.6653455425
UTOPIA,ID,HYD,1996,0.709701911999999
UTOPIA,ID,HYD,1997,0.709701912
UTOPIA,ID,HYD,1998,0.709701912
UTOPIA,ID,HYD,1999,0.709701912
UTOPIA,ID,HYD,2000,0.7540582815
UTOPIA,ID,HYD,2001,0.88712739
UTOPIA,ID,HYD,2002,0.88712739
UTOPIA,ID,HYD,2003,0.88712739
UTOPIA,ID,HYD,2004,0.88712739
UTOPIA,ID,HYD,2005,0.88712739
UTOPIA,ID,HYD,2006,0.88712739
UTOPIA,ID,HYD,2007,0.88712739
UTOPIA,ID,HYD,2008,0.88712739
UTOPIA,ID,HYD,2009,0.88712739
UTOPIA,ID,HYD,2010,0.9314837595
UTOPIA,ID,TX,1990,0.86684
UTOPIA,ID,TX,1991,0.910182
UTOPIA,ID,TX,1992,0.953524
UTOPIA,ID,TX,1993,0.996866
UTOPIA,ID,TX,1994,1.040208
UTOPIA,ID,TX,1995,1.08355
UTOPIA,ID,TX,1996,1.126892
UTOPIA,ID,TX,1997,1.170234
UTOPIA,ID,TX,1998,1.213576
UTOPIA,ID,TX,1999,1.256918
UTOPIA,ID,TX,2000,1.30026
UTOPIA,ID,TX,2001,1.3651063
UTOPIA,ID,TX,2002,1.4299526
UTOPIA,ID,TX,2003,1.4947989
UTOPIA,ID,TX,2004,1.5596452
UTOPIA,ID,TX,2005,1.6244915
UTOPIA,ID,TX,2006,1.6893378
UTOPIA,ID,TX,2007,1.7541841
UTOPIA,ID,TX,2008,1.8190304
UTOPIA,ID,TX,2009,1.8838767
UTOPIA,ID,TX,2010,1.948723
UTOPIA,ID,GSL,1990,0.0
UTOPIA,ID,GSL,1991,0.0
UTOPIA,ID,GSL,1992,0.0
UTOPIA,ID,GSL,1993,0.0
UTOPIA,ID,GSL,1994,0.0
UTOPIA,ID,GSL,1995,0.0
UTOPIA,ID,GSL,1996,0.0
UTOPIA,ID,GSL,1997,0.0
UTOPIA,ID,GSL,1998,0.0
UTOPIA,ID,GSL,1999,0.0
UTOPIA,ID,GSL,2000,0.0
UTOPIA,ID,GSL,2001,0.0
UTOPIA,ID,GSL,2002,0.0
UTOPIA,ID,GSL,2003,0.0
UTOPIA,ID,GSL,2004,0.0
UTOPIA,ID,GSL,2005,0.0
UTOPIA,ID,GSL,2006,0.0
UTOPIA,ID,GSL,2007,0.0
UTOPIA,ID,GSL,2008,0.0
UTOPIA,ID,GSL,2009,0.0
UTOPIA,ID,GSL,2010,0.0
UTOPIA,ID,RL,1990,0.84
UTOPIA,ID,RL,1991,0.882
UTOPIA,ID,RL,1992,0.924
UTOPIA,ID,RL,1993,0.966
UTOPIA,ID,RL,1994,1.008
UTOPIA,ID,RL,1995,1.05
UTOPIA,ID,RL,1996,1.092
UTOPIA,ID,RL,1997,1.134
UTOPIA,ID,RL,1998,1.176
UTOPIA,ID,RL,1999,1.218
UTOPIA,ID,RL,2000,1.26
UTOPIA,ID,RL,2001,1.323
UTOPIA,ID,RL,2002,1.386
UTOPIA,ID,RL,2003,1.449
UTOPIA,ID,RL,2004,1.512
UTOPIA,ID,RL,2005,1.575
UTOPIA,ID,RL,2006,1.638
UTOPIA,ID,RL,2007,1.701
UTOPIA,ID,RL,2008,1.764
UTOPIA,ID,RL,2009,1.827
UTOPIA,ID,RL,2010,1.89
UTOPIA,ID,RH,1990,3.024
UTOPIA,ID,RH,1991,3.1752
UTOPIA,ID,RH,1992,3.3264
UTOPIA,ID,RH,1993,3.4776
UTOPIA,ID,RH,1994,3.6288
UTOPIA,ID,RH,1995,3.78
UTOPIA,ID,RH,1996,3.9312
UTOPIA,ID,RH,1997,4.0824
UTOPIA,ID,RH,1998,4.2336
UTOPIA,ID,RH,1999,4.3848
UTOPIA,ID,RH,2000,4.536
UTOPIA,ID,RH,2001,4.7628
UTOPIA,ID,RH,2002,4.9896
UTOPIA,ID,RH,2003,5.2164
UTOPIA,ID,RH,2004,5.4432
UTOPIA,ID,RH,2005,5.67
UTOPIA,ID,RH,2006,5.8968
UTOPIA,ID,RH,2007,6.1236
UTOPIA,ID,RH,2008,6.3504
UTOPIA,ID,RH,2009,6.5772
UTOPIA,ID,RH,2010,6.804
UTOPIA,ID,URN,1990,0.0
UTOPIA,ID,URN,1991,0.0
UTOPIA,ID,URN,1992,0.0
UTOPIA,ID,URN,1993,0.0
UTOPIA,ID,URN,1994,0.0
UTOPIA,ID,URN,1995,0.0
UTOPIA,ID,URN,1996,0.0
UTOPIA,ID,URN,1997,0.0
UTOPIA,ID,URN,1998,0.0
UTOPIA,ID,URN,1999,0.0
UTOPIA,ID,URN,2000,0.0
UTOPIA,ID,URN,2001,0.0
UTOPIA,ID,URN,2002,0.0
UTOPIA,ID,URN,2003,0.0
UTOPIA,ID,URN,2004,0.0
UTOPIA,ID,URN,2005,0.0
UTOPIA,ID,URN,2006,0.0
UTOPIA,ID,URN,2007,0.0
UTOPIA,ID,URN,2008,0.0
UTOPIA,ID,URN,2009,0.0
UTOPIA,ID,URN,2010,0.0
UTOPIA,ID,ELC,1990,0.84
UTOPIA,ID,ELC,1991,0.882
UTOPIA,ID,ELC,1992,0.924
UTOPIA,ID,ELC,1993,0.966
UTOPIA,ID,ELC,1994,1.008
UTOPIA,ID,ELC,1995,1.05
UTOPIA,ID,ELC,1996,1.092
UTOPIA,ID,ELC,1997,1.134
UTOPIA,ID,ELC,1998,1.176
UTOPIA,ID,ELC,1999,1.218
UTOPIA,ID,ELC,2000,1.82123433663366
UTOPIA,ID,ELC,2001,2.60106084158415
UTOPIA,ID,ELC,2002,3.39755734653465
UTOPIA,ID,ELC,2003,4.17738385148515
UTOPIA,ID,ELC,2004,4.97388035643565
UTOPIA,ID,ELC,2005,5.75370686138613
UTOPIA,ID,ELC,2006,6.55020336633663
UTOPIA,ID,ELC,2007,7.33002987128712
UTOPIA,ID,ELC,2008,8.1144
UTOPIA,ID,ELC,2009,8.4042
UTOPIA,ID,ELC,2010,8.694
UTOPIA,SD,LTH,1990,0.0
UTOPIA,SD,LTH,1991,0.0
UTOPIA,SD,LTH,1992,0.0
UTOPIA,SD,LTH,1993,0.0
UTOPIA,SD,LTH,1994,0.0
UTOPIA,SD,LTH,1995,0.0
UTOPIA,SD,LTH,1996,0.0
UTOPIA,SD,LTH,1997,0.0
UTOPIA,SD,LTH,1998,0.0
UTOPIA,SD,LTH,1999,0.0
UTOPIA,SD,LTH,2000,0.0
UTOPIA,SD,LTH,2001,0.0
UTOPIA,SD,LTH,2002,0.0
UTOPIA,SD,LTH,2003,0.0
UTOPIA,SD,LTH,2004,0.0
UTOPIA,SD,LTH,2005,0.0
UTOPIA,SD,LTH,2006,0.0
UTOPIA,SD,LTH,2007,0.0
UTOPIA,SD,LTH,2008,0.0
UTOPIA,SD,LTH,2009,0.0
UTOPIA,SD,LTH,2010,0.0
UTOPIA,SD,HCO,1990,0.651962971500001
UTOPIA,SD,HCO,1991,0.738856602
UTOPIA,SD,HCO,1992,0.870106602
UTOPIA,SD,HCO,1993,0.957000232499999
UTOPIA,SD,HCO,1994,1.0882502325
UTOPIA,SD,HCO,1995,1.2195002325
UTOPIA,SD,HCO,1996,1.306393863
UTOPIA,SD,HCO,1997,1.437643863
UTOPIA,SD,HCO,1998,1.568893863
UTOPIA,SD,HCO,1999,1.700143863
UTOPIA,SD,HCO,2000,1.7870374935
UTOPIA,SD,HCO,2001,1.850843385
UTOPIA,SD,HCO,2002,2.047718385
UTOPIA,SD,HCO,2003,2.244593385
UTOPIA,SD,HCO,2004,2.441468385
UTOPIA,SD,HCO,2005,2.638343385
UTOPIA,SD,HCO,2006,2.835218385
UTOPIA,SD,HCO,2007,3.032093385
UTOPIA,SD,HCO,2008,3.228968385
UTOPIA,SD,HCO,2009,3.425843385
UTOPIA,SD,HCO,2010,3.5783620155
UTOPIA,SD,OIL,1990,0.0
UTOPIA,SD,OIL,1991,0.0
UTOPIA,SD,OIL,1992,0.0
UTOPIA,SD,OIL,1993,0.0
UTOPIA,SD,OIL,1994,0.0
UTOPIA,SD,OIL,1995,0.0
UTOPIA,SD,OIL,1996,0.0
UTOPIA,SD,OIL,1997,0.0
UTOPIA,SD,OIL,1998,0.0
UTOPIA,SD,OIL,1999,0.0
UTOPIA,SD,OIL,2000,0.0
UTOPIA,SD,OIL,2001,0.0
UTOPIA,SD,OIL,2002,0.0
UTOPIA,SD,OIL,2003,0.0
UTOPIA,SD,OIL,2004,0.0
UTOPIA,SD,OIL,2005,0.0
UTOPIA,SD,OIL,2006,0.0
UTOPIA,SD,OIL,2007,0.0
UTOPIA,SD,OIL,2008,0.0
UTOPIA,SD,OIL,2009,0.0
UTOPIA,SD,OIL,2010,0.0
UTOPIA,SD,CSV,1990,0.0
UTOPIA,SD,CSV,1991,0.0
UTOPIA,SD,CSV,1992,0.0
UTOPIA,SD,CSV,1993,0.0
UTOPIA,SD,CSV,1994,0.0
UTOPIA,SD,CSV,1995,0.0
UTOPIA,SD,CSV,1996,0.0
UTOPIA,SD,CSV,1997,0.0
UTOPIA,SD,CSV,1998,0.0
UTOPIA,SD,CSV,1999,0.0
UTOPIA,SD,CSV,2000,0.0
UTOPIA,SD,CSV,2001,0.0
UTOPIA,SD,CSV,2002,0.0
UTOPIA,SD,CSV,2003,0.0
UTOPIA,SD,CSV,2004,0.0
UTOPIA,SD,CSV,2005,0.0
UTOPIA,SD,CSV,2006,0.0
UTOPIA,SD,CSV,2007,0.0
UTOPIA,SD,CSV,2008,0.0
UTOPIA,SD,CSV,2009,0.0
UTOPIA,SD,CSV,2010,0.0
UTOPIA,SD,DSL,1990,0.86684
UTOPIA,SD,DSL,1991,0.910182
UTOPIA,SD,DSL,1992,0.953524
UTOPIA,SD,DSL,1993,0.996866
UTOPIA,SD,DSL,1994,1.040208
UTOPIA,SD,DSL,1995,1.08355
UTOPIA,SD,DSL,1996,1.126892
UTOPIA,SD,DSL,1997,1.170234
UTOPIA,SD,DSL,1998,1.213576
UTOPIA,SD,DSL,1999,1.256918
UTOPIA,SD,DSL,2000,1.30026
UTOPIA,SD,DSL,2001,1.3651063
UTOPIA,SD,DSL,2002,1.4299526
UTOPIA,SD,DSL,2003,1.4947989
UTOPIA,SD,DSL,2004,1.5596452
UTOPIA,SD,DSL,2005,1.6244915
UTOPIA,SD,DSL,2006,1.6893378
UTOPIA,SD,DSL,2007,1.7541841
UTOPIA,SD,DSL,2008,1.8190304
UTOPIA,SD,DSL,2009,1.8838767
UTOPIA,SD,DSL,2010,1.948723
UTOPIA,SD,HYD,1990,0.5766328035
UTOPIA,SD,HYD,1991,0.620989173
UTOPIA,SD,HYD,1992,0.620989173
UTOPIA,SD,HYD,1993,0.6653455425
UTOPIA,SD,HYD,1994,0.6653455425
UTOPIA,SD,HYD,1995,0.6653455425
UTOPIA,SD,HYD,1996,0.709701912
UTOPIA,SD,HYD,1997,0.709701912
UTOPIA,SD,HYD,1998,0.709701912
UTOPIA,SD,HYD,1999,0.709701912
UTOPIA,SD,HYD,2000,0.7540582815
UTOPIA,SD,HYD,2001,0.88712739
UTOPIA,SD,HYD,2002,0.88712739
UTOPIA,SD,HYD,2003,0.88712739
UTOPIA,SD,HYD,2004,0.88712739
UTOPIA,SD,HYD,2005,0.88712739
UTOPIA,SD,HYD,2006,0.88712739
UTOPIA,SD,HYD,2007,0.88712739
UTOPIA,SD,HYD,2008,0.88712739
UTOPIA,SD,HYD,2009,0.88712739
UTOPIA,SD,HYD,2010,0.9314837595
UTOPIA,SD,TX,1990,0.86684
UTOPIA,SD,TX,1991,0.910182
UTOPIA,SD,TX,1992,0.953524
UTOPIA,SD,TX,1993,0.996866
UTOPIA,SD,TX,1994,1.040208
UTOPIA,SD,TX,1995,1.08355
UTOPIA,SD,TX,1996,1.126892
UTOPIA,SD,TX,1997,1.170234
UTOPIA,SD,TX,1998,1.213576
UTOPIA,SD,TX,1999,1.256918
UTOPIA,SD,TX,2000,1.30026
UTOPIA,SD,TX,2001,1.3651063
UTOPIA,SD,TX,2002,1.4299526
UTOPIA,SD,TX,2003,1.4947989
UTOPIA,SD,TX,2004,1.5596452
UTOPIA,SD,TX,2005,1.6244915
UTOPIA,SD,TX,2006,1.6893378
UTOPIA,SD,TX,2007,1.7541841
UTOPIA,SD,TX,2008,1.8190304
UTOPIA,SD,TX,2009,1.8838767
UTOPIA,SD,TX,2010,1.948723
UTOPIA,SD,GSL,1990,0.0
UTOPIA,SD,GSL,1991,0.0
UTOPIA,SD,GSL,1992,0.0
UTOPIA,SD,GSL,1993,0.0
UTOPIA,SD,GSL,1994,0.0
UTOPIA,SD,GSL,1995,0.0
UTOPIA,SD,GSL,1996,0.0
UTOPIA,SD,GSL,1997,0.0
UTOPIA,SD,GSL,1998,0.0
UTOPIA,SD,GSL,1999,0.0
UTOPIA,SD,GSL,2000,0.0
UTOPIA,SD,GSL,2001,0.0
UTOPIA,SD,GSL,2002,0.0
UTOPIA,SD,GSL,2003,0.0
UTOPIA,SD,GSL,2004,0.0
UTOPIA,SD,GSL,2005,0.0
UTOPIA,SD,GSL,2006,0.0
UTOPIA,SD,GSL,2007,0.0
UTOPIA,SD,GSL,2008,0.0
UTOPIA,SD,GSL,2009,0.0
UTOPIA,SD,GSL,2010,0.0
UTOPIA,SD,RL,1990,0.84
UTOPIA,SD,RL,1991,0.882
UTOPIA,SD,RL,1992,0.924
UTOPIA,SD,RL,1993,0.966
UTOPIA,SD,RL,1994,1.008
UTOPIA,SD,RL,1995,1.05
UTOPIA,SD,RL,1996,1.092
UTOPIA,SD,RL,1997,1.134
UTOPIA,SD,RL,1998,1.176
UTOPIA,SD,RL,1999,1.218
UTOPIA,SD,RL,2000,1.26
UTOPIA,SD,RL,2001,1.323
UTOPIA,SD,RL,2002,1.386
UTOPIA,SD,RL,2003,1.449
UTOPIA,SD,RL,2004,1.512
UTOPIA,SD,RL,2005,1.575
UTOPIA,SD,RL,2006,1.638
UTOPIA,SD,RL,2007,1.701
UTOPIA,SD,RL,2008,1.764
UTOPIA,SD,RL,2009,1.827
UTOPIA,SD,RL,2010,1.89
UTOPIA,SD,RH,1990,-0.0
UTOPIA,SD,RH,1991,-0.0
UTOPIA,SD,RH,1992,-0.0
UTOPIA,SD,RH,1993,-0.0
UTOPIA,SD,RH,1994,-0.0
UTOPIA,SD,RH,1995,-0.0
UTOPIA,SD,RH,1996,-0.0
UTOPIA,SD,RH,1997,-0.0
UTOPIA,SD,RH,1998,-0.0
UTOPIA,SD,RH,1999,-0.0
UTOPIA,SD,RH,2000,-0.0
UTOPIA,SD,RH,2001,-0.0
UTOPIA,SD,RH,2002,-0.0
UTOPIA,SD,RH,2003,-0.0
UTOPIA,SD,RH,2004,-0.0
UTOPIA,SD,RH,2005,-0.0
UTOPIA,SD,RH,2006,-0.0
UTOPIA,SD,RH,2007,-0.0
UTOPIA,SD,RH,2008,-0.0
UTOPIA,SD,RH,2009,-0.0
UTOPIA,SD,RH,2010,-0.0
UTOPIA,SD,URN,1990,0.0
UTOPIA,SD,URN,1991,0.0
UTOPIA,SD,URN,1992,0.0
UTOPIA,SD,URN,1993,0.0
UTOPIA,SD,URN,1994,0.0
UTOPIA,SD,URN,1995,0.0
UTOPIA,SD,URN,1996,0.0
UTOPIA,SD,URN,1997,0.0
UTOPIA,SD,URN,1998,0.0
UTOPIA,SD,URN,1999,0.0
UTOPIA,SD,URN,2000,0.0
UTOPIA,SD,URN,2001,0.0
UTOPIA,SD,URN,2002,0.0
UTOPIA,SD,URN,2003,0.0
UTOPIA,SD,URN,2004,0.0
UTOPIA,SD,URN,2005,0.0
UTOPIA,SD,URN,2006,0.0
UTOPIA,SD,URN,2007,0.0
UTOPIA,SD,URN,2008,0.0
UTOPIA,SD,URN,2009,0.0
UTOPIA,SD,URN,2010,0.0
UTOPIA,SD,ELC,1990,0.84
UTOPIA,SD,ELC,1991,0.882
UTOPIA,SD,ELC,1992,0.924
UTOPIA,SD,ELC,1993,0.966
UTOPIA,SD,ELC,1994,1.008
UTOPIA,SD,ELC,1995,1.05
UTOPIA,SD,ELC,1996,1.092
UTOPIA,SD,ELC,1997,1.134
UTOPIA,SD,ELC,1998,1.176
UTOPIA,SD,ELC,1999,1.218
UTOPIA,SD,ELC,2000,1.26
UTOPIA,SD,ELC,2001,1.323
UTOPIA,SD,ELC,2002,1.386
UTOPIA,SD,ELC,2003,1.449
UTOPIA,SD,ELC,2004,1.512
UTOPIA,SD,ELC,2005,1.575
UTOPIA,SD,ELC,2006,1.638
UTOPIA,SD,ELC,2007,1.701
UTOPIA,SD,ELC,2008,1.764
UTOPIA,SD,ELC,2009,1.827
UTOPIA,SD,ELC,2010,1.89
UTOPIA,WN,LTH,1990,0.0
UTOPIA,WN,LTH,1991,0.0
UTOPIA,WN,LTH,1992,0.0
UTOPIA,WN,LTH,1993,0.0
UTOPIA,WN,LTH,1994,0.0
UTOPIA,WN,LTH,1995,0.0
UTOPIA,WN,LTH,1996,0.0
UTOPIA,WN,LTH,1997,0.0
UTOPIA,WN,LTH,1998,0.0
UTOPIA,WN,LTH,1999,0.0
UTOPIA,WN,LTH,2000,0.0
UTOPIA,WN,LTH,2001,0.0
UTOPIA,WN,LTH,2002,0.0
UTOPIA,WN,LTH,2003,0.0
UTOPIA,WN,LTH,2004,0.0
UTOPIA,WN,LTH,2005,0.0
UTOPIA,WN,LTH,2006,0.0
UTOPIA,WN,LTH,2007,0.0
UTOPIA,WN,LTH,2008,0.0
UTOPIA,WN,LTH,2009,0.0
UTOPIA,WN,LTH,2010,0.0
UTOPIA,WN,HCO,1990,0.0
UTOPIA,WN,HCO,1991,0.0
UTOPIA,WN,HCO,1992,0.0
UTOPIA,WN,HCO,1993,0.0
UTOPIA,WN,HCO,1994,0.0382502325
UTOPIA,WN,HCO,1995,0.1257502325
UTOPIA,WN,HCO,1996,0.168893862999999
UTOPIA,WN,HCO,1997,0.256393863
UTOPIA,WN,HCO,1998,0.343893862999999
UTOPIA,WN,HCO,1999,0.431393862999999
UTOPIA,WN,HCO,2000,2.22839479548019
UTOPIA,WN,HCO,2001,4.46665851495048
UTOPIA,WN,HCO,2002,6.89008509292078
UTOPIA,WN,HCO,2003,9.26141792089108
UTOPIA,WN,HCO,2004,11.6848444988614
UTOPIA,WN,HCO,2005,14.0561773268317
UTOPIA,WN,HCO,2006,16.479603904802
UTOPIA,WN,HCO,2007,18.8509367327723
UTOPIA,WN,HCO,2008,21.2743633107426
UTOPIA,WN,HCO,2009,23.6456961387129
UTOPIA,WN,HCO,2010,26.0247663471832
UTOPIA,WN,OIL,1990,0.0
UTOPIA,WN,OIL,1991,0.0
UTOPIA,WN,OIL,1992,0.0
UTOPIA,WN,OIL,1993,0.0
UTOPIA,WN,OIL,1994,0.0
UTOPIA,WN,OIL,1995,0.0
UTOPIA,WN,OIL,1996,0.0
UTOPIA,WN,OIL,1997,0.0
UTOPIA,WN,OIL,1998,0.0
UTOPIA,WN,OIL,1999,0.0
UTOPIA,WN,OIL,2000,0.0
UTOPIA,WN,OIL,2001,0.0
UTOPIA,WN,OIL,2002,0.0
UTOPIA,WN,OIL,2003,0.0
UTOPIA,WN,OIL,2004,0.0
UTOPIA,WN,OIL,2005,0.0
UTOPIA,WN,OIL,2006,0.0
UTOPIA,WN,OIL,2007,0.0
UTOPIA,WN,OIL,2008,0.0
UTOPIA,WN,OIL,2009,0.0
UTOPIA,WN,OIL,2010,0.0
UTOPIA,WN,CSV,1990,0.0
UTOPIA,WN,CSV,1991,0.0
UTOPIA,WN,CSV,1992,0.0
UTOPIA,WN,CSV,1993,0.0
UTOPIA,WN,CSV,1994,0.0
UTOPIA,WN,CSV,1995,0.0
UTOPIA,WN,CSV,1996,0.0
UTOPIA,WN,CSV,1997,0.0
UTOPIA,WN,CSV,1998,0.0
UTOPIA,WN,CSV,1999,0.0
UTOPIA,WN,CSV,2000,0.0
UTOPIA,WN,CSV,2001,0.0
UTOPIA,WN,CSV,2002,0.0
UTOPIA,WN,CSV,2003,0.0
UTOPIA,WN,CSV,2004,0.0
UTOPIA,WN,CSV,2005,0.0
UTOPIA,WN,CSV,2006,0.0
UTOPIA,WN,CSV,2007,0.0
UTOPIA,WN,CSV,2008,0.0
UTOPIA,WN,CSV,2009,0.0
UTOPIA,WN,CSV,2010,0.0
UTOPIA,WN,DSL,1990,10.70563704836
UTOPIA,WN,DSL,1991,11.240918900778
UTOPIA,WN,DSL,1992,11.776200753196
UTOPIA,WN,DSL,1993,12.311482605614
UTOPIA,WN,DSL,1994,12.846764458032
UTOPIA,WN,DSL,1995,13.38204631045
UTOPIA,WN,DSL,1996,13.917328162868
UTOPIA,WN,DSL,1997,14.452610015286
UTOPIA,WN,DSL,1998,14.987891867704
UTOPIA,WN,DSL,1999,15.523173720122
UTOPIA,WN,DSL,2000,15.2566924750209
UTOPIA,WN,DSL,2001,15.0354109966443
UTOPIA,WN,DSL,2002,14.7903152396976
UTOPIA,WN,DSL,2003,14.569033761321
UTOPIA,WN,DSL,2004,14.3239380043744
UTOPIA,WN,DSL,2005,14.1026565259978
UTOPIA,WN,DSL,2006,13.8575607690511
UTOPIA,WN,DSL,2007,13.6362792906745
UTOPIA,WN,DSL,2008,13.3911835337278
UTOPIA,WN,DSL,2009,13.1699020553512
UTOPIA,WN,DSL,2010,12.9248062984046
UTOPIA,WN,HYD,1990,0.353595774999999
UTOPIA,WN,HYD,1991,0.441095775
UTOPIA,WN,HYD,1992,0.528595775
UTOPIA,WN,HYD,1993,0.616095774999999
UTOPIA,WN,HYD,1994,0.6653455425
UTOPIA,WN,HYD,1995,0.6653455425
UTOPIA,WN,HYD,1996,0.709701912
UTOPIA,WN,HYD,1997,0.709701912
UTOPIA,WN,HYD,1998,0.709701912
UTOPIA,WN,HYD,1999,0.709701912
UTOPIA,WN,HYD,2000,0.7540582815
UTOPIA,WN,HYD,2001,0.88712739
UTOPIA,WN,HYD,2002,0.88712739
UTOPIA,WN,HYD,2003,0.88712739
UTOPIA,WN,HYD,2004,0.88712739
UTOPIA,WN,HYD,2005,0.88712739
UTOPIA,WN,HYD,2006,0.88712739
UTOPIA,WN,HYD,2007,0.88712739
UTOPIA,WN,HYD,2008,0.88712739
UTOPIA,WN,HYD,2009,0.88712739
UTOPIA,WN,HYD,2010,0.9314837595
UTOPIA,WN,TX,1990,0.86684
UTOPIA,WN,TX,1991,0.910182
UTOPIA,WN,TX,1992,0.953524
UTOPIA,WN,TX,1993,0.996866
UTOPIA,WN,TX,1994,1.040208
UTOPIA,WN,TX,1995,1.08355
UTOPIA,WN,TX,1996,1.126892
UTOPIA,WN,TX,1997,1.170234
UTOPIA,WN,TX,1998,1.213576
UTOPIA,WN,TX,1999,1.256918
UTOPIA,WN,TX,2000,1.30026
UTOPIA,WN,TX,2001,1.3651063
UTOPIA,WN,TX,2002,1.4299526
UTOPIA,WN,TX,2003,1.4947989
UTOPIA,WN,TX,2004,1.5596452
UTOPIA,WN,TX,2005,1.6244915
UTOPIA,WN,TX,2006,1.6893378
UTOPIA,WN,TX,2007,1.7541841
UTOPIA,WN,TX,2008,1.8190304
UTOPIA,WN,TX,2009,1.8838767
UTOPIA,WN,TX,2010,1.948723
UTOPIA,WN,GSL,1990,0.0
UTOPIA,WN,GSL,1991,0.0
UTOPIA,WN,GSL,1992,0.0
UTOPIA,WN,GSL,1993,0.0
UTOPIA,WN,GSL,1994,0.0
UTOPIA,WN,GSL,1995,-1.35235485119155e-15
UTOPIA,WN,GSL,1996,0.0
UTOPIA,WN,GSL,1997,0.0
UTOPIA,WN,GSL,1998,0.0
UTOPIA,WN,GSL,1999,0.0
UTOPIA,WN,GSL,2000,0.0
UTOPIA,WN,GSL,2001,0.0
UTOPIA,WN,GSL,2002,0.0
UTOPIA,WN,GSL,2003,0.0
UTOPIA,WN,GSL,2004,0.0
UTOPIA,WN,GSL,2005,0.0
UTOPIA,WN,GSL,2006,0.0
UTOPIA,WN,GSL,2007,0.0
UTOPIA,WN,GSL,2008,0.0
UTOPIA,WN,GSL,2009,9.12509505035827e-16
UTOPIA,WN,GSL,2010,0.0
UTOPIA,WN,RL,1990,0.56
UTOPIA,WN,RL,1991,0.588
UTOPIA,WN,RL,1992,0.616
UTOPIA,WN,RL,1993,0.644
UTOPIA,WN,RL,1994,0.672
UTOPIA,WN,RL,1995,0.7
UTOPIA,WN,RL,1996,0.728
UTOPIA,WN,RL,1997,0.756
UTOPIA,WN,RL,1998,0.784
UTOPIA,WN,RL,1999,0.812
UTOPIA,WN,RL,2000,0.84
UTOPIA,WN,RL,2001,0.882
UTOPIA,WN,RL,2002,0.924
UTOPIA,WN,RL,2003,0.966
UTOPIA,WN,RL,2004,1.008
UTOPIA,WN,RL,2005,1.05
UTOPIA,WN,RL,2006,1.092
UTOPIA,WN,RL,2007,1.134
UTOPIA,WN,RL,2008,1.176
UTOPIA,WN,RL,2009,1.218
UTOPIA,WN,RL,2010,1.26
UTOPIA,WN,RH,1990,6.88716
UTOPIA,WN,RH,1991,7.231518
UTOPIA,WN,RH,1992,7.575876
UTOPIA,WN,RH,1993,7.920234
UTOPIA,WN,RH,1994,8.264592
UTOPIA,WN,RH,1995,8.60895
UTOPIA,WN,RH,1996,8.953308
UTOPIA,WN,RH,1997,9.297666
UTOPIA,WN,RH,1998,9.642024
UTOPIA,WN,RH,1999,9.986382
UTOPIA,WN,RH,2000,10.33074
UTOPIA,WN,RH,2001,10.847277
UTOPIA,WN,RH,2002,11.363814
UTOPIA,WN,RH,2003,11.880351
UTOPIA,WN,RH,2004,12.396888
UTOPIA,WN,RH,2005,12.913425
UTOPIA,WN,RH,2006,13.429962
UTOPIA,WN,RH,2007,13.946499
UTOPIA,WN,RH,2008,14.463036
UTOPIA,WN,RH,2009,14.979573
UTOPIA,WN,RH,2010,15.49611
UTOPIA,WN,URN,1990,0.0
UTOPIA,WN,URN,1991,0.0
UTOPIA,WN,URN,1992,0.0
UTOPIA,WN,URN,1993,0.0
UTOPIA,WN,URN,1994,0.0
UTOPIA,WN,URN,1995,0.0
UTOPIA,WN,URN,1996,0.0
UTOPIA,WN,URN,1997,0.0
UTOPIA,WN,URN,1998,0.0
UTOPIA,WN,URN,1999,0.0
UTOPIA,WN,URN,2000,0.0
UTOPIA,WN,URN,2001,0.0
UTOPIA,WN,URN,2002,0.0
UTOPIA,WN,URN,2003,0.0
UTOPIA,WN,URN,2004,0.0
UTOPIA,WN,URN,2005,0.0
UTOPIA,WN,URN,2006,0.0
UTOPIA,WN,URN,2007,0.0
UTOPIA,WN,URN,2008,0.0
UTOPIA,WN,URN,2009,0.0
UTOPIA,WN,URN,2010,0.0
UTOPIA,WN,ELC,1990,0.56
UTOPIA,WN,ELC,1991,0.588
UTOPIA,WN,ELC,1992,0.616
UTOPIA,WN,ELC,1993,0.644
UTOPIA,WN,ELC,1994,0.672
UTOPIA,WN,ELC,1995,0.7
UTOPIA,WN,ELC,1996,0.728
UTOPIA,WN,ELC,1997,0.756
UTOPIA,WN,ELC,1998,0.784
UTOPIA,WN,ELC,1999,0.812
UTOPIA,WN,ELC,2000,1.40123433663366
UTOPIA,WN,ELC,2001,2.16006084158415
UTOPIA,WN,ELC,2002,2.93555734653465
UTOPIA,WN,ELC,2003,3.69438385148515
UTOPIA,WN,ELC,2004,4.46988035643565
UTOPIA,WN,ELC,2005,5.22870686138613
UTOPIA,WN,ELC,2006,6.00420336633663
UTOPIA,WN,ELC,2007,6.76302987128713
UTOPIA,WN,ELC,2008,7.53852637623762
UTOPIA,WN,ELC,2009,8.29735288118812
UTOPIA,WN,ELC,2010,9.07284938613861
UTOPIA,SN,LTH,1990,0.0
UTOPIA,SN,LTH,1991,0.0
UTOPIA,SN,LTH,1992,0.0
UTOPIA,SN,LTH,1993,0.0
UTOPIA,SN,LTH,1994,0.0
UTOPIA,SN,LTH,1995,0.0
UTOPIA,SN,LTH,1996,0.0
UTOPIA,SN,LTH,1997,0.0
UTOPIA,SN,LTH,1998,0.0
UTOPIA,SN,LTH,1999,0.0
UTOPIA,SN,LTH,2000,0.0
UTOPIA,SN,LTH,2001,0.0
UTOPIA,SN,LTH,2002,0.0
UTOPIA,SN,LTH,2003,0.0
UTOPIA,SN,LTH,2004,0.0
UTOPIA,SN,LTH,2005,0.0
UTOPIA,SN,LTH,2006,0.0
UTOPIA,SN,LTH,2007,0.0
UTOPIA,SN,LTH,2008,0.0
UTOPIA,SN,LTH,2009,0.0
UTOPIA,SN,LTH,2010,0.0
UTOPIA,SN,HCO,1990,0.0
UTOPIA,SN,HCO,1991,0.0
UTOPIA,SN,HCO,1992,0.0
UTOPIA,SN,HCO,1993,0.0
UTOPIA,SN,HCO,1994,0.0197435175000001
UTOPIA,SN,HCO,1995,0.0634935174999995
UTOPIA,SN,HCO,1996,0.085078637
UTOPIA,SN,HCO,1997,0.128828637
UTOPIA,SN,HCO,1998,0.172578637
UTOPIA,SN,HCO,1999,0.216328637
UTOPIA,SN,HCO,2000,0.2379137565
UTOPIA,SN,HCO,2001,0.237044115
UTOPIA,SN,HCO,2002,0.302669115
UTOPIA,SN,HCO,2003,0.368294115
UTOPIA,SN,HCO,2004,0.433919114999999
UTOPIA,SN,HCO,2005,0.499544115000001
UTOPIA,SN,HCO,2006,0.565169115
UTOPIA,SN,HCO,2007,0.630794115
UTOPIA,SN,HCO,2008,0.696419115
UTOPIA,SN,HCO,2009,0.762044115
UTOPIA,SN,HCO,2010,0.8055042345
UTOPIA,SN,OIL,1990,0.0
UTOPIA,SN,OIL,1991,0.0
UTOPIA,SN,OIL,1992,0.0
UTOPIA,SN,OIL,1993,0.0
UTOPIA,SN,OIL,1994,0.0
UTOPIA,SN,OIL,1995,0.0
UTOPIA,SN,OIL,1996,0.0
UTOPIA,SN,OIL,1997,0.0
UTOPIA,SN,OIL,1998,0.0
UTOPIA,SN,OIL,1999,0.0
UTOPIA,SN,OIL,2000,0.0
UTOPIA,SN,OIL,2001,0.0
UTOPIA,SN,OIL,2002,0.0
UTOPIA,SN,OIL,2003,0.0
UTOPIA,SN,OIL,2004,0.0
UTOPIA,SN,OIL,2005,0.0
UTOPIA,SN,OIL,2006,0.0
UTOPIA,SN,OIL,2007,0.0
UTOPIA,SN,OIL,2008,0.0
UTOPIA,SN,OIL,2009,0.0
UTOPIA,SN,OIL,2010,0.0
UTOPIA,SN,CSV,1990,0.0
UTOPIA,SN,CSV,1991,0.0
UTOPIA,SN,CSV,1992,0.0
UTOPIA,SN,CSV,1993,0.0
UTOPIA,SN,CSV,1994,0.0
UTOPIA,SN,CSV,1995,0.0
UTOPIA,SN,CSV,1996,0.0
UTOPIA,SN,CSV,1997,0.0
UTOPIA,SN,CSV,1998,0.0
UTOPIA,SN,CSV,1999,0.0
UTOPIA,SN,CSV,2000,0.0
UTOPIA,SN,CSV,2001,0.0
UTOPIA,SN,CSV,2002,0.0
UTOPIA,SN,CSV,2003,0.0
UTOPIA,SN,CSV,2004,0.0
UTOPIA,SN,CSV,2005,0.0
UTOPIA,SN,CSV,2006,0.0
UTOPIA,SN,CSV,2007,0.0
UTOPIA,SN,CSV,2008,0.0
UTOPIA,SN,CSV,2009,0.0
UTOPIA,SN,CSV,2010,0.0
UTOPIA,SN,DSL,1990,0.43316
UTOPIA,SN,DSL,1991,0.454818
UTOPIA,SN,DSL,1992,0.476476
UTOPIA,SN,DSL,1993,0.498134
UTOPIA,SN,DSL,1994,0.519792
UTOPIA,SN,DSL,1995,0.54145
UTOPIA,SN,DSL,1996,0.563108
UTOPIA,SN,DSL,1997,0.584766
UTOPIA,SN,DSL,1998,0.606424
UTOPIA,SN,DSL,1999,0.628082
UTOPIA,SN,DSL,2000,0.64974
UTOPIA,SN,DSL,2001,0.6821437
UTOPIA,SN,DSL,2002,0.7145474
UTOPIA,SN,DSL,2003,0.7469511
UTOPIA,SN,DSL,2004,0.7793548
UTOPIA,SN,DSL,2005,0.8117585
UTOPIA,SN,DSL,2006,0.8441622
UTOPIA,SN,DSL,2007,0.8765659
UTOPIA,SN,DSL,2008,0.9089696
UTOPIA,SN,DSL,2009,0.9413733
UTOPIA,SN,DSL,2010,0.973777
UTOPIA,SN,HYD,1990,0.177216725
UTOPIA,SN,HYD,1991,0.220966725
UTOPIA,SN,HYD,1992,0.264716725
UTOPIA,SN,HYD,1993,0.308466725
UTOPIA,SN,HYD,1994,0.3324732075
UTOPIA,SN,HYD,1995,0.3324732075
UTOPIA,SN,HYD,1996,0.354638087999999
UTOPIA,SN,HYD,1997,0.354638088
UTOPIA,SN,HYD,1998,0.354638088
UTOPIA,SN,HYD,1999,0.354638088
UTOPIA,SN,HYD,2000,0.3768029685
UTOPIA,SN,HYD,2001,0.44329761
UTOPIA,SN,HYD,2002,0.44329761
UTOPIA,SN,HYD,2003,0.44329761
UTOPIA,SN,HYD,2004,0.44329761
UTOPIA,SN,HYD,2005,0.44329761
UTOPIA,SN,HYD,2006,0.44329761
UTOPIA,SN,HYD,2007,0.44329761
UTOPIA,SN,HYD,2008,0.44329761
UTOPIA,SN,HYD,2009,0.44329761
UTOPIA,SN,HYD,2010,0.4654624905
UTOPIA,SN,TX,1990,0.43316
UTOPIA,SN,TX,1991,0.454818
UTOPIA,SN,TX,1992,0.476476
UTOPIA,SN,TX,1993,0.498134
UTOPIA,SN,TX,1994,0.519792
UTOPIA,SN,TX,1995,0.54145
UTOPIA,SN,TX,1996,0.563108
UTOPIA,SN,TX,1997,0.584766
UTOPIA,SN,TX,1998,0.606424
UTOPIA,SN,TX,1999,0.628082
UTOPIA,SN,TX,2000,0.64974
UTOPIA,SN,TX,2001,0.6821437
UTOPIA,SN,TX,2002,0.7145474
UTOPIA,SN,TX,2003,0.7469511
UTOPIA,SN,TX,2004,0.7793548
UTOPIA,SN,TX,2005,0.8117585
UTOPIA,SN,TX,2006,0.844162200000001
UTOPIA,SN,TX,2007,0.8765659
UTOPIA,SN,TX,2008,0.9089696
UTOPIA,SN,TX,2009,0.9413733
UTOPIA,SN,TX,2010,0.973777000000001
UTOPIA,SN,GSL,1990,0.0
UTOPIA,SN,GSL,1991,0.0
UTOPIA,SN,GSL,1992,0.0
UTOPIA,SN,GSL,1993,0.0
UTOPIA,SN,GSL,1994,0.0
UTOPIA,SN,GSL,1995,0.0
UTOPIA,SN,GSL,1996,0.0
UTOPIA,SN,GSL,1997,0.0
UTOPIA,SN,GSL,1998,0.0
UTOPIA,SN,GSL,1999,0.0
UTOPIA,SN,GSL,2000,0.0
UTOPIA,SN,GSL,2001,0.0
UTOPIA,SN,GSL,2002,0.0
UTOPIA,SN,GSL,2003,0.0
UTOPIA,SN,GSL,2004,0.0
UTOPIA,SN,GSL,2005,0.0
UTOPIA,SN,GSL,2006,0.0
UTOPIA,SN,GSL,2007,0.0
UTOPIA,SN,GSL,2008,0.0
UTOPIA,SN,GSL,2009,0.0
UTOPIA,SN,GSL,2010,0.0
UTOPIA,SN,RL,1990,0.28
UTOPIA,SN,RL,1991,0.294
UTOPIA,SN,RL,1992,0.308
UTOPIA,SN,RL,1993,0.322
UTOPIA,SN,RL,1994,0.336
UTOPIA,SN,RL,1995,0.35
UTOPIA,SN,RL,1996,0.364
UTOPIA,SN,RL,1997,0.378
UTOPIA,SN,RL,1998,0.392
UTOPIA,SN,RL,1999,0.406
UTOPIA,SN,RL,2000,0.42
UTOPIA,SN,RL,2001,0.441
UTOPIA,SN,RL,2002,0.462
UTOPIA,SN,RL,2003,0.483
UTOPIA,SN,RL,2004,0.504
UTOPIA,SN,RL,2005,0.525
UTOPIA,SN,RL,2006,0.546
UTOPIA,SN,RL,2007,0.567
UTOPIA,SN,RL,2008,0.588
UTOPIA,SN,RL,2009,0.609
UTOPIA,SN,RL,2010,0.63
UTOPIA,SN,RH,1990,-0.0
UTOPIA,SN,RH,1991,-0.0
UTOPIA,SN,RH,1992,-0.0
UTOPIA,SN,RH,1993,-0.0
UTOPIA,SN,RH,1994,-0.0
UTOPIA,SN,RH,1995,-0.0
UTOPIA,SN,RH,1996,-0.0
UTOPIA,SN,RH,1997,-0.0
UTOPIA,SN,RH,1998,-0.0
UTOPIA,SN,RH,1999,-0.0
UTOPIA,SN,RH,2000,-0.0
UTOPIA,SN,RH,2001,-0.0
UTOPIA,SN,RH,2002,-0.0
UTOPIA,SN,RH,2003,-0.0
UTOPIA,SN,RH,2004,-0.0
UTOPIA,SN,RH,2005,-0.0
UTOPIA,SN,RH,2006,-0.0
UTOPIA,SN,RH,2007,-0.0
UTOPIA,SN,RH,2008,-0.0
UTOPIA,SN,RH,2009,-0.0
UTOPIA,SN,RH,2010,-0.0
UTOPIA,SN,URN,1990,0.0
UTOPIA,SN,URN,1991,0.0
UTOPIA,SN,URN,1992,0.0
UTOPIA,SN,URN,1993,0.0
UTOPIA,SN,URN,1994,0.0
UTOPIA,SN,URN,1995,0.0
UTOPIA,SN,URN,1996,0.0
UTOPIA,SN,URN,1997,0.0
UTOPIA,SN,URN,1998,0.0
UTOPIA,SN,URN,1999,0.0
UTOPIA,SN,URN,2000,0.0
UTOPIA,SN,URN,2001,0.0
UTOPIA,SN,URN,2002,0.0
UTOPIA,SN,URN,2003,0.0
UTOPIA,SN,URN,2004,0.0
UTOPIA,SN,URN,2005,0.0
UTOPIA,SN,URN,2006,0.0
UTOPIA,SN,URN,2007,0.0
UTOPIA,SN,URN,2008,0.0
UTOPIA,SN,URN,2009,0.0
UTOPIA,SN,URN,2010,0.0
UTOPIA,SN,ELC,1990,0.28
UTOPIA,SN,ELC,1991,0.294
UTOPIA,SN,ELC,1992,0.308
UTOPIA,SN,ELC,1993,0.322
UTOPIA,SN,ELC,1994,0.336
UTOPIA,SN,ELC,1995,0.35
UTOPIA,SN,ELC,1996,0.364
UTOPIA,SN,ELC,1997,0.378
UTOPIA,SN,ELC,1998,0.392
UTOPIA,SN,ELC,1999,0.406
UTOPIA,SN,ELC,2000,0.42
UTOPIA,SN,ELC,2001,0.441
UTOPIA,SN,ELC,2002,0.462
UTOPIA,SN,ELC,2003,0.483
UTOPIA,SN,ELC,2004,0.504
UTOPIA,SN,ELC,2005,0.525
UTOPIA,SN,ELC,2006,0.546
UTOPIA,SN,ELC,2007,0.567
UTOPIA,SN,ELC,2008,0.588
UTOPIA,SN,ELC,2009,0.609
UTOPIA,SN,ELC,2010,0.63
UTOPIA,WD,LTH,1990,0.0
UTOPIA,WD,LTH,1991,0.0
UTOPIA,WD,LTH,1992,0.0
UTOPIA,WD,LTH,1993,0.0
UTOPIA,WD,LTH,1994,0.0
UTOPIA,WD,LTH,1995,0.0
UTOPIA,WD,LTH,1996,0.0
UTOPIA,WD,LTH,1997,0.0
UTOPIA,WD,LTH,1998,0.0
UTOPIA,WD,LTH,1999,0.0
UTOPIA,WD,LTH,2000,0.0
UTOPIA,WD,LTH,2001,0.0
UTOPIA,WD,LTH,2002,0.0
UTOPIA,WD,LTH,2003,0.0
UTOPIA,WD,LTH,2004,0.0
UTOPIA,WD,LTH,2005,0.0
UTOPIA,WD,LTH,2006,0.0
UTOPIA,WD,LTH,2007,0.0
UTOPIA,WD,LTH,2008,0.0
UTOPIA,WD,LTH,2009,0.0
UTOPIA,WD,LTH,2010,0.0
UTOPIA,WD,HCO,1990,4.80510952849999
UTOPIA,WD,HCO,1991,5.153923398
UTOPIA,WD,HCO,1992,5.591423398
UTOPIA,WD,HCO,1993,5.9402372675
UTOPIA,WD,HCO,1994,6.3777372675
UTOPIA,WD,HCO,1995,6.8152372675
UTOPIA,WD,HCO,1996,7.164051137
UTOPIA,WD,HCO,1997,7.601551137
UTOPIA,WD,HCO,1998,8.039051137
UTOPIA,WD,HCO,1999,8.476551137
UTOPIA,WD,HCO,2000,12.3320275065
UTOPIA,WD,HCO,2001,17.20104099
UTOPIA,WD,HCO,2002,22.440269115
UTOPIA,WD,HCO,2003,27.57534099
UTOPIA,WD,HCO,2004,32.814569115
UTOPIA,WD,HCO,2005,37.94964099
UTOPIA,WD,HCO,2006,43.188869115
UTOPIA,WD,HCO,2007,48.32394099
UTOPIA,WD,HCO,2008,53.563169115
UTOPIA,WD,HCO,2009,58.69824099
UTOPIA,WD,HCO,2010,63.8487829845
UTOPIA,WD,OIL,1990,0.0
UTOPIA,WD,OIL,1991,0.0
UTOPIA,WD,OIL,1992,0.0
UTOPIA,WD,OIL,1993,0.0
UTOPIA,WD,OIL,1994,0.0
UTOPIA,WD,OIL,1995,0.0
UTOPIA,WD,OIL,1996,0.0
UTOPIA,WD,OIL,1997,0.0
UTOPIA,WD,OIL,1998,0.0
UTOPIA,WD,OIL,1999,0.0
UTOPIA,WD,OIL,2000,0.0
UTOPIA,WD,OIL,2001,0.0
UTOPIA,WD,OIL,2002,0.0
UTOPIA,WD,OIL,2003,0.0
UTOPIA,WD,OIL,2004,0.0
UTOPIA,WD,OIL,2005,0.0
UTOPIA,WD,OIL,2006,0.0
UTOPIA,WD,OIL,2007,0.0
UTOPIA,WD,OIL,2008,0.0
UTOPIA,WD,OIL,2009,0.0
UTOPIA,WD,OIL,2010,0.0
UTOPIA,WD,CSV,1990,0.0
UTOPIA,WD,CSV,1991,0.0
UTOPIA,WD,CSV,1992,0.0
UTOPIA,WD,CSV,1993,0.0
UTOPIA,WD,CSV,1994,0.0
UTOPIA,WD,CSV,1995,0.0
UTOPIA,WD,CSV,1996,0.0
UTOPIA,WD,CSV,1997,0.0
UTOPIA,WD,CSV,1998,0.0
UTOPIA,WD,CSV,1999,0.0
UTOPIA,WD,CSV,2000,0.0
UTOPIA,WD,CSV,2001,0.0
UTOPIA,WD,CSV,2002,0.0
UTOPIA,WD,CSV,2003,0.0
UTOPIA,WD,CSV,2004,0.0
UTOPIA,WD,CSV,2005,0.0
UTOPIA,WD,CSV,2006,0.0
UTOPIA,WD,CSV,2007,0.0
UTOPIA,WD,CSV,2008,0.0
UTOPIA,WD,CSV,2009,0.0
UTOPIA,WD,CSV,2010,0.0
UTOPIA,WD,DSL,1990,21.41435409564
UTOPIA,WD,DSL,1991,22.485071800422
UTOPIA,WD,DSL,1992,23.555789505204
UTOPIA,WD,DSL,1993,24.626507209986
UTOPIA,WD,DSL,1994,25.697224914768
UTOPIA,WD,DSL,1995,26.76794261955
UTOPIA,WD,DSL,1996,27.838660324332
UTOPIA,WD,DSL,1997,28.909378029114
UTOPIA,WD,DSL,1998,29.980095733896
UTOPIA,WD,DSL,1999,31.050813438678
UTOPIA,WD,DSL,2000,30.518485910088
UTOPIA,WD,DSL,2001,30.076768352928
UTOPIA,WD,DSL,2002,29.587436524338
UTOPIA,WD,DSL,2003,29.145718967178
UTOPIA,WD,DSL,2004,28.656387138588
UTOPIA,WD,DSL,2005,28.214669581428
UTOPIA,WD,DSL,2006,27.725337752838
UTOPIA,WD,DSL,2007,27.283620195678
UTOPIA,WD,DSL,2008,26.794288367088
UTOPIA,WD,DSL,2009,26.352570809928
UTOPIA,WD,DSL,2010,25.863238981338
UTOPIA,WD,HYD,1990,1.1529196965
UTOPIA,WD,HYD,1991,1.241605827
UTOPIA,WD,HYD,1992,1.241605827
UTOPIA,WD,HYD,1993,1.3302919575
UTOPIA,WD,HYD,1994,1.3302919575
UTOPIA,WD,HYD,1995,1.3302919575
UTOPIA,WD,HYD,1996,1.418978088
UTOPIA,WD,HYD,1997,1.418978088
UTOPIA,WD,HYD,1998,1.418978088
UTOPIA,WD,HYD,1999,1.418978088
UTOPIA,WD,HYD,2000,1.5076642185
UTOPIA,WD,HYD,2001,1.77372261
UTOPIA,WD,HYD,2002,1.77372261
UTOPIA,WD,HYD,2003,1.77372261
UTOPIA,WD,HYD,2004,1.77372261
UTOPIA,WD,HYD,2005,1.77372261
UTOPIA,WD,HYD,2006,1.77372261
UTOPIA,WD,HYD,2007,1.77372261
UTOPIA,WD,HYD,2008,1.77372261
UTOPIA,WD,HYD,2009,1.77372261
UTOPIA,WD,HYD,2010,1.8624087405
UTOPIA,WD,TX,1990,1.73316
UTOPIA,WD,TX,1991,1.819818
UTOPIA,WD,TX,1992,1.906476
UTOPIA,WD,TX,1993,1.993134
UTOPIA,WD,TX,1994,2.079792
UTOPIA,WD,TX,1995,2.16645
UTOPIA,WD,TX,1996,2.253108
UTOPIA,WD,TX,1997,2.339766
UTOPIA,WD,TX,1998,2.426424
UTOPIA,WD,TX,1999,2.513082
UTOPIA,WD,TX,2000,2.59974
UTOPIA,WD,TX,2001,2.7293937
UTOPIA,WD,TX,2002,2.8590474
UTOPIA,WD,TX,2003,2.9887011
UTOPIA,WD,TX,2004,3.1183548
UTOPIA,WD,TX,2005,3.2480085
UTOPIA,WD,TX,2006,3.3776622
UTOPIA,WD,TX,2007,3.5073159
UTOPIA,WD,TX,2008,3.6369696
UTOPIA,WD,TX,2009,3.7666233
UTOPIA,WD,TX,2010,3.896277
UTOPIA,WD,GSL,1990,0.0
UTOPIA,WD,GSL,1991,0.0
UTOPIA,WD,GSL,1992,0.0
UTOPIA,WD,GSL,1993,0.0
UTOPIA,WD,GSL,1994,0.0
UTOPIA,WD,GSL,1995,0.0
UTOPIA,WD,GSL,1996,0.0
UTOPIA,WD,GSL,1997,0.0
UTOPIA,WD,GSL,1998,0.0
UTOPIA,WD,GSL,1999,0.0
UTOPIA,WD,GSL,2000,0.0
UTOPIA,WD,GSL,2001,0.0
UTOPIA,WD,GSL,2002,0.0
UTOPIA,WD,GSL,2003,0.0
UTOPIA,WD,GSL,2004,0.0
UTOPIA,WD,GSL,2005,0.0
UTOPIA,WD,GSL,2006,0.0
UTOPIA,WD,GSL,2007,0.0
UTOPIA,WD,GSL,2008,0.0
UTOPIA,WD,GSL,2009,0.0
UTOPIA,WD,GSL,2010,0.0
UTOPIA,WD,RL,1990,2.8
UTOPIA,WD,RL,1991,2.94
UTOPIA,WD,RL,1992,3.08
UTOPIA,WD,RL,1993,3.22
UTOPIA,WD,RL,1994,3.36
UTOPIA,WD,RL,1995,3.5
UTOPIA,WD,RL,1996,3.64
UTOPIA,WD,RL,1997,3.78
UTOPIA,WD,RL,1998,3.92
UTOPIA,WD,RL,1999,4.06
UTOPIA,WD,RL,2000,4.2
UTOPIA,WD,RL,2001,4.41
UTOPIA,WD,RL,2002,4.62
UTOPIA,WD,RL,2003,4.83
UTOPIA,WD,RL,2004,5.04
UTOPIA,WD,RL,2005,5.25
UTOPIA,WD,RL,2006,5.46
UTOPIA,WD,RL,2007,5.67
UTOPIA,WD,RL,2008,5.88
UTOPIA,WD,RL,2009,6.09
UTOPIA,WD,RL,2010,6.3
UTOPIA,WD,RH,1990,13.77684
UTOPIA,WD,RH,1991,14.465682
UTOPIA,WD,RH,1992,15.154524
UTOPIA,WD,RH,1993,15.843366
UTOPIA,WD,RH,1994,16.532208
UTOPIA,WD,RH,1995,17.22105
UTOPIA,WD,RH,1996,17.909892
UTOPIA,WD,RH,1997,18.598734
UTOPIA,WD,RH,1998,19.287576
UTOPIA,WD,RH,1999,19.976418
UTOPIA,WD,RH,2000,20.66526
UTOPIA,WD,RH,2001,21.698523
UTOPIA,WD,RH,2002,22.731786
UTOPIA,WD,RH,2003,23.765049
UTOPIA,WD,RH,2004,24.798312
UTOPIA,WD,RH,2005,25.831575
UTOPIA,WD,RH,2006,26.864838
UTOPIA,WD,RH,2007,27.898101
UTOPIA,WD,RH,2008,28.931364
UTOPIA,WD,RH,2009,29.964627
UTOPIA,WD,RH,2010,30.99789
UTOPIA,WD,URN,1990,0.0
UTOPIA,WD,URN,1991,0.0
UTOPIA,WD,URN,1992,0.0
UTOPIA,WD,URN,1993,0.0
UTOPIA,WD,URN,1994,0.0
UTOPIA,WD,URN,1995,0.0
UTOPIA,WD,URN,1996,0.0
UTOPIA,WD,URN,1997,0.0
UTOPIA,WD,URN,1998,0.0
UTOPIA,WD,URN,1999,0.0
UTOPIA,WD,URN,2000,0.0
UTOPIA,WD,URN,2001,0.0
UTOPIA,WD,URN,2002,0.0
UTOPIA,WD,URN,2003,0.0
UTOPIA,WD,URN,2004,0.0
UTOPIA,WD,URN,2005,0.0
UTOPIA,WD,URN,2006,0.0
UTOPIA,WD,URN,2007,0.0
UTOPIA,WD,URN,2008,0.0
UTOPIA,WD,URN,2009,0.0
UTOPIA,WD,URN,2010,0.0
UTOPIA,WD,ELC,1990,2.8
UTOPIA,WD,ELC,1991,2.94
UTOPIA,WD,ELC,1992,3.08
UTOPIA,WD,ELC,1993,3.22
UTOPIA,WD,ELC,1994,3.36
UTOPIA,WD,ELC,1995,3.5
UTOPIA,WD,ELC,1996,3.64
UTOPIA,WD,ELC,1997,3.78
UTOPIA,WD,ELC,1998,3.92
UTOPIA,WD,ELC,1999,4.06
UTOPIA,WD,ELC,2000,5.322132
UTOPIA,WD,ELC,2001,6.96535499999999
UTOPIA,WD,ELC,2002,8.64190799999999
UTOPIA,WD,ELC,2003,10.285131
UTOPIA,WD,ELC,2004,11.961684
UTOPIA,WD,ELC,2005,13.604907
UTOPIA,WD,ELC,2006,15.28146
UTOPIA,WD,ELC,2007,16.924683
UTOPIA,WD,ELC,2008,18.601236
UTOPIA,WD,ELC,2009,20.244459
UTOPIA,WD,ELC,2010,21.921012
UTOPIA,IN,LTH,1990,0.0
UTOPIA,IN,LTH,1991,0.0
UTOPIA,IN,LTH,1992,0.0
UTOPIA,IN,LTH,1993,0.0
UTOPIA,IN,LTH,1994,0.0
UTOPIA,IN,LTH,1995,0.0
UTOPIA,IN,LTH,1996,0.0
UTOPIA,IN,LTH,1997,0.0
UTOPIA,IN,LTH,1998,0.0
UTOPIA,IN,LTH,1999,0.0
UTOPIA,IN,LTH,2000,0.0
UTOPIA,IN,LTH,2001,0.0
UTOPIA,IN,LTH,2002,0.0
UTOPIA,IN,LTH,2003,0.0
UTOPIA,IN,LTH,2004,0.0
UTOPIA,IN,LTH,2005,0.0
UTOPIA,IN,LTH,2006,0.0
UTOPIA,IN,LTH,2007,0.0
UTOPIA,IN,LTH,2008,0.0
UTOPIA,IN,LTH,2009,0.0
UTOPIA,IN,LTH,2010,0.0
UTOPIA,IN,HCO,1990,0.0
UTOPIA,IN,HCO,1991,0.0
UTOPIA,IN,HCO,1992,0.0
UTOPIA,IN,HCO,1993,0.0
UTOPIA,IN,HCO,1994,0.0197435175000001
UTOPIA,IN,HCO,1995,0.0634935174999995
UTOPIA,IN,HCO,1996,0.085078637
UTOPIA,IN,HCO,1997,0.128828637
UTOPIA,IN,HCO,1998,0.172578637
UTOPIA,IN,HCO,1999,0.216328637
UTOPIA,IN,HCO,2000,1.1143163555099
UTOPIA,IN,HCO,2001,2.23281623752475
UTOPIA,IN,HCO,2002,3.4438420110396
UTOPIA,IN,HCO,2003,4.62883653455445
UTOPIA,IN,HCO,2004,5.83986230806931
UTOPIA,IN,HCO,2005,7.02485683158416
UTOPIA,IN,HCO,2006,8.23588260509901
UTOPIA,IN,HCO,2007,9.42087712861386
UTOPIA,IN,HCO,2008,10.618919115
UTOPIA,IN,HCO,2009,11.038919115
UTOPIA,IN,HCO,2010,11.4367542345
UTOPIA,IN,OIL,1990,0.0
UTOPIA,IN,OIL,1991,0.0
UTOPIA,IN,OIL,1992,0.0
UTOPIA,IN,OIL,1993,0.0
UTOPIA,IN,OIL,1994,0.0
UTOPIA,IN,OIL,1995,0.0
UTOPIA,IN,OIL,1996,0.0
UTOPIA,IN,OIL,1997,0.0
UTOPIA,IN,OIL,1998,0.0
UTOPIA,IN,OIL,1999,0.0
UTOPIA,IN,OIL,2000,0.0
UTOPIA,IN,OIL,2001,0.0
UTOPIA,IN,OIL,2002,0.0
UTOPIA,IN,OIL,2003,0.0
UTOPIA,IN,OIL,2004,0.0
UTOPIA,IN,OIL,2005,0.0
UTOPIA,IN,OIL,2006,0.0
UTOPIA,IN,OIL,2007,0.0
UTOPIA,IN,OIL,2008,0.0
UTOPIA,IN,OIL,2009,0.0
UTOPIA,IN,OIL,2010,0.0
UTOPIA,IN,CSV,1990,0.0
UTOPIA,IN,CSV,1991,0.0
UTOPIA,IN,CSV,1992,0.0
UTOPIA,IN,CSV,1993,0.0
UTOPIA,IN,CSV,1994,0.0
UTOPIA,IN,CSV,1995,0.0
UTOPIA,IN,CSV,1996,0.0
UTOPIA,IN,CSV,1997,0.0
UTOPIA,IN,CSV,1998,0.0
UTOPIA,IN,CSV,1999,0.0
UTOPIA,IN,CSV,2000,0.0
UTOPIA,IN,CSV,2001,0.0
UTOPIA,IN,CSV,2002,0.0
UTOPIA,IN,CSV,2003,0.0
UTOPIA,IN,CSV,2004,0.0
UTOPIA,IN,CSV,2005,0.0
UTOPIA,IN,CSV,2006,0.0
UTOPIA,IN,CSV,2007,0.0
UTOPIA,IN,CSV,2008,0.0
UTOPIA,IN,CSV,2009,0.0
UTOPIA,IN,CSV,2010,0.0
UTOPIA,IN,DSL,1990,2.593159352
UTOPIA,IN,DSL,1991,2.7228173196
UTOPIA,IN,DSL,1992,2.8524752872
UTOPIA,IN,DSL,1993,2.9821332548
UTOPIA,IN,DSL,1994,3.1117912224
UTOPIA,IN,DSL,1995,3.24144919
UTOPIA,IN,DSL,1996,3.37110715760003
UTOPIA,IN,DSL,1997,3.5007651252
UTOPIA,IN,DSL,1998,3.6304230928
UTOPIA,IN,DSL,1999,3.7600810604
UTOPIA,IN,DSL,2000,3.48909796007355
UTOPIA,IN,DSL,2001,3.17178998280886
UTOPIA,IN,DSL,2002,2.84258200911418
UTOPIA,IN,DSL,2003,2.5252740318495
UTOPIA,IN,DSL,2004,2.19606605815481
UTOPIA,IN,DSL,2005,1.87875808089013
UTOPIA,IN,DSL,2006,1.54955010719545
UTOPIA,IN,DSL,2007,1.23224212993076
UTOPIA,IN,DSL,2008,0.908969600000001
UTOPIA,IN,DSL,2009,0.9413733
UTOPIA,IN,DSL,2010,0.973777
UTOPIA,IN,HYD,1990,0.177216725
UTOPIA,IN,HYD,1991,0.220966725
UTOPIA,IN,HYD,1992,0.264716725
UTOPIA,IN,HYD,1993,0.308466725
UTOPIA,IN,HYD,1994,0.3324732075
UTOPIA,IN,HYD,1995,0.3324732075
UTOPIA,IN,HYD,1996,0.354638088
UTOPIA,IN,HYD,1997,0.354638088
UTOPIA,IN,HYD,1998,0.354638088
UTOPIA,IN,HYD,1999,0.354638088
UTOPIA,IN,HYD,2000,0.3768029685
UTOPIA,IN,HYD,2001,0.44329761
UTOPIA,IN,HYD,2002,0.44329761
UTOPIA,IN,HYD,2003,0.44329761
UTOPIA,IN,HYD,2004,0.44329761
UTOPIA,IN,HYD,2005,0.443297609999999
UTOPIA,IN,HYD,2006,0.44329761
UTOPIA,IN,HYD,2007,0.44329761
UTOPIA,IN,HYD,2008,0.44329761
UTOPIA,IN,HYD,2009,0.44329761
UTOPIA,IN,HYD,2010,0.4654624905
UTOPIA,IN,TX,1990,0.43316
UTOPIA,IN,TX,1991,0.454818
UTOPIA,IN,TX,1992,0.476476
UTOPIA,IN,TX,1993,0.498134
UTOPIA,IN,TX,1994,0.519792
UTOPIA,IN,TX,1995,0.54145
UTOPIA,IN,TX,1996,0.563108
UTOPIA,IN,TX,1997,0.584766
UTOPIA,IN,TX,1998,0.606424
UTOPIA,IN,TX,1999,0.628082
UTOPIA,IN,TX,2000,0.64974
UTOPIA,IN,TX,2001,0.6821437
UTOPIA,IN,TX,2002,0.7145474
UTOPIA,IN,TX,2003,0.7469511
UTOPIA,IN,TX,2004,0.7793548
UTOPIA,IN,TX,2005,0.8117585
UTOPIA,IN,TX,2006,0.844162200000001
UTOPIA,IN,TX,2007,0.8765659
UTOPIA,IN,TX,2008,0.9089696
UTOPIA,IN,TX,2009,0.9413733
UTOPIA,IN,TX,2010,0.973777
UTOPIA,IN,GSL,1990,0.0
UTOPIA,IN,GSL,1991,0.0
UTOPIA,IN,GSL,1992,0.0
UTOPIA,IN,GSL,1993,0.0
UTOPIA,IN,GSL,1994,0.0
UTOPIA,IN,GSL,1995,0.0
UTOPIA,IN,GSL,1996,0.0
UTOPIA,IN,GSL,1997,0.0
UTOPIA,IN,GSL,1998,0.0
UTOPIA,IN,GSL,1999,0.0
UTOPIA,IN,GSL,2000,0.0
UTOPIA,IN,GSL,2001,0.0
UTOPIA,IN,GSL,2002,0.0
UTOPIA,IN,GSL,2003,0.0
UTOPIA,IN,GSL,2004,0.0
UTOPIA,IN,GSL,2005,0.0
UTOPIA,IN,GSL,2006,0.0
UTOPIA,IN,GSL,2007,0.0
UTOPIA,IN,GSL,2008,0.0
UTOPIA,IN,GSL,2009,0.0
UTOPIA,IN,GSL,2010,0.0
UTOPIA,IN,RL,1990,0.28
UTOPIA,IN,RL,1991,0.294
UTOPIA,IN,RL,1992,0.308
UTOPIA,IN,RL,1993,0.322
UTOPIA,IN,RL,1994,0.336
UTOPIA,IN,RL,1995,0.35
UTOPIA,IN,RL,1996,0.364
UTOPIA,IN,RL,1997,0.378
UTOPIA,IN,RL,1998,0.392
UTOPIA,IN,RL,1999,0.406
UTOPIA,IN,RL,2000,0.42
UTOPIA,IN,RL,2001,0.441
UTOPIA,IN,RL,2002,0.462
UTOPIA,IN,RL,2003,0.483
UTOPIA,IN,RL,2004,0.504
UTOPIA,IN,RL,2005,0.525
UTOPIA,IN,RL,2006,0.546
UTOPIA,IN,RL,2007,0.567
UTOPIA,IN,RL,2008,0.588
UTOPIA,IN,RL,2009,0.609
UTOPIA,IN,RL,2010,0.63
UTOPIA,IN,RH,1990,1.512
UTOPIA,IN,RH,1991,1.5876
UTOPIA,IN,RH,1992,1.6632
UTOPIA,IN,RH,1993,1.7388
UTOPIA,IN,RH,1994,1.8144
UTOPIA,IN,RH,1995,1.89
UTOPIA,IN,RH,1996,1.9656
UTOPIA,IN,RH,1997,2.0412
UTOPIA,IN,RH,1998,2.1168
UTOPIA,IN,RH,1999,2.1924
UTOPIA,IN,RH,2000,2.268
UTOPIA,IN,RH,2001,2.3814
UTOPIA,IN,RH,2002,2.4948
UTOPIA,IN,RH,2003,2.6082
UTOPIA,IN,RH,2004,2.7216
UTOPIA,IN,RH,2005,2.835
UTOPIA,IN,RH,2006,2.9484
UTOPIA,IN,RH,2007,3.0618
UTOPIA,IN,RH,2008,3.1752
UTOPIA,IN,RH,2009,3.2886
UTOPIA,IN,RH,2010,3.402
UTOPIA,IN,URN,1990,0.0
UTOPIA,IN,URN,1991,0.0
UTOPIA,IN,URN,1992,0.0
UTOPIA,IN,URN,1993,0.0
UTOPIA,IN,URN,1994,0.0
UTOPIA,IN,URN,1995,0.0
UTOPIA,IN,URN,1996,0.0
UTOPIA,IN,URN,1997,0.0
UTOPIA,IN,URN,1998,0.0
UTOPIA,IN,URN,1999,0.0
UTOPIA,IN,URN,2000,0.0
UTOPIA,IN,URN,2001,0.0
UTOPIA,IN,URN,2002,0.0
UTOPIA,IN,URN,2003,0.0
UTOPIA,IN,URN,2004,0.0
UTOPIA,IN,URN,2005,0.0
UTOPIA,IN,URN,2006,0.0
UTOPIA,IN,URN,2007,0.0
UTOPIA,IN,URN,2008,0.0
UTOPIA,IN,URN,2009,0.0
UTOPIA,IN,URN,2010,0.0
UTOPIA,IN,ELC,1990,0.28
UTOPIA,IN,ELC,1991,0.294
UTOPIA,IN,ELC,1992,0.308
UTOPIA,IN,ELC,1993,0.322
UTOPIA,IN,ELC,1994,0.336
UTOPIA,IN,ELC,1995,0.35
UTOPIA,IN,ELC,1996,0.364
UTOPIA,IN,ELC,1997,0.378
UTOPIA,IN,ELC,1998,0.392
UTOPIA,IN,ELC,1999,0.406
UTOPIA,IN,ELC,2000,0.700448831683168
UTOPIA,IN,ELC,2001,1.07964707920792
UTOPIA,IN,ELC,2002,1.46717532673267
UTOPIA,IN,ELC,2003,1.84637357425743
UTOPIA,IN,ELC,2004,2.23390182178218
UTOPIA,IN,ELC,2005,2.61310006930693
UTOPIA,IN,ELC,2006,3.00062831683168
UTOPIA,IN,ELC,2007,3.37982656435643
UTOPIA,IN,ELC,2008,3.7632
UTOPIA,IN,ELC,2009,3.8976
UTOPIA,IN,ELC,2010,4.032
