REGION,YEAR,TotalDiscountedCost
UTOPIA,1990,7078.72683288609
UTOPIA,1991,1376.09449647064
UTOPIA,1992,1424.62292766247
UTOPIA,1993,1299.84585621443
UTOPIA,1994,1341.38329119963
UTOPIA,1995,1214.80761671757
UTOPIA,1996,1196.94405534521
UTOPIA,1997,1207.67621562593
UTOPIA,1998,1098.25235933606
UTOPIA,1999,1117.59515792439
UTOPIA,2000,1047.76929392613
UTOPIA,2001,1125.57836821304
UTOPIA,2002,1047.59038263477
UTOPIA,2003,1023.13575296739
UTOPIA,2004,937.081597338064
UTOPIA,2005,2029.87731258253
UTOPIA,2006,885.294863879598
UTOPIA,2007,838.923573513665
UTOPIA,2008,777.346298643333
UTOPIA,2009,718.539523688756
UTOPIA,2010,659.775230973559
