REGION,YEAR,TotalCapacityInReserveMargin
UTOPIA,1990,0.0
UTOPIA,1991,0.0
UTOPIA,1992,0.0
UTOPIA,1993,0.0
UTOPIA,1994,0.0
UTOPIA,1995,0.0
UTOPIA,1996,0.0
UTOPIA,1997,0.0
UTOPIA,1998,0.0
UTOPIA,1999,0.0
UTOPIA,2000,0.0
UTOPIA,2001,0.0
UTOPIA,2002,0.0
UTOPIA,2003,0.0
UTOPIA,2004,0.0
UTOPIA,2005,0.0
UTOPIA,2006,0.0
UTOPIA,2007,0.0
UTOPIA,2008,0.0
UTOPIA,2009,0.0
UTOPIA,2010,0.0
