REGION,STORAGE,YEAR,TotalDiscountedStorageCost
UTOPIA,DAM,1990,0.0
UTOPIA,DAM,1991,0.0
UTOPIA,DAM,1992,0.0
UTOPIA,DAM,1993,0.0
UTOPIA,DAM,1994,0.0
UTOPIA,DAM,1995,0.0
UTOPIA,DAM,1996,0.0
UTOPIA,DAM,1997,0.0
UTOPIA,DAM,1998,0.0
UTOPIA,DAM,1999,0.0
UTOPIA,DAM,2000,0.0
UTOPIA,DAM,2001,0.0
UTOPIA,DAM,2002,0.0
UTOPIA,DAM,2003,0.0
UTOPIA,DAM,2004,0.0
UTOPIA,DAM,2005,0.0
UTOPIA,DAM,2006,0.0
UTOPIA,DAM,2007,0.0
UTOPIA,DAM,2008,0.0
UTOPIA,DAM,2009,0.0
UTOPIA,DAM,2010,0.0
