REGION,FUEL,YEAR,UseAnnual
UTOPIA,LTH,1990,0.0
UTOPIA,LTH,1991,0.0
UTOPIA,LTH,1992,0.0
UTOPIA,LTH,1993,0.0
UTOPIA,LTH,1994,0.0
UTOPIA,LTH,1995,0.0
UTOPIA,LTH,1996,0.0
UTOPIA,LTH,1997,0.0
UTOPIA,LTH,1998,0.0
UTOPIA,LTH,1999,0.0
UTOPIA,LTH,2000,0.0
UTOPIA,LTH,2001,0.0
UTOPIA,LTH,2002,0.0
UTOPIA,LTH,2003,0.0
UTOPIA,LTH,2004,0.0
UTOPIA,LTH,2005,0.0
UTOPIA,LTH,2006,0.0
UTOPIA,LTH,2007,0.0
UTOPIA,LTH,2008,0.0
UTOPIA,LTH,2009,0.0
UTOPIA,LTH,2010,0.0
UTOPIA,HCO,1990,6.1090354715
UTOPIA,HCO,1991,6.631636602
UTOPIA,HCO,1992,7.331636602
UTOPIA,HCO,1993,7.8542377325
UTOPIA,HCO,1994,8.631975
UTOPIA,HCO,1995,9.506975
UTOPIA,HCO,1996,10.11589
UTOPIA,HCO,1997,10.99089
UTOPIA,HCO,1998,11.86589
UTOPIA,HCO,1999,12.74089
UTOPIA,HCO,2000,21.2405847029703
UTOPIA,HCO,2001,31.8331867574257
UTOPIA,HCO,2002,43.4584188118811
UTOPIA,HCO,2003,54.8492758663366
UTOPIA,HCO,2004,66.4745079207921
UTOPIA,HCO,2005,77.8653649752474
UTOPIA,HCO,2006,89.4905970297029
UTOPIA,HCO,2007,100.881454084158
UTOPIA,HCO,2008,112.455807425743
UTOPIA,HCO,2009,121.550337128713
UTOPIA,HCO,2010,130.535031831683
UTOPIA,OIL,1990,0.0
UTOPIA,OIL,1991,0.0
UTOPIA,OIL,1992,0.0
UTOPIA,OIL,1993,0.0
UTOPIA,OIL,1994,0.0
UTOPIA,OIL,1995,0.0
UTOPIA,OIL,1996,0.0
UTOPIA,OIL,1997,0.0
UTOPIA,OIL,1998,0.0
UTOPIA,OIL,1999,0.0
UTOPIA,OIL,2000,0.0
UTOPIA,OIL,2001,0.0
UTOPIA,OIL,2002,0.0
UTOPIA,OIL,2003,0.0
UTOPIA,OIL,2004,0.0
UTOPIA,OIL,2005,0.0
UTOPIA,OIL,2006,0.0
UTOPIA,OIL,2007,0.0
UTOPIA,OIL,2008,0.0
UTOPIA,OIL,2009,0.0
UTOPIA,OIL,2010,0.0
UTOPIA,CSV,1990,0.0
UTOPIA,CSV,1991,0.0
UTOPIA,CSV,1992,0.0
UTOPIA,CSV,1993,0.0
UTOPIA,CSV,1994,0.0
UTOPIA,CSV,1995,0.0
UTOPIA,CSV,1996,0.0
UTOPIA,CSV,1997,0.0
UTOPIA,CSV,1998,0.0
UTOPIA,CSV,1999,0.0
UTOPIA,CSV,2000,0.0
UTOPIA,CSV,2001,0.0
UTOPIA,CSV,2002,0.0
UTOPIA,CSV,2003,0.0
UTOPIA,CSV,2004,0.0
UTOPIA,CSV,2005,0.0
UTOPIA,CSV,2006,0.0
UTOPIA,CSV,2007,0.0
UTOPIA,CSV,2008,0.0
UTOPIA,CSV,2009,0.0
UTOPIA,CSV,2010,0.0
UTOPIA,DSL,1990,41.1999892
UTOPIA,DSL,1991,43.25998866
UTOPIA,DSL,1992,45.31998812
UTOPIA,DSL,1993,47.37998758
UTOPIA,DSL,1994,49.43998704
UTOPIA,DSL,1995,51.4999865
UTOPIA,DSL,1996,53.55998596
UTOPIA,DSL,1997,55.61998542
UTOPIA,DSL,1998,57.67998488
UTOPIA,DSL,1999,59.73998434
UTOPIA,DSL,2000,58.1927713036634
UTOPIA,DSL,2001,56.6745229366584
UTOPIA,DSL,2002,55.0491317446535
UTOPIA,DSL,2003,53.5308833776485
UTOPIA,DSL,2004,51.9054921856436
UTOPIA,DSL,2005,50.3872438186386
UTOPIA,DSL,2006,48.7618526266337
UTOPIA,DSL,2007,47.2436042596287
UTOPIA,DSL,2008,45.6414719008158
UTOPIA,DSL,2009,45.1729728652792
UTOPIA,DSL,2010,44.6330452797426
UTOPIA,HYD,1990,3.0142145285
UTOPIA,HYD,1991,3.366613398
UTOPIA,HYD,1992,3.541613398
UTOPIA,HYD,1993,3.8940122675
UTOPIA,HYD,1994,3.991275
UTOPIA,HYD,1995,3.991275
UTOPIA,HYD,1996,4.25736
UTOPIA,HYD,1997,4.25736
UTOPIA,HYD,1998,4.25736
UTOPIA,HYD,1999,4.25736
UTOPIA,HYD,2000,4.523445
UTOPIA,HYD,2001,5.3217
UTOPIA,HYD,2002,5.3217
UTOPIA,HYD,2003,5.3217
UTOPIA,HYD,2004,5.3217
UTOPIA,HYD,2005,5.3217
UTOPIA,HYD,2006,5.3217
UTOPIA,HYD,2007,5.3217
UTOPIA,HYD,2008,5.3217
UTOPIA,HYD,2009,5.3217
UTOPIA,HYD,2010,5.587785
UTOPIA,TX,1990,0.0
UTOPIA,TX,1991,0.0
UTOPIA,TX,1992,0.0
UTOPIA,TX,1993,0.0
UTOPIA,TX,1994,0.0
UTOPIA,TX,1995,0.0
UTOPIA,TX,1996,0.0
UTOPIA,TX,1997,0.0
UTOPIA,TX,1998,0.0
UTOPIA,TX,1999,0.0
UTOPIA,TX,2000,0.0
UTOPIA,TX,2001,0.0
UTOPIA,TX,2002,0.0
UTOPIA,TX,2003,0.0
UTOPIA,TX,2004,0.0
UTOPIA,TX,2005,0.0
UTOPIA,TX,2006,0.0
UTOPIA,TX,2007,0.0
UTOPIA,TX,2008,0.0
UTOPIA,TX,2009,0.0
UTOPIA,TX,2010,0.0
UTOPIA,GSL,1990,0.0
UTOPIA,GSL,1991,0.0
UTOPIA,GSL,1992,0.0
UTOPIA,GSL,1993,0.0
UTOPIA,GSL,1994,0.0
UTOPIA,GSL,1995,-1.35235485119155e-15
UTOPIA,GSL,1996,0.0
UTOPIA,GSL,1997,0.0
UTOPIA,GSL,1998,0.0
UTOPIA,GSL,1999,0.0
UTOPIA,GSL,2000,0.0
UTOPIA,GSL,2001,0.0
UTOPIA,GSL,2002,0.0
UTOPIA,GSL,2003,0.0
UTOPIA,GSL,2004,0.0
UTOPIA,GSL,2005,0.0
UTOPIA,GSL,2006,0.0
UTOPIA,GSL,2007,0.0
UTOPIA,GSL,2008,0.0
UTOPIA,GSL,2009,9.12509505035827e-16
UTOPIA,GSL,2010,0.0
UTOPIA,RL,1990,0.0
UTOPIA,RL,1991,0.0
UTOPIA,RL,1992,0.0
UTOPIA,RL,1993,0.0
UTOPIA,RL,1994,0.0
UTOPIA,RL,1995,0.0
UTOPIA,RL,1996,0.0
UTOPIA,RL,1997,0.0
UTOPIA,RL,1998,0.0
UTOPIA,RL,1999,0.0
UTOPIA,RL,2000,0.0
UTOPIA,RL,2001,0.0
UTOPIA,RL,2002,0.0
UTOPIA,RL,2003,0.0
UTOPIA,RL,2004,0.0
UTOPIA,RL,2005,0.0
UTOPIA,RL,2006,0.0
UTOPIA,RL,2007,0.0
UTOPIA,RL,2008,0.0
UTOPIA,RL,2009,0.0
UTOPIA,RL,2010,0.0
UTOPIA,RH,1990,0.0
UTOPIA,RH,1991,0.0
UTOPIA,RH,1992,0.0
UTOPIA,RH,1993,0.0
UTOPIA,RH,1994,0.0
UTOPIA,RH,1995,0.0
UTOPIA,RH,1996,0.0
UTOPIA,RH,1997,0.0
UTOPIA,RH,1998,0.0
UTOPIA,RH,1999,0.0
UTOPIA,RH,2000,0.0
UTOPIA,RH,2001,0.0
UTOPIA,RH,2002,0.0
UTOPIA,RH,2003,0.0
UTOPIA,RH,2004,0.0
UTOPIA,RH,2005,0.0
UTOPIA,RH,2006,0.0
UTOPIA,RH,2007,0.0
UTOPIA,RH,2008,0.0
UTOPIA,RH,2009,0.0
UTOPIA,RH,2010,0.0
UTOPIA,URN,1990,0.0
UTOPIA,URN,1991,0.0
UTOPIA,URN,1992,0.0
UTOPIA,URN,1993,0.0
UTOPIA,URN,1994,0.0
UTOPIA,URN,1995,0.0
UTOPIA,URN,1996,0.0
UTOPIA,URN,1997,0.0
UTOPIA,URN,1998,0.0
UTOPIA,URN,1999,0.0
UTOPIA,URN,2000,0.0
UTOPIA,URN,2001,0.0
UTOPIA,URN,2002,0.0
UTOPIA,URN,2003,0.0
UTOPIA,URN,2004,0.0
UTOPIA,URN,2005,0.0
UTOPIA,URN,2006,0.0
UTOPIA,URN,2007,0.0
UTOPIA,URN,2008,0.0
UTOPIA,URN,2009,0.0
UTOPIA,URN,2010,0.0
UTOPIA,ELC,1990,5.6
UTOPIA,ELC,1991,5.88
UTOPIA,ELC,1992,6.16
UTOPIA,ELC,1993,6.44
UTOPIA,ELC,1994,6.72
UTOPIA,ELC,1995,7.0
UTOPIA,ELC,1996,7.28
UTOPIA,ELC,1997,7.56
UTOPIA,ELC,1998,7.84
UTOPIA,ELC,1999,8.12
UTOPIA,ELC,2000,10.9250495049505
UTOPIA,ELC,2001,14.5701237623762
UTOPIA,ELC,2002,18.290198019802
UTOPIA,ELC,2003,21.9352722772277
UTOPIA,ELC,2004,25.6553465346535
UTOPIA,ELC,2005,29.3004207920792
UTOPIA,ELC,2006,33.0204950495049
UTOPIA,ELC,2007,36.6655693069307
UTOPIA,ELC,2008,40.3693623762376
UTOPIA,ELC,2009,43.2796118811881
UTOPIA,ELC,2010,46.2398613861386
